place,first,last,net Time,diff
1,Nicole,Richardson,40:06,- 1:54
2,Harrison,Pearse,31:05,- 1:35
3,Alan,East,50:23,- 1:29
4,Keith,Cassilles-Southgate,30:37,- 1:23
5,Chris,McCormack,30:46,- 1:14
6,Matthew,Heislers,30:00,- 1:12
7,Travis,Kelly,33:38,- 1:02
8,Leeza,Meharry,37:26,- 0:50
9,Alan,Buchanan,33:31,- 0:45
10,Rebecca,Tweed,32:12,- 0:44
11,David,Heislers,35:17,- 0:43
12,Samara,Finch,41:23,- 0:37
13,Ingrid,Douglass,35:09,- 0:27
14,$ Lee,Bray,34:50,- 0:30
15,Justin,O'Brien,39:11,- 0:33
16,Mark,Saxon,34:59,- 0:21
17,Shayne,Rushan,38:48,- 0:16
18,Justin,Lee,36:23,- 0:09
19,Ben,McDermid,31:35,- 0:01
20,Craig,Feuerherdt,30:59,+ 0:03
21,Alison,Cartner,37:01,- 0:03
22,Gavin,Fiedler,35:11,- 0:01
23,Brad,Russell,39:46,+ 0:10
24,Andrew,Mason,35:03,+ 0:23
25,Jarrod,Moroni,34:25,+ 0:25
26,Max,Pearse,33:58,+ 0:38
27,Frances,Walsh,42:45,+ 0:53
28,Ryan,Brook,35:29,+ 1:21
29,Jason,Finch,38:57,+ 1:29
30,Georgie,Lanyon,37:00,+ 2:12
31,Megan,McDonald,51:18,+ 3:18
32,Natalie,Watson,48:19,+ 3:23
33,Laura,Terry,58:19,+ 18:11