place,first,last,net Time,diff
1,Manny,Rose,7:01,- 0:29
2,Luke,Feuerherdt,6:35,- 0:21
3,Kaidyn,Tucker,4:53,- 0:08
4,Max,Rowe,5:26,- 0:04
5,Lachlan,Feuerherdt,5:17,- 0:08
6,Floyd,Cartner,4:27,- 0:04
7,Jake,Lyons,4:11,+ 0:01
8,Nellie,Rose,5:22,- 0:03
9,Pheobe,Lonsdale,5:43,- 0:02
10,Lewis,Lonsdale,6:44,+ 0:14
11,Tim,Creer,4:58,+ 0:13