Place,First,Last,NET Time,Pace,Diff
1,Leo,Stoltz,0:06:12.2,06:12,-00:12.8
2,Genevieve,Robinson,0:05:46.7,05:47,-00:02.3
3,Bonnie,Scott,0:06:16.6,06:17,+00:01.6
4,Xavier,Marwood,0:04:37.1,04:37,+00:02.1
5,Jonty,McDermid,0:04:22.2,04:22,+00:03.2
6,Polly,Byrne,0:06:34.1,06:34,+00:06.1
7,Miriam,Niblett,0:06:22.3,06:22,+00:06.3
8,Savannah,Marwood,0:05:36.5,05:36,+00:06.5
9,Charley,Collins,0:04:24.4,04:24,+00:07.4
10,Geoffrey,Robinson,0:05:12.7,05:13,+00:07.7
11,Ronny,Epps,0:06:53.4,06:53,+00:09.4
12,Alice,McIntosh,0:05:27.5,05:28,+00:09.5
13,Lewis,Lonsdale,0:04:06.5,04:07,+00:10.5
14,Avery,McDermid,0:04:13.3,04:13,+00:11.3
15,Tanner,Fear,0:04:00.3,04:00,+00:12.3
16,Mason,Woodward,0:03:48.2,03:48,+00:14.2
17,Chloe,Beesley,0:05:31.4,05:31,+00:14.4
18,Eiliyah,Daneen,0:05:19.8,05:20,+00:15.8
19,Naghmana,Tehseen,0:07:31.6,07:32,+00:17.6
20,Harry,Scott,0:04:54.1,04:54,+00:20.1
21,Ebony,Woodward,0:04:44.1,04:44,+00:26.1
22,Evie,Niblett,0:08:26.2,08:26,+00:27.2
23,Tully,Cripps,0:05:48.4,05:48,+00:27.4
24,William,Trew,0:04:13.2,04:13,+00:33.2
25,Oliver,Clarke,0:06:31.6,06:32,+00:34.6
26,Luke,Collins,0:07:16.4,07:16,+00:42.4
27,Owen,Draper,0:06:43.4,06:43,+00:44.4
28,Logan,Beesley,0:05:09.7,05:10,+00:44.7
29,April,Wainwright,0:05:20.2,05:20,+00:50.2
30,Ellie,Beesley,0:07:01.7,07:02,+00:50.7
31,Skylar,Woodward,0:05:41.0,05:41,+00:51.0
32,Mikayla,Kirkby,0:07:19.7,07:20,+00:51.7
NEW,Emily,Waddington,0:06:31.8,06:32
NEW,Eden,McMahon,0:07:52.8,07:53
NEW,Spencer,McMahon,0:10:40.7,10:41
