place,first,last,start,pace,est Time
1,$   Pam,Holland,00:00,7:0,56:00
2,Natalie,Thomas,00:00,7:0,56:00
3,Lisa,McDermid,00:00,6:54,55:12
4,$ Ali,Musk,00:00,6:43,53:44
5,Karlee,Thorpe,00:00,6:40,53:20
6,$ Julie,Hogan,00:00,6:37,52:56
7,Alan,East,00:00,6:26,51:28
8,$ Julie,Everly,00:00,6:20,50:40
9,$ Aida,Escall,00:00,6:18,50:24
10,John,Doering,00:00,6:14,49:52
11,$ Marianne,Richardson,00:00,6:14,49:52
12,Michelle,Bieleny,00:00,6:10,49:20
13,Megan,McDonald,00:00,6:3,48:24
14,Catherine,Pethybridge,00:00,6:2,48:16
15,$ Cara,Smith,00:00,6:2,48:16
16,$ Jodie,Scoble,00:00,6:0,48:00
17,Millie,Lourie,00:00,5:58,47:44
18,Stacey,Lonsdale,00:00,5:57,47:36
19,Tracie,Gleisner,00:00,5:56,47:28
20,$ Briana,Cowan,00:00,5:55,47:20
21,$ Mikaela,Wilson,00:00,5:55,47:20
22,$ Jessey,Wilson,00:00,5:55,47:20
23,$ Joanne,Weatherhead,00:00,5:52,46:56
24,Danni,Adams,00:00,5:52,46:56
25,Janet,Hodnett,00:00,5:51,46:48
26,$ Simone,Healy,00:00,5:50,46:40
27,$ Ellie,Wilson,00:00,5:50,46:40
28,$ Biljana,Ansted,00:00,5:49,46:32
29,$ Julia,Perez,00:00,5:49,46:32
30,Lisa,Bortolotto,00:00,5:47,46:16
31,Natalie,Watson,00:00,5:45,46:00
32,Carol,Sing,00:00,5:44,45:52
33,Michael,Turner,00:00,5:43,45:44
34,Troy,Davis,00:00,5:43,45:44
35,Lilly,Walsh,00:00,5:40,45:20
36,Chris,Richardson,00:00,5:35,44:40
37,$ Amy,Munro,00:00,5:30,44:00
38,Callum,Tucker,00:00,5:30,44:00
39,$ Gabby,Walsh,00:00,5:29,43:52
40,Alison,McCullagh,00:00,5:26,43:28
41,$ Noah,Walsh,00:00,5:25,43:20
42,Maree,Platt,00:00,5:23,43:04
43,Angela,Slattery,00:00,5:22,42:56
44,Melissa,Wilkie,00:00,5:22,42:56
45,$ Peter,Burchill,00:00,5:22,42:56
46,Shann,Anderson,00:00,5:20,42:40
47,$ Greg,Targett,00:00,5:20,42:40
48,$ John,Brewin,00:00,5:18,42:24
49,Nicole,Richardson,00:00,5:18,42:24
50,$ Emma,Burke,00:00,5:17,42:16
51,Frances,Walsh,00:00,5:17,42:16
52,Kylie,Buchanan,00:00,5:16,42:08
53,Kylie,Cheal,00:00,5:15,42:00
54,Holly,Randall,00:00,5:15,42:00
55,Jodie,Giles,00:00,5:15,42:00
56,$ James,Everist,00:00,5:15,42:00
57,$ Harry,Everist,00:00,5:15,42:00
58,$ Stacy,Hunter,00:00,5:13,41:44
59,Jackie,Tremayne,00:00,5:13,41:44
60,$ Scott,Roberts,00:00,5:11,41:28
61,Laura,Terry,00:00,5:11,41:28
62,Paul,Buncle,00:00,5:11,41:28
63,Maree,Reid,00:00,5:10,41:20
64,$ Sam,Brewin,00:00,5:7,40:56
65,$ Jenny,Pattinson,00:00,5:5,40:40
66,$ Penny,Spencer,00:00,5:4,40:32
67,$ Andrew,Evely,00:00,5:2,40:16
68,Jennifer,Lee,00:00,5:2,40:16
69,$ Laura,Reynolds,00:00,5:1,40:08
70,$ Nick,Walsh,00:00,5:1,40:08
71,$ Conor,Cunningham,00:00,5:0,40:00
72,Justin,O'Brien,00:00,5:0,40:00
73,Brad,Russell,00:00,4:57,39:36
74,Fraser,Lourie,00:00,4:56,39:28
75,$ Kim,Townrow,00:00,4:55,39:20
76,Melissa,Douglas,00:00,4:54,39:12
77,Shayne,Rushan,00:00,4:53,39:04
78,$ Jaclyn,Munge,00:00,4:52,38:56
79,Leeza,Meharry,00:00,4:52,38:56
80,Tina,McBain,00:00,4:50,38:40
81,$ Rory,Weightman,00:00,4:47,38:16
82,Jenny,Buchanan,00:00,4:42,37:36
83,Jason,Finch,00:00,4:42,37:36
84,$ Brett,Houlden,00:00,4:41,37:28
85,Roy,Preece,00:00,4:41,37:28
86,Alison,Cartner,00:00,4:40,37:20
87,$ Todd,Foster,00:00,4:40,37:20
88,Genevieve,Green,00:00,4:40,37:20
89,Jarrah,O'Shea,00:00,4:40,37:20
90,$ Lyn,Dean,00:00,4:40,37:20
91,Gary,Crouch,00:00,4:39,37:12
92,David,Heislers,00:00,4:37,36:56
93,Matthew,Creer,00:00,4:37,36:56
94,$ Dan,Holland,00:00,4:36,36:48
95,$ Lisa,Wilkinson,00:00,4:36,36:48
96,Justin,Lee,00:00,4:34,36:32
97,Ingrid,Douglass,00:00,4:33,36:24
98,$ Emma,Moylan,00:00,4:33,36:24
99,$ Owen,Davies,00:00,4:30,36:00
100,George,Thomas,00:00,4:30,36:00
101,$ Lee,Bray,00:00,4:30,36:00
102,$ Michael,Hogan,00:00,4:29,35:52
103,$ Maddy,Evely,00:00,4:26,35:28
104,Mark,Saxon,00:00,4:26,35:28
105,Gavin,Fiedler,00:00,4:25,35:20
106,John,McCullagh,00:00,4:25,35:20
107,Andrew,Mason,00:00,4:25,35:20
108,Rick,Jackel,00:00,4:23,35:04
109,Leon,Hamond,00:00,4:22,34:56
110,Georgie,Lanyon,00:00,4:22,34:56
111,Greg,McBain,00:00,4:22,34:56
112,Alan,Buchanan,00:00,4:20,34:40
113,$ Erica,Wilkinson,00:00,4:20,34:40
114,Travis,Kelly,00:00,4:20,34:40
115,Ryan,Brook,00:00,4:15,34:00
116,$ Scott,Alterater,00:00,4:14,33:52
117,$ Michael,Gibbon,00:00,4:13,33:44
118,Aaron,Anderson,00:00,4:12,33:36
119,$ Max,Pearse,00:00,4:10,33:20
120,Jeff,Pethybridge,00:00,4:9,33:12
121,Russell,Tremayne,00:00,4:9,33:12
122,Rebecca,Tweed,00:00,4:9,33:12
123,Jim,Russell,00:00,4:5,32:40
124,$ Russell,Jenkins,00:00,4:3,32:24
125,Chris,McCormack,00:00,4:3,32:24
126,$ Brock,Prime,00:00,4:2,32:16
127,Brian,Watson,00:00,4:0,32:00
128,Tracy,Wilson,00:00,4:0,32:00
129,Ben,McDermid,00:00,3:59,31:52
130,$ Charles,Chambers,00:00,3:58,31:44
131,Andrew,Creer,00:00,3:56,31:28
132,Jason,Fletcher,00:00,3:56,31:28
133,Craig,Feuerherdt,00:00,3:55,31:20
134,Matthew,Heislers,00:00,3:55,31:20
135,$ Jason,Sim,00:00,3:55,31:20
136,Jordan,Adams,00:00,3:55,31:20
137,$ Luke,Crameri,00:00,3:52,30:56
138,Andrew,Hosking,00:00,3:51,30:48
139,$ David,Tarrant,00:00,3:50,30:40
140,Troy,Cartner,00:00,3:49,30:32
141,$ Simon,Austin,00:00,3:47,30:16
142,$ Patrick,Kenny,00:00,3:45,30:00
143,Michael,Bieleny,00:00,3:43,29:44
144,Lee,McCullagh,00:00,3:43,29:44
145,$ Leon,Keely,00:00,3:40,29:20
146,$ Ross,McPhee,00:00,3:37,28:56
147,$ Luke,Hutchins,00:00,3:36,28:48
148,$ Bryan,Keely,00:00,3:30,28:00
149,Richard,Gleisner,00:00,3:29,27:52
150,Fraser,Walsh,00:00,3:25,27:20
151,Andrew,Buchanan,00:00,3:23,27:04