place,first,last,start,pace,est Time
1,Olivia,Kealy,00:00,7:0,25:12
2,Tiffany,McCullough,00:00,7:0,25:12
3,Moira,Coleman,00:00,7:0,25:12
4,Milla,Finch,00:00,7:0,25:12
5,Kevin,Wheatley,00:00,7:0,25:12
6,Kathryne,Charnas,00:00,6:50,24:36
7,Ella,Fisher,00:00,6:45,24:18
8,Ruby,Fletcher,00:00,6:44,24:14
9,Serge,Finch,00:00,6:40,24:00
10,Katie,Dean,00:00,6:35,23:42
11,Collette,Fletcher,00:00,6:32,23:31
12,Kath,O'Shea,00:00,6:30,23:24
13,Lucy,Terry,00:00,6:23,22:59
14,Fiona,Dangerfield,00:00,6:20,22:48
15,Lachlan,Walsh,00:00,6:15,22:30
16,Nellie,Rose,00:00,6:15,22:30
17,Lachlan,Feuerherdt,00:00,6:12,22:19
18,William,Gleisner,00:00,6:10,22:12
19,Aoife,Cunningham,00:00,6:10,22:12
20,Murphy,Watson,00:00,6:10,22:12
21,Luke,Creer,00:00,6:5,21:54
22,David,Ashman,00:00,6:5,21:54
23,Eliza,O'Sullivan,00:00,6:0,21:36
24,Hamish,Walker,00:00,6:0,21:36
25,Tom,Colman,00:00,6:0,21:36
26,Oscar,Terry,00:00,6:0,21:36
27,Charlie,Lourie,00:00,5:58,21:29
28,Sophie,Shoebridge,00:00,5:57,21:25
29,Layla,Day,00:00,5:55,21:18
30,Lulu,Hamond,00:00,5:55,21:18
31,Imogen,Thompson,00:00,5:54,21:14
32,Gretel,Douglas,00:00,5:53,21:11
33,Tara,Anderson,00:00,5:53,21:11
34,Imogen,Douglass,00:00,5:50,21:00
35,Rebecca,Ashman,00:00,5:50,21:00
36,Kaidyn,Tucker,00:00,5:48,20:53
37,Amber,Lyons,00:00,5:45,20:42
38,Harry,Terry,00:00,5:45,20:42
39,Catelynd,Wheatley,00:00,5:45,20:42
40,Zac,Walsh,00:00,5:41,20:28
41,Tim,Creer,00:00,5:40,20:24
42,Belinda,O'Sullivan,00:00,5:40,20:24
43,Jayden,Padgham,00:00,5:40,20:24
44,Phoebe,Lonsdale,00:00,5:40,20:24
45,Abbey,Saxon,00:00,5:40,20:24
46,Nicole,Kelly,00:00,5:39,20:20
47,Leila,Padgham,00:00,5:38,20:17
48,Henry,Cordell,00:00,5:37,20:13
49,Hanna,Crane,00:00,5:35,20:06
50,Danni,Padgham,00:00,5:33,19:59
51,Tracie,Gleisner,00:00,5:30,19:48
52,Lisa,Bortolotto,00:00,5:30,19:48
53,Amy,Sim,00:00,5:26,19:34
54,Lavinia,Douglass,00:00,5:25,19:30
55,Megan,McDonald,00:00,5:23,19:23
56,Millie,Lourie,00:00,5:23,19:23
57,Ella,Finch,00:00,5:23,19:23
58,Riley,Tawton,00:00,5:22,19:19
59,James,Kealy,00:00,5:20,19:12
60,Lewis,Fisher,00:00,5:20,19:12
61,Darcy,Tucker,00:00,5:20,19:12
62,Andrew,Dean,00:00,5:20,19:12
63,Matthew,Saxon,00:00,5:19,19:08
64,Peter,Thorpe,00:00,5:18,19:05
65,Morgan,Dunn,00:00,5:15,18:54
66,Michelle,Perry,00:00,5:15,18:54
67,Amy,Dean,00:00,5:11,18:40
68,Micheala,Meharry,00:00,5:10,18:36
69,Jack,Bombardian,00:00,5:6,18:22
70,Greg,Christie,00:00,5:5,18:18
71,Emily,Heislers,00:00,5:3,18:11
72,Beatrice,Lonsdale,00:00,5:1,18:04
73,Ash,Bull,00:00,5:0,18:00
74,Murray,Cordell,00:00,5:0,18:00
75,Will,Crane,00:00,5:0,18:00
76,Sayyu,Hamond,00:00,5:0,18:00
77,Bailey,Dunn,00:00,4:58,17:53
78,Samara,Finch,00:00,4:58,17:53
79,Nicholas,Ashman,00:00,4:55,17:42
80,Luke,Stevens,00:00,4:55,17:42
81,Carissa,Brook,00:00,4:54,17:38
82,Bella,Livingston,00:00,4:52,17:31
83,Ross,Douglas,00:00,4:50,17:24
84,Fraser,Lourie,00:00,4:50,17:24
85,Floyd,Cartner,00:00,4:46,17:10
86,Tullie,Rowe,00:00,4:44,17:02
87,Blaze,Houlden,00:00,4:42,16:55
88,Sebastian,Rowe,00:00,4:40,16:48
89,Miles,Livingston,00:00,4:35,16:30
90,Henry,Bombardieri,00:00,4:30,16:12
91,Noah,Walsh,00:00,4:29,16:08
92,Matthew,Creer,00:00,4:28,16:05
93,Shaina,Brook,00:00,4:24,15:50
94,David,Lonsdale,00:00,4:24,15:50
95,John,Rose,00:00,4:20,15:36
96,Jack,Cripps,00:00,4:19,15:32
97,Bweku,Hamond,00:00,4:18,15:29
98,Leon,Hamond,00:00,4:16,15:22
99,Riley,Walsh,00:00,4:14,15:14
100,Callum,Tucker,00:00,4:13,15:11
101,Luke,Padgham,00:00,4:10,15:00
102,Maxwell,Pearse,00:00,4:5,14:42
103,Jim,Russell,00:00,3:55,14:06
104,Andrew,Creer,00:00,3:46,13:34
105,Matthew,Heislers,00:00,3:43,13:23
106,Fraser,Walsh,00:00,3:29,12:32