place,first,last,start,pace,est Time
1,Sarah,Cunningham,0:20,7:37,7:37
2,Rex,Lourie,0:30,7:30,7:30
3,Olivia,Kealy,0:30,7:26,7:26
4,Ella,Meharry,0:50,7:15,7:15
5,Lacey,Wilkie,0:50,7:15,7:15
6,Joshua,Feuerherdt,0:50,7:10,7:10
7,Allerah,Thomas,1:00,7:5,7:05
8,Ethan,Fletcher,1:00,7:3,7:03
9,Joshua,Kelly,1:00,7:0,7:00
10,Xavier,Thomas,1:00,6:58,6:58
11,Kane,Charnas,1:10,6:50,6:50
12,Will,Smith,1:10,6:50,6:50
13,Luke,Creer,1:10,6:49,6:49
14,Kalan,Thomas,1:20,6:45,6:45
15,Lulu Too,Hamond,1:20,6:40,6:40
16,Neve,Coleman,1:20,6:40,6:40
17,Amber,Anderson,1:30,6:35,6:35
18,Finn,Cunningham,1:30,6:30,6:30
19,Kevin,Wheatley,1:30,6:30,6:30
20,Abbey,Reid,1:30,6:30,6:30
21,Jack,Gleisner,1:30,6:26,6:26
22,Tara,Anderson,1:40,6:20,6:20
23,Charlotte,Crane,1:40,6:20,6:20
24,Saige,Finch,1:50,6:15,6:15
25,Avery,McDermid,1:50,6:10,6:10
26,Miller,Finch,1:50,6:10,6:10
27,Lucinda,Terry,1:50,6:9,6:09
28,Ruby,Fletcher,2:00,6:0,6:00
29,Moira,Coleman,2:00,6:0,6:00
30,Eliza,Christie,2:00,5:57,5:57
31,Jade,Kelly,2:10,5:55,5:55
32,Rhyse,Thorpe,2:10,5:55,5:55
33,Cooper,Rea,2:10,5:55,5:55
34,Hannah,Crane,2:10,5:51,5:51
35,Aoife,Cunningham,2:10,5:51,5:51
36,Jasmine,Padgham,2:10,5:50,5:50
37,Rossi,Stevens,2:10,5:50,5:50
38,Nick,Meharry,2:10,5:46,5:46
39,Ella,Fisher,2:20,5:45,5:45
40,Rebecca,Ashman,2:20,5:44,5:44
41,Manny,Rose,2:20,5:40,5:40
42,Jordan,Wheatley,2:20,5:40,5:40
43,Nellie,Rose,2:20,5:39,5:39
44,James,Cheal,2:20,5:36,5:36
45,Amity,Thorpe,2:30,5:35,5:35
46,Albert,Cordell,2:30,5:33,5:33
47,Melana,Cordell,2:30,5:30,5:30
48,Matthew,Saxon,2:30,5:30,5:30
49,Jack,McCullough,2:30,5:30,5:30
50,Murphy,Watson,2:30,5:30,5:30
51,Will,Gleisner,2:30,5:30,5:30
52,Tyler,Wilkie,2:40,5:24,5:24
53,Georgia,Pearce,2:40,5:20,5:20
54,Catelynd,Wheatley,2:40,5:20,5:20
55,Pheobe,Lonsdale,2:40,5:18,5:18
56,Beatrice,Lonsdale,2:40,5:17,5:17
57,Vincent,Weatherhead,2:40,5:17,5:17
58,Lewis,Lonsdale,2:50,5:15,5:15
59,Kaidyn,Tucker,2:50,5:14,5:14
60,Cooper,Charnas,2:50,5:10,5:10
61,Henry,Cordell,3:00,5:5,5:05
62,Tim,Creer,3:00,5:5,5:05
63,Abbey,Cartner,3:00,5:5,5:05
64,Nina,Lenard,3:00,5:3,5:03
65,Luke,Feuerherdt,3:00,5:2,5:02
66,Oscar,Terry,3:00,5:0,5:00
67,Tom,Coleman,3:00,5:0,5:00
68,Max,Rowe,3:10,4:55,4:55
69,Harrison,Kelly,3:10,4:55,4:55
70,Leila,Padgham,3:10,4:50,4:50
71,Morgan,Dunn,3:10,4:48,4:48
72,Emerson,Sim,3:10,4:46,4:46
73,Lachlan,Feuerherdt,3:20,4:45,4:45
74,Jack,Meharry,3:20,4:45,4:45
75,Michaela,Meharry,3:20,4:42,4:42
76,Emily,Heislers,3:20,4:40,4:40
77,Jayden,Padgham,3:20,4:40,4:40
78,Tullie,Rowe,3:40,4:24,4:24
79,Jake,Lyons,3:40,4:20,4:20
80,Bailey,Dunn,3:40,4:20,4:20
81,Floyd,Cartner,3:50,4:8,4:08
82,Brayden,Roberts,3:50,4:7,4:07
83,Noah,Walsh,4:00,4:5,4:05
84,Melissa,Douglas,4:00,4:0,4:00