place,first,last,net Time,club
1,Natasha,Fitzpatrick,32:13.1,STH BENDIGO
2,Els,Viester,33:31.4,BUAC
3,Rebecca,Wilkinson,33:59.3,BUAC
4,Beth,Lavery,39:08.2,BUAC
5,Nadene,Macdonald,49:01.9,HARRIERS
6,Kathryne,Charnas,50:02.0,BUAC