place,first,last,net Time,diff
1,Natalie,Jacobson,46:52:00,0:00
2,Paul,Seaward,42:44:00,0:18
3,Philip,Shambrook,45:31:00,0:24
4,Alan,Buchanan,42:22:00,0:25
5,John,Robinson,37:45:00,0:23
6,David,Meade,33:43:00,0:47
7,David,Heislers,42:16:00,0:56
8,Justin,Lee,42:30:00,1:01
9,Troy,Davis,53:30:00,1:15
10,Gavin,Fiedler,43:41:00,1:15
11,Alison,Cartner,45:42:00,1:12
12,Ingrid,Douglass,43:31:00,1:24
13,Tom,Barkmeyer,34:17:00,1:30
14,Gary,Crouch,49:11:00,1:32
15,Maree,Platt,50:32:00,1:27
16,Ross,Douglas,46:58:00,1:50
17,Ryan,Brook,44:23:00,2:16
18,Chris,McCormack,40:43:00,2:24
19,Shayne,Rushan,49:36:00,2:44
20,Kevin,deVries,52:32:00,2:49
21,Frances,Walsh,55:05:00,3:00
22,Laura,Terry,52:08:00,2:54
23,Ben,McDermid,46:58:00,4:13
24,Ashlee,Diston,50:11:00,5:41