place,first,last,net Time,diff
1,Sachin,Cody,7:17,0:06
2,Martin,Steen,4:33,0:17
3,Billy,Meade,4:13,0:14
4,Jett,Grundy,4:24,0:12
5,Quinlan,Cody,7:17,0:18
6,Luke,Feuerherdt,4:51,0:24
7,Abbey,Cartner,4:52,0:22
8,Geoffrey,Robinson,7:08,0:26
9,Lewis,Lonsdale,4:50,0:27
10,Jana,Steen,6:42,0:31
11,William,Robinson,4:52,0:30
12,Maddi,Bray,6:33,0:37
13,Tadhg,Hughan,5:56,0:36
14,Isabella,Makris,6:24,0:46
15,Lachlan,Feuerherdt,5:00,0:50
16,Nikolas,Makris,5:10,0:56
17,Joshua,Feuerherdt,6:10,1:00
18,Will,deVries,6:41,0:56
19,Olivia,Douglas,7:07,1:10
20,Ava,Terry,7:20,1:43
21,Sean,Hughan,13:41,5:42