PLACE,FIRST,LAST,TIME,PACE,CLUB
1,Max,Rowe,0:30:23.8,04:20.5,UNI
2,Lachlan,Feuerherdt,0:31:54.0,04:33.4,UNI
3,Tanner,Fear,0:32:07.7,04:35.4,UNI
4,Harvey,Gibbs,0:32:38.0,04:39.7,HARRIERS
5,William,Robinson,0:34:30.8,04:55.8,UNI
6,Solomon,Gibbs,0:37:09.4,05:18.5,HARRIERS
7,Eli,Hobson,0:38:29.3,05:29.9,HARRIERS
8,Luke,Feuerherdt,0:38:37.8,05:31.1,UNI
9,Harrison,Ferguson,1:17:08.8,11:01.3,OTHER
