PLACE,FIRST,LAST,TIME,PACE,CLUB
1,Logan,Tickell,0:11:26.0,03:48.7,SOUTH BENDIGO
2,Harrison,Boyd,0:11:47.1,03:55.7,HARRIERS
3,Floyd,Cartner,0:11:53.6,03:57.9,UNI
4,Harry,Wright,0:12:10.2,04:03.4,UNI
5,James,Trew,0:12:56.6,04:18.9,UNI
6,Phoebe,Lonsdale,0:14:09.4,04:43.1,UNI
7,Lewis,Lonsdale,0:15:06.9,05:02.3,UNI
8,Melissa,Douglas,0:15:23.5,05:07.8,UNI
9,Mark,Boyd,0:15:38.1,05:12.7,HARRIERS
10,Jasmine,Murphy,0:15:59.9,05:20.0,UNI
11,Josephine,Robinson,0:16:07.8,05:22.6,UNI
12,Kim,Carter,0:18:11.6,06:03.9,UNI
13,Will,de Vries,0:20:18.6,06:46.2,UNI
