Place,First,Last,NET Time,Pace,Diff
1,Kevin,deVries,0:19:29.3,05:25,-00:43.9
2,Anne,McIntosh,0:19:06.4,05:18,+00:01.6
3,Ben,McDermid,0:14:51.1,04:08,+00:16.3
4,Avery,McDermid,0:20:37.6,05:44,+00:24.4
5,Max,Rowe,0:16:26.9,04:34,+00:43.7
6,Wil,McCaig,0:13:39.1,03:48,+00:45.1
7,Oliver,Sanderson,0:16:08.0,04:29,+00:57.2
8,Floyd,Cartner,0:16:18.1,04:32,+01:10.9
9,Tanya,Fleming,0:21:58.1,06:06,+01:12.5
10,Tanner,Fear,0:17:25.0,04:50,+01:16.6
11,Melissa,Douglas,0:16:46.6,04:40,+01:28.6
12,Tullie,Rowe,0:15:57.3,04:26,+01:33.3
13,Charlotte,Murphy,0:17:16.6,04:48,+01:51.4
14,Beatrice,Lonsdale,0:19:34.1,05:26,+01:52.1
15,Bec,Lacy,0:21:24.0,05:57,+01:54.0
16,Abbey,Cartner,0:18:29.8,05:08,+02:07.0
17,Lesley,Fabian,0:25:05.9,06:58,+03:01.1
18,Hamish,Draper,0:28:56.7,08:02,+03:05.1
19,Bec,Woodward,0:22:38.2,06:17,+03:08.2
20,Phoebe,Lonsdale,0:19:37.5,05:27,+03:14.7
21,Amelia,Mitchell,0:29:16.9,08:08,+03:43.3
22,Genevieve,Draper,0:29:12.2,08:07,+03:45.8
23,Danny,Burgess,0:21:00.3,05:50,+03:47.1
24,Connor,Bedson,0:20:01.0,05:34,+04:17.8
NEW,Tim,Lovell,0:20:52.0,05:48
NEW,Andrea,Smith,0:17:21.6,04:49
NEW,Taylor,Lovell,0:20:50.6,05:47
NEW,Fiona,Preston,0:26:51.8,07:28
NEW,Mason,Woodward,0:22:42.3,06:18
