PLACE,FIRST,LAST,RACES,POINTS
1,Chris,Giffin,10,409
2,Ben,McDermid,9,385
3,Michael,Bieleny,8,332
4,Darren,Rowe,9,327
5,Josephine,Robinson,9,313
6,Paul,Lomax,9,309
7,Alison,Cartner,10,306
8,David,Howes,7,294
9,Alan,Buchanan,7,287
10,Greg,Carter,8,265
11,David,Lonsdale,8,249
12,Philip,Shambrook,7,248
13,Sue,Taylor,7,246
14,Kevin,deVries,7,242
15,Justin,Lee,9,236
16,Sarah,Jalim,7,231
17,Shayne,Rushan,7,230
18,Ross,Douglas,8,227
19,Jon,McIntosh,6,221
20,Tim,Lauder,6,219
21,Andrea,Smith,7,198
22,Leah,Cripps,7,183
23,Tim,Lovell,6,182
24,Stephen,Wainwright,6,181
25,Maree,Platt,6,177
26,David,Cripps,5,175
27,Danny,Burgess,6,173
28,Jenny,Buchanan,6,170
29,Karl,Lanyon,4,169
30,Jeremy,Draper,5,166
31,Janelle,Giffin,6,164
32,Frances,Walsh,5,159
33,Craig,Green,4,159
34,Simon,Hunt,5,159
35,Brian,Watson,4,157
36,David,Heislers,5,155
37,Angus,McPherson,4,150
38,Rebecca,Wilkinson,5,147
39,Rik,McCaig,4,142
40,Trinity,Sanderson,5,122
41,Clare,Montgomery,5,122
42,Renelle,McManus,4,108
43,Ashlee,Diston,3,103
44,Gavin,Fiedler,4,103
45,Travis,Edwards,4,101
46,Kathleen,Pleasants,3,100
47,Vicki,Bayliss,3,91
48,Melissa,Wilkie,3,89
49,Charles,Chambers,3,85
50,Greg,McBain,3,84
51,Georgie,Lanyon,3,80
52,Beth,Lavery,3,74
53,Nigel,Preston,3,72
54,Lauren,Hancock,2,71
55,Andrew,Creer,2,69
56,Darren,Hartland,3,63
57,Alan,East,2,62
58,Megan,McDonald,3,55
59,Troy,Davis,2,54
60,Justin,O'Brien,2,46
61,Fraser,Walsh,2,43
62,Emma,Gibbons,2,43
63,Stephen,Van Rees,2,41
64,James,Toomey,2,39
65,Andrew,Wilkie,1,36
66,Finn,MacGregor,2,33
67,Tina,McBain,1,25
68,Taylor,Lovell,2,19
69,Craig,Feuerherdt,1,17
70,Chloe,Green,1,0
71,Lukas,Jara,1,0
72,Alistair,Stewart,1,0
73,Mark,Logan,1,0
74,Jay,Sanderson,1,0
75,Matthew,Creer,1,0
76,Conor,Cunningham,1,0
77,Peter,King,1,0
