PLACE,FIRST,LAST,RACES,POINTS
1,Michael,Bieleny,8,138
2,Ben,McDermid,9,117
3,Sarah,Jalim,7,114
4,Chris,Giffin,10,108
5,Greg,Carter,8,98
6,Tim,Lauder,6,91
7,David,Lonsdale,8,80
8,Rik,McCaig,4,73
9,Craig,Green,4,73
10,Rebecca,Wilkinson,5,67
11,Danny,Burgess,6,66
12,Nigel,Preston,3,59
13,Alan,Buchanan,7,59
14,Brian,Watson,4,55
15,Tim,Lovell,6,52
16,Simon,Hunt,5,51
17,Karl,Lanyon,4,51
18,David,Cripps,5,47
19,David,Heislers,5,46
20,Justin,Lee,9,42
21,Fraser,Walsh,2,40
22,Stephen,Van Rees,2,37
23,Philip,Shambrook,7,36
24,Andrew,Creer,2,34
25,Darren,Hartland,3,28
26,Stephen,Wainwright,6,26
27,Greg,McBain,3,25
28,Trinity,Sanderson,5,22
29,Jenny,Buchanan,6,22
30,Charles,Chambers,3,22
31,Finn,MacGregor,2,20
32,Craig,Feuerherdt,1,19
33,Andrea,Smith,7,18
34,Ashlee,Diston,3,18
35,Travis,Edwards,4,16
36,Peter,King,1,16
37,Paul,Lomax,9,15
38,Jon,McIntosh,6,15
39,Alison,Cartner,10,15
40,Lukas,Jara,1,13
41,Georgie,Lanyon,3,10
42,Ross,Douglas,8,9
43,Jeremy,Draper,5,6
44,Vicki,Bayliss,3,5
45,Andrew,Wilkie,1,5
46,David,Howes,7,4
47,Matthew,Creer,1,3
48,Gavin,Fiedler,4,2
49,Tina,McBain,1,1
50,Beth,Lavery,3,0
51,Taylor,Lovell,2,0
52,Clare,Montgomery,5,0
53,Chloe,Green,1,0
54,Troy,Davis,2,0
55,Megan,McDonald,3,0
56,Sue,Taylor,7,0
57,Frances,Walsh,5,0
58,Renelle,McManus,4,0
59,Kathleen,Pleasants,3,0
60,James,Toomey,2,0
61,Alistair,Stewart,1,0
62,Alan,East,2,0
63,Mark,Logan,1,0
64,Maree,Platt,6,0
65,Jay,Sanderson,1,0
66,Emma,Gibbons,2,0
67,Angus,McPherson,4,0
68,Leah,Cripps,7,0
69,Lauren,Hancock,2,0
70,Conor,Cunningham,1,0
71,Melissa,Wilkie,3,0
72,Shayne,Rushan,7,0
73,Josephine,Robinson,9,0
74,Kevin,deVries,7,0
75,Janelle,Giffin,6,0
76,Justin,O'Brien,2,0
77,Darren,Rowe,9,0
