place,first,last,club,net Time
1,Brady,Threlfall,BYM,24.49
2,Andrew,Buchanan,BUAC,25.08
3,Kaine,Leech,EGWK,28.13
4,John,Vantiggelon,Sth BGO,28.59
5,Jamie,Cook,BYM,30.07
6,David,Tarrant,BUAC,30.12
7,Brendan,Munge,BUAC,31.26
8,Ben,Sexton,BYM,32.09
9,Steve,Durkin,BUAC,36.42
10,Damien,Bilsborrow,BUAC,37.08
11,Scott,Roberts,BUAC,38.32