Place,Member,First,Last,Start,Pace,Est Time
1,3782,Owen,Draper,00:00,07:59,0:31:22.5
2,3748,Amelia,Mitchell,01:40,07:34,0:29:44.2
3,1038,Xavier,Marwood,02:20,07:24,0:29:04.9
4,3708,Janine,Butcher,02:30,07:22,0:28:57.1
5,44,Geoffrey,Robinson,02:50,07:17,0:28:37.4
6,3750,Genevieve,Draper,03:40,07:04,0:27:46.3
7,2,Alan,East,04:20,06:53,0:27:03.1
8,3781,Hamish,Draper,04:40,06:50,0:26:51.3
9,3749,Isabella,Draper,05:20,06:38,0:26:04.1
10,3709,Scott,Butcher,05:40,06:33,0:25:44.5
11,3720,Bec,Woodward,06:00,06:29,0:25:28.8
12,347,Louise,Toomey,06:10,06:26,0:25:17.0
13,3776,Kathleen,Pleasants,06:10,06:26,0:25:17.0
14,356,Lynley,McDonald,06:10,06:25,0:25:13.0
15,100,Justine,Rowe,06:50,06:15,0:24:33.8
16,150,Rebecca,Ashman,06:50,06:15,0:24:33.8
17,1039,Melinda,Marwood,07:00,06:14,0:24:29.8
18,341,Greg,Toomey,07:00,06:12,0:24:22.0
19,1049,Georgie,Gibbons,07:20,06:09,0:24:10.2
20,159,Renelle,McManus,07:30,06:05,0:23:54.5
21,3779,Mathilda,Stewart,07:30,06:05,0:23:54.5
22,3729,Fiona,Preston,07:50,06:01,0:23:38.7
23,1019,Christopher,Epworth,07:50,06:01,0:23:38.7
24,210,Fiona,Dangerfield,07:50,06:01,0:23:38.7
25,50,Harry,Cripps,08:00,05:57,0:23:23.0
26,3741,Kim,Carter,08:10,05:55,0:23:15.2
27,237,Lou,Bray,08:10,05:55,0:23:15.2
28,98,Tanya,Fleming,08:20,05:54,0:23:11.2
29,225,Lesley,Fabian,08:30,05:50,0:22:55.5
30,277,Luke,Feuerherdt,08:30,05:49,0:22:51.6
31,43,Josephine,Robinson,08:40,05:47,0:22:43.7
32,397,Taylor,Lovell,08:40,05:47,0:22:43.7
33,157,Bec,Lacy,08:50,05:45,0:22:35.9
34,40,Aida,Escall,08:50,05:44,0:22:31.9
35,156,Will,Murphy,08:50,05:44,0:22:31.9
36,3716,Gus,Edwards,09:00,05:43,0:22:28.0
37,54,Kevin,de Vries,09:10,05:40,0:22:16.2
38,66,Megan,McDonald,09:10,05:39,0:22:12.3
39,3777,Alistair,Stewart,09:30,05:35,0:21:56.5
40,214,Amy,Sim,09:30,05:34,0:21:52.6
41,3783,Zacch,Martin,09:30,05:34,0:21:52.6
42,1033,Sal,Ekanayake,09:40,05:32,0:21:44.8
43,1002,Tammy,Fear,09:40,05:32,0:21:44.8
44,3722,Natasha,Dean,09:50,05:31,0:21:40.8
45,398,Angus,McPherson,09:50,05:30,0:21:36.9
46,3706,Ebony,Butcher,09:50,05:30,0:21:36.9
47,52,Leah,Cripps,10:00,05:27,0:21:25.1
48,3703,Trent,Bayliss,10:10,05:26,0:21:21.2
49,220,Ella,Meharry,10:10,05:25,0:21:17.2
50,1015,Miller,Armstrong,10:10,05:24,0:21:13.3
51,251,Beth,Lavery,10:20,05:23,0:21:09.4
52,1017,Scott,Broad,10:20,05:21,0:21:01.5
53,281,Will,de Vries,10:30,05:20,0:20:57.6
54,359,Anne,McIntosh,10:40,05:18,0:20:49.7
55,236,Harry,Seaward,10:40,05:18,0:20:49.7
56,16,Jennifer,Lee,10:40,05:18,0:20:49.7
57,3721,Gabrielle,Dean,11:00,05:12,0:20:26.2
58,1016,Noah,Armstrong,11:00,05:11,0:20:22.2
59,78,Mark,Saxon,11:00,05:11,0:20:22.2
60,1030,Ella,Smith,11:10,05:10,0:20:18.3
61,305,Jonty,McDermid,11:10,05:10,0:20:18.3
62,252,Jasmine,Murphy,11:10,05:10,0:20:18.3
63,29,Alison,Cartner,11:10,05:10,0:20:18.3
64,195,Luke,Creer,11:10,05:10,0:20:18.3
65,13,Gavin,Fiedler,11:10,05:09,0:20:14.4
66,95,Jason,Sim,11:20,05:08,0:20:10.4
67,360,Phoebe,Martin,11:20,05:07,0:20:06.5
68,215,Emerson,Sim,11:20,05:07,0:20:06.5
69,1012,Danny,Breen,11:20,05:06,0:20:02.6
70,400,Darren,Rowe,11:20,05:06,0:20:02.6
71,198,Matthew,Saxon,11:40,05:03,0:19:50.8
72,3715,Chloe,Green,11:40,05:02,0:19:46.9
73,3785,Jake,Wight,11:50,04:59,0:19:35.1
74,270,Tyler,Wilkie,12:00,04:58,0:19:31.1
75,274,Avery,McDermid,12:00,04:58,0:19:31.1
76,22,Ross,Douglas,12:00,04:58,0:19:31.1
77,3793,Anna,Christen,12:10,04:54,0:19:15.4
78,34,Mathew,Creer,12:20,04:51,0:19:03.6
79,267,Kayla,McManus,12:30,04:49,0:18:55.8
80,3735,Travis,Edwards,12:30,04:48,0:18:51.8
81,296,Ashlee,Diston,12:40,04:46,0:18:44.0
82,9,Trinity,Sanderson,12:40,04:46,0:18:44.0
83,292,Jye,Ekanayake,12:50,04:45,0:18:40.0
84,1051,Kane,Safstrom,12:50,04:45,0:18:40.0
85,1037,Ethen,Marwood,12:50,04:44,0:18:36.1
86,266,Lewis,Lonsdale,13:00,04:41,0:18:24.3
87,272,Abbey,Cartner,13:00,04:41,0:18:24.3
88,1013,Jonte,Breen,13:20,04:36,0:18:04.7
89,241,Andrea,Smith,13:30,04:35,0:18:00.8
90,109,Tim,Lovell,13:30,04:33,0:17:52.9
91,254,William,Robinson,13:40,04:31,0:17:45.0
92,201,Beatrice,Lonsdale,13:40,04:31,0:17:45.0
93,3707,Kyle,Butcher,13:40,04:31,0:17:45.0
94,55,Justin,Lee,13:40,04:31,0:17:45.0
95,3738,Mason,Woodward,13:50,04:30,0:17:41.1
96,3745,Gus,MacGregor,13:50,04:30,0:17:41.1
97,387,Connor,Bedson,13:50,04:29,0:17:37.2
98,3713,Jazlin,Fear,13:50,04:29,0:17:37.2
99,147,Lachlan,Feuerherdt,13:50,04:28,0:17:33.2
100,3717,Lachlan,Edwards,14:00,04:27,0:17:29.3
101,3744,Finn,MacGregor,14:00,04:27,0:17:29.3
102,244,Jaron,Ekanayake,14:00,04:27,0:17:29.3
103,39,Melissa,Douglas,14:10,04:24,0:17:17.5
104,350,David,Cripps,14:10,04:24,0:17:17.5
105,369,Stephen,Wainwright,14:10,04:23,0:17:13.6
106,191,Phoebe,Lonsdale,14:10,04:23,0:17:13.6
107,339,James,Toomey,14:20,04:22,0:17:09.7
108,253,Charlotte,Murphy,14:20,04:20,0:17:01.8
109,386,Danny,Burgess,14:20,04:20,0:17:01.8
110,189,Tim,Creer,14:40,04:17,0:16:50.0
111,3714,Tanner,Fear,14:40,04:15,0:16:42.2
112,80,Bridie,Blake-Burrows,15:00,04:11,0:16:26.4
113,105,Toby,McCaig,15:00,04:10,0:16:22.5
114,169,Floyd,Cartner,15:10,04:08,0:16:14.6
115,1029,James,Trew,15:10,04:08,0:16:14.6
116,63,John,Robinson,15:30,04:04,0:15:58.9
117,275,Max,Rowe,15:40,04:00,0:15:43.2
118,308,Chris,Giffin,15:50,03:59,0:15:39.3
119,203,Tullie,Rowe,15:50,03:59,0:15:39.3
120,1036,Harry,Wright,16:00,03:57,0:15:31.4
121,33,Andrew,Creer,16:10,03:54,0:15:19.6
122,84,Craig,Green,16:10,03:53,0:15:15.7
123,171,Oliver,Sanderson,16:20,03:51,0:15:07.8
124,65,Ben,McDermid,16:20,03:51,0:15:07.8
125,42,Craig,Feuerherdt,16:30,03:49,0:14:60.0
126,1031,Jack,Milligan,16:40,03:45,0:14:44.2
127,219,Wil,McCaig,17:20,03:35,0:14:05.0
