place,first,last,start,pace,est Time
1,Mitchell,Bray,0:00,8:0,8:00
2,Sarah,Cunningham,0:20,7:37,7:37
3,Rex,Lourie,0:30,7:30,7:30
4,Olivia,Kealy,0:30,7:26,7:26
5,Ella,Meharry,0:50,7:15,7:15
6,Lacey,Wilkie,0:50,7:15,7:15
7,Ethan,Fletcher,1:00,7:3,7:03
8,Max,Kavanagh,1:00,7:0,7:00
9,Joshua,Feuerherdt,1:10,6:55,6:55
10,Xavier,Thomas,1:10,6:55,6:55
11,Maddison,Bray,1:10,6:53,6:53
12,Allerah,Thomas,1:10,6:50,6:50
13,Kane,Charnas,1:10,6:50,6:50
14,Luke,Creer,1:10,6:49,6:49
15,Kalan,Thomas,1:20,6:45,6:45
16,Lulu Too,Hamond,1:20,6:40,6:40
17,Amber,Anderson,1:20,6:37,6:37
18,Finn,Cunningham,1:30,6:30,6:30
19,Abbey,Reid,1:30,6:30,6:30
20,Neve,Coleman,1:30,6:28,6:28
21,Avery,McDermid,1:30,6:27,6:27
22,Jack,Gleisner,1:30,6:26,6:26
23,Lewis,Kailaur,1:40,6:22,6:22
24,Will,Smith,1:40,6:19,6:19
25,Miller,Finch,1:50,6:10,6:10
26,Moira,Coleman,1:50,6:9,6:09
27,Joshua,Kelly,1:50,6:8,6:08
28,Charlotte,Crane,2:00,6:5,6:05
29,Katelyn,Kelly,2:00,6:2,6:02
30,Ruby,Fletcher,2:00,6:0,6:00
31,Rhyse,Thorpe,2:00,6:0,6:00
32,Jade,Kelly,2:10,5:55,5:55
33,Imogen,Douglass,2:10,5:52,5:52
34,Hannah,Crane,2:10,5:51,5:51
35,Aoife,Cunningham,2:10,5:51,5:51
36,Eliza,Christie,2:10,5:50,5:50
37,Tara,Anderson,2:20,5:45,5:45
38,Flynn,Madren,2:20,5:45,5:45
39,Saige,Finch,2:20,5:45,5:45
40,Rebecca,Ashman,2:20,5:44,5:44
41,Ella,Fisher,2:20,5:42,5:42
42,Cooper,Rea,2:20,5:42,5:42
43,Manny,Rose,2:20,5:40,5:40
44,Jasmine,Padgham,2:20,5:40,5:40
45,Kevin,Wheatley,2:20,5:40,5:40
46,Nellie,Rose,2:20,5:39,5:39
47,James,Cheal,2:20,5:36,5:36
48,Lucinda,Terry,2:30,5:34,5:34
49,Jordan,Wheatley,2:30,5:34,5:34
50,Albert,Cordell,2:30,5:33,5:33
51,Murphy,Watson,2:30,5:30,5:30
52,Will,Gleisner,2:30,5:28,5:28
53,Melana,Cordell,2:40,5:25,5:25
54,Amity,Thorpe,2:40,5:22,5:22
55,Georgia,Pearce,2:40,5:20,5:20
56,Catelynd,Wheatley,2:40,5:20,5:20
57,Rossi,Stevens,2:40,5:20,5:20
58,Nick,Meharry,2:40,5:18,5:18
59,Beatrice,Lonsdale,2:40,5:17,5:17
60,Vincent,Weatherhead,2:40,5:17,5:17
61,Jack,McCullough,2:40,5:16,5:16
62,Luke,Feuerherdt,2:50,5:13,5:13
63,Lewis,Lonsdale,2:50,5:13,5:13
64,Phoebe,Lonsdale,2:50,5:12,5:12
65,Tyler,Wilkie,2:50,5:10,5:10
66,Henry,Cordell,3:00,5:5,5:05
67,Oscar,Terry,3:00,5:5,5:05
68,Kaidyn,Tucker,3:00,5:5,5:05
69,Nina,Lenard,3:00,5:3,5:03
70,Abbey,Cartner,3:00,5:2,5:02
71,Tim,Creer,3:00,5:0,5:00
72,Jack,Meharry,3:00,5:0,5:00
73,Matthew,Saxon,3:00,5:0,5:00
74,Tom,Coleman,3:00,5:0,5:00
75,Emerson,Sim,3:00,5:0,5:00
76,Macey,O'Shea,3:00,4:58,4:58
77,Cooper,Charnas,3:10,4:51,4:51
78,Leila,Padgham,3:10,4:49,4:49
79,Morgan,Dunn,3:10,4:48,4:48
80,Max,Rowe,3:10,4:47,4:47
81,Lachlan,Feuerherdt,3:10,4:46,4:46
82,Emerson,Sim,3:10,4:46,4:46
83,Carissa,Brook,3:20,4:44,4:44
84,Michaela,Meharry,3:20,4:42,4:42
85,Harrison,Kelly,3:20,4:40,4:40
86,Emily,Heislers,3:20,4:40,4:40
87,Jayden,Padgham,3:20,4:40,4:40
88,Jesse,Delves,3:20,4:39,4:39
89,Jake,Lyons,3:40,4:20,4:20
90,Bailey,Dunn,3:40,4:20,4:20
91,Floyd,Cartner,3:50,4:14,4:14
92,Tullie,Rowe,3:50,4:10,4:10
93,Brayden,Roberts,3:50,4:7,4:07
94,Noah,Walsh,4:00,4:5,4:05
95,Melissa,Douglas,4:00,4:0,4:00