Place,Member,First,Last,Start,Pace,Est Time
1,1032,Spencer,Epworth,00:00,07:59,0:07:59.0
2,3705,Sienna,Bayliss,00:00,07:59,0:07:59.0
3,3794,Amelia ,Christen,00:00,07:59,0:07:59.0
4,3733,Madeline,Gibbons,00:00,07:59,0:07:59.0
5,3791,Olivia,Christen,00:00,07:57,0:07:57.0
6,1050,Jack,Wright,00:20,07:45,0:07:45.0
7,3728,Tobias,Preston,00:20,07:36,0:07:36.0
8,1054,Jimeal,Ekanayake,00:40,07:15,0:07:15.0
9,335,Lenny,Hancock,00:50,07:06,0:07:06.0
10,354,Alice,McIntosh,01:10,06:52,0:06:52.0
11,3708,Janine,Butcher,01:10,06:51,0:06:51.0
12,1046,Bonnie,Scott,01:20,06:43,0:06:43.0
13,1048,Edie,Gibbons,01:20,06:39,0:06:39.0
14,382,Genevieve,Robinson,01:30,06:28,0:06:28.0
15,1064,Indie,Colley,01:40,06:25,0:06:25.0
16,3781,Hamish,Draper,01:40,06:20,0:06:20.0
17,3782,Owen,Draper,01:40,06:18,0:06:18.0
18,365,Megan,Howes,01:40,06:16,0:06:16.0
19,1053,Giana,Ekanayake,01:40,06:16,0:06:16.0
20,3751,Ellie,Beesley,01:50,06:14,0:06:14.0
21,3704,Callen,Bayliss,01:50,06:09,0:06:09.0
22,1018,Abigail,Epworth,01:50,06:08,0:06:08.0
23,1059,Hunter,Pearce,01:50,06:08,0:06:08.0
24,1062,Oliver,Clarke,01:50,06:06,0:06:06.0
25,234,Finn,Cunningham,02:00,05:58,0:05:58.0
26,3741,Kim,Carter,02:00,05:55,0:05:55.0
27,3743,Liam,Carter,02:10,05:54,0:05:54.0
28,372,Belle,Howes,02:10,05:52,0:05:52.0
29,1007,Ruby,Meharry,02:20,05:44,0:05:44.0
30,1014,Tom,Roberts,02:20,05:40,0:05:40.0
31,3716,Gus,Edwards,02:20,05:38,0:05:38.0
32,3742,Jemma,Carter,02:20,05:35,0:05:35.0
33,355,Millie,McIntosh,02:30,05:34,0:05:34.0
34,3783,Zacch,Martin,02:30,05:34,0:05:34.0
35,178,Annabel,Hancock,02:30,05:32,0:05:32.0
36,44,Geoffrey,Robinson,02:30,05:27,0:05:27.0
37,293,Spencer,Lavery,02:40,05:24,0:05:24.0
38,255,Dylan,Sim,02:40,05:24,0:05:24.0
39,390,Ruby,Douglas,02:40,05:24,0:05:24.0
40,246,Poppy,Wainwright,02:40,05:24,0:05:24.0
41,1042,Savannah,Marwood,02:40,05:22,0:05:22.0
42,250,Tully,Cripps,02:40,05:21,0:05:21.0
43,3727,Samuel,Preston,02:40,05:21,0:05:21.0
44,3750,Genevieve,Draper,02:40,05:18,0:05:18.0
45,3752,Chloe,Beesley,02:40,05:17,0:05:17.0
46,3736,Skylar,Woodward,02:40,05:15,0:05:15.0
47,3778,Sebastian,Stewart,02:50,05:13,0:05:13.0
48,298,Elliott,Lavery,02:50,05:10,0:05:10.0
49,1035,Braxton,Safstrom,02:50,05:10,0:05:10.0
50,209,Olivia,Douglas,02:50,05:08,0:05:08.0
51,1026,Eiliyah,Daneen,02:50,05:08,0:05:08.0
52,368,Eden,Howes,02:50,05:06,0:05:06.0
53,3711,Eryn,McManus,03:00,05:05,0:05:05.0
54,245,Lacey,Wilkie,03:00,05:04,0:05:04.0
55,3719,Charli,Green,03:00,05:00,0:05:00.0
56,400,Darren,Rowe,03:00,05:00,0:05:00.0
57,3709,Scott,Butcher,03:00,05:00,0:05:00.0
58,358,Lewis,McIntosh,03:00,04:57,0:04:57.0
59,3749,Isabella,Draper,03:10,04:54,0:04:54.0
60,50,Harry,Cripps,03:10,04:54,0:04:54.0
61,1038,Xavier,Marwood,03:10,04:50,0:04:50.0
62,297,Declan,Lavery,03:10,04:48,0:04:48.0
63,174,Sam,Hancock,03:10,04:47,0:04:47.0
64,1047,Harry,Scott,03:20,04:38,0:04:38.0
65,282,Anna,de Vries,03:20,04:37,0:04:37.0
66,283,Lily,Sanderson,03:20,04:36,0:04:36.0
67,258,Ivy,Bray,03:20,04:35,0:04:35.0
68,3706,Ebony,Butcher,03:30,04:32,0:04:32.0
69,391,Sebastian,Boromeo,03:30,04:32,0:04:32.0
70,252,Jasmine,Murphy,03:30,04:28,0:04:28.0
71,3717,Lachlan,Edwards,03:30,04:27,0:04:27.0
72,381,April,Wainwright,03:30,04:27,0:04:27.0
73,281,Will,de Vries,03:40,04:25,0:04:25.0
74,3753,Logan,Beesley,03:40,04:25,0:04:25.0
75,360,Phoebe,Martin,03:40,04:25,0:04:25.0
76,3721,Gabrielle,Dean,03:40,04:25,0:04:25.0
77,191,Phoebe,Lonsdale,03:40,04:23,0:04:23.0
78,3737,Ebony,Woodward,03:40,04:23,0:04:23.0
79,267,Kayla,McManus,03:40,04:22,0:04:22.0
80,253,Charlotte,Murphy,03:40,04:20,0:04:20.0
81,3785,Jake,Wight,03:40,04:17,0:04:17.0
82,305,Jonty,McDermid,03:50,04:14,0:04:14.0
83,277,Luke,Feuerherdt,03:50,04:12,0:04:12.0
84,276,Joshua,Feuerherdt,03:50,04:11,0:04:11.0
85,279,Lucy,McCaig,03:50,04:11,0:04:11.0
86,244,Jaron,Ekanayake,03:50,04:08,0:04:08.0
87,1015,Miller,Armstrong,03:50,04:07,0:04:07.0
88,292,Jye,Ekanayake,03:50,04:06,0:04:06.0
89,272,Abbey,Cartner,04:00,04:05,0:04:05.0
90,274,Avery,McDermid,04:00,04:02,0:04:02.0
91,254,William,Robinson,04:00,03:59,0:03:59.0
92,1016,Noah,Armstrong,04:00,03:55,0:03:55.0
93,266,Lewis,Lonsdale,04:10,03:54,0:03:54.0
94,3714,Tanner,Fear,04:10,03:48,0:03:48.0
95,42,Craig,Feuerherdt,04:20,03:41,0:03:41.0
96,3738,Mason,Woodward,04:20,03:40,0:03:40.0
97,1060,William,Trew,04:20,03:40,0:03:40.0
98,1029,James,Trew,04:20,03:37,0:03:37.0
99,275,Max,Rowe,04:30,03:26,0:03:26.0
