PLACE,FIRST,LAST,TIME,PACE,CLUB
1,Tullie,Rowe,0:12:37.3,04:08.3,UNI
2,Charlotte,Murphy,0:13:08.9,04:18.7,UNI
3,Phoebe,Lonsdale,0:13:11.1,04:19.4,UNI
4,Beatrice,Lonsdale,0:13:43.5,04:30.0,UNI
5,Jazlin,Fear,0:14:01.4,04:35.9,UNI
6,Ella,Smith,0:16:14.2,05:19.4,UNI
7,Clare,Burmester,0:18:09.5,05:57.2,HARRIERS
