PLACE,FIRST,LAST,TIME,PACE,CLUB
1,Jill,Wilkie,0:33:02.3,04:24.3,HARRIERS
2,Leanne,Healey,0:35:21.0,04:42.8,HARRIERS
3,Wendy,Stibbe,0:40:23.2,05:23.1,HARRIERS
4,Annette,Major,0:48:10.5,06:25.4,EAGLEHAWK
