Place,Member,First,Last,Start,Pace,Est Time
1,1098,Hannah,Niblett,00:00,07:59,0:24:25.7
2,3782,Owen,Draper,00:00,07:59,0:24:25.7
3,1093,Kale,Beesley,00:20,07:53,0:24:07.4
4,3750,Genevieve,Draper,02:30,07:10,0:21:55.8
5,3748,Amelia,Mitchell,03:30,06:52,0:21:00.7
6,3757,Tanae,Bull,03:50,06:46,0:20:42.4
7,79,Liz,Stewart,03:50,06:45,0:20:39.3
8,1039,Melinda,Marwood,03:50,06:45,0:20:39.3
9,237,Lou,Bray,04:10,06:37,0:20:14.8
10,3776,Kathleen,Pleasants,04:40,06:28,0:19:47.3
11,1075,Louise,Firli,04:50,06:24,0:19:35.0
12,3759,Lyn,Sebire,05:00,06:23,0:19:32.0
13,322,Thom,Hosking,05:10,06:18,0:19:16.7
14,3720,Bec,Woodward,05:10,06:18,0:19:16.7
15,356,Lynley,McDonald,05:20,06:14,0:19:04.4
16,159,Renelle,McManus,05:30,06:13,0:19:01.4
17,1049,Georgie,Gibbons,05:40,06:09,0:18:49.1
18,100,Justine,Rowe,05:50,06:07,0:18:43.0
19,3781,Hamish,Draper,05:50,06:07,0:18:43.0
20,246,Poppy,Wainwright,05:50,06:06,0:18:40.0
21,1019,Christopher,Epworth,06:00,06:02,0:18:27.7
22,3729,Fiona,Preston,06:00,06:01,0:18:24.7
23,225,Lesley,Fabian,06:10,06:00,0:18:21.6
24,3741,Kim,Carter,06:10,06:00,0:18:21.6
25,98,Tanya,Fleming,06:30,05:54,0:18:03.2
26,250,Tully,Cripps,06:30,05:51,0:17:54.1
27,149,Janelle,Giffin,06:50,05:47,0:17:41.8
28,3749,Isabella,Draper,06:50,05:46,0:17:38.8
29,157,Bec,Lacy,06:50,05:45,0:17:35.7
30,1085,Michelle,Scott,06:50,05:45,0:17:35.7
31,40,Aida,Escall,07:00,05:44,0:17:32.6
32,1002,Tammy,Fear,07:00,05:44,0:17:32.6
33,1026,Eiliyah,Daneen,07:00,05:44,0:17:32.6
34,66,Megan,McDonald,07:00,05:43,0:17:29.6
35,282,Anna,de Vries,07:00,05:42,0:17:26.5
36,209,Olivia,Douglas,07:10,05:40,0:17:20.4
37,1077,Dean,Trew,07:10,05:40,0:17:20.4
38,44,Geoffrey,Robinson,07:10,05:38,0:17:14.3
39,1063,Will,Trewick,07:20,05:37,0:17:11.2
40,257,Fin,Bray,07:20,05:36,0:17:08.2
41,52,Leah,Cripps,07:20,05:35,0:17:05.1
42,3783,Zacch,Martin,07:30,05:34,0:17:02.0
43,1033,Sal,Ekanayake,07:30,05:32,0:16:55.9
44,1047,Harry,Scott,07:30,05:32,0:16:55.9
45,43,Josephine,Robinson,07:40,05:31,0:16:52.9
46,50,Harry,Cripps,07:40,05:30,0:16:49.8
47,3753,Logan,Beesley,07:40,05:30,0:16:49.8
48,1076,Sarah,Trew,07:50,05:28,0:16:43.7
49,145,Joshua,Condon,07:50,05:26,0:16:37.6
50,220,Ella,Meharry,07:50,05:25,0:16:34.5
51,381,April,Wainwright,07:50,05:25,0:16:34.5
52,1017,Scott,Broad,07:50,05:25,0:16:34.5
53,391,Sebastian,Boromeo,08:00,05:24,0:16:31.4
54,1015,Miller,Armstrong,08:00,05:24,0:16:31.4
55,1038,Xavier,Marwood,08:00,05:22,0:16:25.3
56,16,Jennifer,Lee,08:10,05:21,0:16:22.3
57,54,Kevin,de Vries,08:10,05:20,0:16:19.2
58,1066,Jodie,McLeod,08:20,05:17,0:16:10.0
59,252,Jasmine,Murphy,08:40,05:11,0:15:51.7
60,1016,Noah,Armstrong,08:40,05:11,0:15:51.7
61,3795,Janelle,Willits,08:40,05:11,0:15:51.7
62,1030,Ella,Smith,08:40,05:10,0:15:48.6
63,1067,Scott,McLeod,08:40,05:10,0:15:48.6
64,3754,Elijah,Willits,08:40,05:10,0:15:48.6
65,1058,Tyler,Swann,08:40,05:09,0:15:45.5
66,276,Joshua,Feuerherdt,08:50,05:08,0:15:42.5
67,360,Phoebe,Martin,08:50,05:07,0:15:39.4
68,3715,Chloe,Green,08:50,05:07,0:15:39.4
69,358,Lewis,McIntosh,08:50,05:06,0:15:36.4
70,1012,Danny,Breen,08:50,05:06,0:15:36.4
71,1095,Zac,Firli,09:00,05:04,0:15:30.2
72,333,Jon,McIntosh,09:00,05:02,0:15:24.1
73,22,Ross,Douglas,09:10,05:01,0:15:21.1
74,1086,Jimi,Read,09:10,05:00,0:15:18.0
75,13,Gavin,Fiedler,09:10,04:59,0:15:14.9
76,284,Imogen,Stewart,09:10,04:59,0:15:14.9
77,270,Tyler,Wilkie,09:20,04:58,0:15:11.9
78,400,Darren,Rowe,09:20,04:57,0:15:08.8
79,195,Luke,Creer,09:20,04:56,0:15:05.8
80,281,Will,de Vries,09:30,04:53,0:14:56.6
81,305,Jonty,McDermid,09:30,04:53,0:14:56.6
82,1065,Sonya,Walker,09:40,04:52,0:14:53.5
83,3737,Ebony,Woodward,09:40,04:51,0:14:50.5
84,29,Alison,Cartner,09:40,04:49,0:14:44.3
85,3735,Travis,Edwards,09:50,04:48,0:14:41.3
86,39,Melissa,Douglas,09:50,04:47,0:14:38.2
87,14,Lisa,Wilkinson,10:00,04:45,0:14:32.1
88,292,Jye,Ekanayake,10:00,04:45,0:14:32.1
89,1071,Freya,Nicoletti,10:00,04:45,0:14:32.1
90,1037,Ethan,Marwood,10:00,04:44,0:14:29.0
91,3766,Anthony,Byrne,10:00,04:44,0:14:29.0
92,3769,Charlie,Collins,10:00,04:44,0:14:29.0
93,1100,Cooper,Firli,10:10,04:42,0:14:22.9
94,1020,Mumtaz,Hussain,10:10,04:40,0:14:16.8
95,3713,Jazlin,Fear,10:10,04:40,0:14:16.8
96,274,Avery,McDermid,10:20,04:38,0:14:10.7
97,3755,Noah,Willits,10:20,04:37,0:14:07.6
98,266,Lewis,Lonsdale,10:20,04:36,0:14:04.6
99,1013,Jonte,Breen,10:20,04:36,0:14:04.6
100,272,Abbey,Cartner,10:30,04:35,0:14:01.5
101,1060,William,Trew,10:30,04:34,0:13:58.4
102,241,Andrea,Smith,10:30,04:33,0:13:55.4
103,1099,Kelvin,Niblett,10:40,04:32,0:13:52.3
104,55,Justin,Lee,10:40,04:31,0:13:49.3
105,244,Jaron,Ekanayake,10:40,04:30,0:13:46.2
106,201,Beatrice,Lonsdale,10:50,04:29,0:13:43.1
107,277,Luke,Feuerherdt,10:50,04:29,0:13:43.1
108,3717,Lachlan,Edwards,10:50,04:27,0:13:37.0
109,147,Lachlan,Feuerherdt,10:50,04:26,0:13:34.0
110,254,William,Robinson,11:10,04:22,0:13:21.7
111,1083,Rebecca,Kirkby,11:10,04:21,0:13:18.7
112,253,Charlotte,Murphy,11:10,04:20,0:13:15.6
113,1051,Kane,Safstrom,11:10,04:20,0:13:15.6
114,105,Toby,McCaig,11:20,04:17,0:13:06.4
115,350,David,Cripps,11:20,04:17,0:13:06.4
116,3714,Tanner,Fear,11:30,04:15,0:13:00.3
117,3738,Mason,Woodward,11:30,04:15,0:13:00.3
118,3730,Greg,Carter,11:30,04:13,0:12:54.2
119,191,Phoebe,Lonsdale,11:40,04:11,0:12:48.1
120,1029,James,Trew,11:40,04:10,0:12:45.0
121,63,John,Robinson,11:50,04:09,0:12:41.9
122,275,Max,Rowe,12:10,04:00,0:12:14.4
123,65,Ben,McDermid,12:20,03:59,0:12:11.3
124,203,Tullie,Rowe,12:20,03:59,0:12:11.3
125,308,Chris,Giffin,12:20,03:59,0:12:11.3
126,33,Andrew,Creer,12:30,03:56,0:12:02.2
127,1036,Harry,Wright,12:30,03:55,0:11:59.1
128,189,Tim,Creer,12:30,03:54,0:11:56.0
129,1023,Matthew,Schepisi,12:40,03:52,0:11:49.9
130,171,Oliver,Sanderson,12:40,03:51,0:11:46.9
131,1031,Jack,Milligan,12:40,03:50,0:11:43.8
132,1061,Tarli,Bird,12:50,03:48,0:11:37.7
133,169,Floyd,Cartner,13:00,03:44,0:11:25.4
