PLACE,FIRST,LAST,RACES,POINTS
1,Mumtaz,Hussain,5,182
2,Chris,Giffin,5,170
3,Craig,Green,4,165
4,Liz,Foster,4,157
5,Kelvin,Niblett,5,150
6,David,Cripps,4,141
7,Kevin,de Vries,4,140
8,Sarah,Jalim,4,140
9,Darren,Rowe,4,139
10,Jack,Milligan,4,135
11,Alison,Cartner,5,132
12,Janelle,Giffin,4,132
13,Jason,Anderton,5,132
14,Jodie,McLeod,4,132
15,Sue,Taylor,5,128
16,Jon,McIntosh,4,125
17,Nick,O'Meara,5,120
18,Mel,Debnam-Smith,3,119
19,Sue,Anderton,4,115
20,Michael,Farr,4,110
21,Scott,McLeod,4,108
22,Damien,Roberts,5,103
23,Lisa,Wilkinson,3,100
24,Erin,Williams,3,99
25,Andrew,Hosking,4,98
26,William,Robinson,3,98
27,Leah,Cripps,4,97
28,Brian,Watson,3,94
29,David,Lonsdale,5,91
30,Rik,McCaig,2,84
31,Brad,Russell,4,82
32,David,Heislers,3,81
33,Garry,Marwood,2,79
34,Renelle,McManus,3,78
35,Todd,Foster,4,77
36,James,Trew,3,76
37,Greg,Carter,4,74
38,Melissa,Wilkie,2,73
39,Trinity,Sanderson,2,72
40,Janis,Bull,3,72
41,Maree,Platt,3,68
42,Justine,Rowe,4,67
43,David,Burrow,2,65
44,Alan,East,3,64
45,Melissa,Douglas,1,60
46,Ross,Douglas,4,59
47,Alan,Buchanan,4,55
48,Molly,Butler,2,55
49,Tanner,Fear,1,55
50,Shayne,Rushan,4,50
51,Anne,McIntosh,2,50
52,Ben,McDermid,3,48
53,Tammy,Fear,2,45
54,Leigh,Draper,2,43
55,Jayson,Carter,2,42
56,Andrew,Creer,2,40
57,Deanna,Marshall,2,40
58,Kathleen,Pleasants,3,39
59,Jennifer,Lee,2,37
60,Janet,Hodnett,1,37
61,Jay,Sanderson,1,37
62,Karl,Stoltz,2,37
63,Michael,Bieleny,2,35
64,Gavin,Fiedler,1,34
65,Stephen,van Rees,1,33
66,Joanne,Russell,2,32
67,Adrian,McMahon,2,32
68,Rebecca,Wilkinson,1,31
69,Andrea,Smith,2,31
70,Jeremy,Draper,3,31
71,Justin,Lee,3,28
72,Charles,Chambers,1,27
73,Danny,Burgess,2,27
74,Travis,Edwards,1,25
75,Tim,Lauder,1,23
76,John,Robinson,3,22
77,Nigel,Preston,1,14
78,Alistair,Stewart,1,12
79,Aida,Escall,1,0
80,Floyd,Cartner,1,0
81,Josh,Kent,1,0
82,Brett,Dobbin,1,0
83,Nathan,Dunn,1,0
84,Laura,Reynolds,1,0
