PLACE,FIRST,LAST,RACES,POINTS
1,Chris,Giffin,5,79
2,Sarah,Jalim,4,68
3,Jack,Milligan,4,68
4,Brian,Watson,3,58
5,Craig,Green,4,57
6,Andrew,Hosking,4,51
7,David,Lonsdale,5,50
8,David,Cripps,4,47
9,Greg,Carter,4,40
10,Garry,Marwood,2,39
11,Rik,McCaig,2,37
12,Michael,Bieleny,2,37
13,David,Heislers,3,34
14,Jayson,Carter,2,33
15,Mumtaz,Hussain,5,31
16,Ben,McDermid,3,30
17,Andrew,Creer,2,28
18,Kelvin,Niblett,5,20
19,Nigel,Preston,1,20
20,Stephen,van Rees,1,20
21,Lisa,Wilkinson,3,19
22,James,Trew,3,19
23,Damien,Roberts,5,18
24,Floyd,Cartner,1,16
25,Rebecca,Wilkinson,1,15
26,Joanne,Russell,2,15
27,Tim,Lauder,1,13
28,Danny,Burgess,2,12
29,Tanner,Fear,1,12
30,Brett,Dobbin,1,11
31,Charles,Chambers,1,9
32,Darren,Rowe,4,9
33,Travis,Edwards,1,7
34,Trinity,Sanderson,2,5
35,David,Burrow,2,5
36,Jon,McIntosh,4,4
37,Karl,Stoltz,2,4
38,Laura,Reynolds,1,4
39,Molly,Butler,2,2
40,Adrian,McMahon,2,2
41,Scott,McLeod,4,1
42,Michael,Farr,4,1
43,Alan,East,3,0
44,Alan,Buchanan,4,0
45,Shayne,Rushan,4,0
46,Gavin,Fiedler,1,0
47,Jennifer,Lee,2,0
48,Ross,Douglas,4,0
49,Alison,Cartner,5,0
50,Melissa,Douglas,1,0
51,Aida,Escall,1,0
52,Leah,Cripps,4,0
53,Kevin,de Vries,4,0
54,Justin,Lee,3,0
55,John,Robinson,3,0
56,Maree,Platt,3,0
57,Brad,Russell,4,0
58,Melissa,Wilkie,2,0
59,Justine,Rowe,4,0
60,Janelle,Giffin,4,0
61,Renelle,McManus,3,0
62,Janet,Hodnett,1,0
63,Jason,Anderton,5,0
64,Sue,Taylor,5,0
65,Sue,Anderton,4,0
66,Andrea,Smith,2,0
67,William,Robinson,3,0
68,Jay,Sanderson,1,0
69,Anne,McIntosh,2,0
70,Tammy,Fear,2,0
71,Todd,Foster,4,0
72,Liz,Foster,4,0
73,Mel,Debnam-Smith,3,0
74,Erin,Williams,3,0
75,Jodie,McLeod,4,0
76,Nick,O'Meara,5,0
77,Leigh,Draper,2,0
78,Josh,Kent,1,0
79,Deanna,Marshall,2,0
80,Jeremy,Draper,3,0
81,Janis,Bull,3,0
82,Kathleen,Pleasants,3,0
83,Alistair,Stewart,1,0
84,Nathan,Dunn,1,0
