PLACE,FIRST,LAST,RACES,POINTS
1,Mason,Woodward,5,96
2,William,Trew,4,74
3,Lewis,Lonsdale,4,62
4,Max,Rowe,3,58
5,Avery,McDermid,4,56
6,Ebony,Woodward,5,55
7,Jonty,McDermid,4,41
8,Kayla,McManus,4,40
9,Jimi,Read,3,40
10,Floyd,Cartner,2,38
11,Joshua,Feuerherdt,3,37
12,Tanner,Fear,2,35
13,William,Robinson,3,33
14,Luke,Feuerherdt,2,32
15,Harry,Scott,4,30
16,April,Wainwright,4,28
17,Abbey,Cartner,2,27
18,Eryn,McManus,4,25
19,Braxton,Safstrom,5,23
20,Logan,Beesley,2,19
21,Jaron,Ekanayake,1,18
22,Charlotte,Murphy,1,17
23,James,Trew,1,16
24,Tullie,Rowe,1,15
25,Zac,Firli,2,14
26,Phoebe,Lonsdale,1,13
27,Poppy,Wainwright,1,11
28,Eiliyah,Daneen,4,11
29,Charley,Collins,1,11
30,Skylar,Woodward,4,10
31,Xavier,Marwood,2,9
32,Ivy,Bray,1,8
33,Callum,Fyffe,2,8
34,Geoffrey,Robinson,3,7
35,Sebastian,Boromeo,1,7
36,Liam,Carter,3,6
37,Jemma,Carter,3,4
38,Lily,Sanderson,1,3
39,Chloe,Beesley,2,3
40,Krystal,Bellbin,2,3
41,Alice,McIntosh,3,2
42,Sebastian,Stewart,2,2
43,Jacob,Draper,1,2
44,Ruby,Douglas,4,1
45,Genevieve,Robinson,4,0
46,Tom,Roberts,4,0
47,Savannah,Marwood,3,0
48,Bonnie,Scott,4,0
49,Jaxton,Ekanayake,1,0
50,Giana,Ekanayake,1,0
51,Oliver,Clarke,1,0
52,Gabe,Nicoletti,2,0
53,Louise,Firli,1,0
54,Brooke,Carter,1,0
55,Mikayla,Kirkby,3,0
56,Naghmana,Tehseen,4,0
57,Ruby,Carter,1,0
58,Chase,Carter,1,0
59,Sihanna,Carter,1,0
60,Miriam,Niblett,4,0
61,Evie,Niblett,1,0
62,Hannah,Niblett,2,0
63,Isabella,Draper,1,0
64,Ellie,Beesley,2,0
65,Leo,Stoltz,2,0
66,Polly,Byrne,2,0
67,Ronny,Epps,2,0
68,Luke,Collins,2,0
69,Louise,Fyffe,1,0
70,Owen,Draper,3,0
71,Charli,Hosking,1,0
72,Hannah,Draper,1,0
