place,member,first,last,start,Pace,est Time
1,257,Fin,Bray,0:00,7:59,23:57
2,155,Jasmine,Rielley,0:30,7:50,23:30
3,179,Paula,Rielley,0:30,7:50,23:30
4,222,Virginia,Grills-Marsily,1:20,7:35,22:45
5,212,Michelle,Parry,2:20,7:13,21:39
6,206,Elisa,Christie,3:10,6:55,20:45
7,148,Matisse,Grills-Marsily,3:40,6:45,20:15
8,146,David,Ashman,3:50,6:42,20:06
9,43,Josephine,Robinson,4:00,6:40,20:00
10,79,Liz,Stewart,4:00,6:40,20:00
11,226,Drew,Parry,4:00,6:39,19:57
12,106,Suellen,Bambrick,4:20,6:35,19:45
13,30,Amanda,Turnbull,4:40,6:28,19:24
14,159,Renelle,McManus,4:50,6:23,19:09
15,21,Michelle,Bieleny,5:00,6:20,19:00
16,208,Houston,Pearse,5:20,6:13,18:39
17,136,Livinia,Douglass,5:30,6:11,18:33
18,24,Karina,Bray,5:40,6:07,18:21
19,151,Jo,Williams,5:40,6:08,18:24
20,225,Lesley,Fabian,5:40,6:06,18:18
21,229,Harrison,Pitson,5:50,6:02,18:06
22,101,Paula,Saxon,6:00,6:00,18:00
23,173,Melanie,Cuzzillo,6:00,6:00,18:00
24,239,Paula,a'Beckett,6:00,5:59,17:57
25,282,Anna,deVries,6:00,6:01,18:03
26,292,Jye,Ekanayake,6:00,5:59,17:57
27,297,Declan,Lavery,6:20,5:53,17:39
28,147,Lachlan,Feuerherdt,6:50,5:43,17:09
29,66,Megan,McDonald,7:00,5:40,17:00
30,89,Natalie,Watson,7:00,5:39,16:57
31,157,Bec,Murphy,7:00,5:40,17:00
32,187,Nicole,Kelly,7:00,5:40,17:00
33,241,Andrea,Smith,7:00,5:41,17:03
34,288,Kate,McIntosh,7:00,5:39,16:57
35,11,Jane,McCaig,7:10,5:35,16:45
36,150,Rebecca,Ashman,7:10,5:36,16:48
37,174,Sam,Hancock,7:10,5:35,16:45
38,214,Amy,Sim,7:10,5:37,16:51
39,240,Jenelle,Seaward,7:10,5:36,16:48
40,242,Halle,Blake-Burrows,7:10,5:38,16:54
41,243,Max,Bray,7:10,5:35,16:45
42,98,Tanya,Fleming,7:20,5:32,16:36
43,156,Will,Murphy,7:20,5:32,16:36
44,210,Fiona,Dangerfield,7:20,5:34,16:42
45,170,Abbey,Saxon,7:30,5:31,16:33
46,190,Micheala,Meharry,7:30,5:29,16:27
47,200,Jack,Cripps,7:30,5:29,16:27
48,230,McKinley,Grills-Marsily,7:30,5:30,16:30
49,237,Lou,Bray,7:30,5:30,16:30
50,274,Avery,McDermid,7:30,5:30,16:30
51,249,Will,Gleisner,7:40,5:28,16:24
52,277,Luke,Feuerherdt,7:40,5:26,16:18
53,1,Ashlee,Bull,7:50,5:22,16:06
54,52,Leah,Cripps,7:50,5:25,16:15
55,99,Oscar,Terry,7:50,5:25,16:15
56,152,Alannah,Rielley,7:50,5:22,16:06
57,188,Darcy,Tucker,7:50,5:23,16:09
58,195,Luke,Creer,7:50,5:25,16:15
59,215,Emerson,Sim,7:50,5:25,16:15
60,269,Cooper,Charnas,7:50,5:25,16:15
61,164,Imogen,Thompson,8:00,5:19,15:57
62,182,Hanna,Crane,8:00,5:21,16:03
63,132,Tracie,Gleisner,8:20,5:15,15:45
64,176,Kaidyn,Tucker,8:20,5:12,15:36
65,189,Tim,Creer,8:20,5:14,15:42
66,228,Sam,Pitson,8:20,5:14,15:42
67,270,Tyler,Wilkie,8:20,5:15,15:45
68,32,Oliver,Turnbull,8:30,5:10,15:30
69,158,Annalise,Murphy,8:40,5:08,15:24
70,191,Phoebe,Lonsdale,8:50,5:02,15:06
71,275,Max,Rowe,8:50,5:04,15:12
72,193,Emily,Heislers,9:00,4:59,14:57
73,259,Jasmine,Santley,9:00,4:59,14:57
74,300,Lucinda,Terry,9:00,5:00,15:00
75,112,Jett,Grundy,9:10,4:57,14:51
76,171,Oliver,Sanderson,9:20,4:53,14:39
77,77,Brad,Russell,9:30,4:50,14:30
78,169,Floyd,Cartner,9:30,4:49,14:27
79,213,Phoebe,a'Beckett,9:30,4:51,14:33
80,94,David,Lonsdale,9:40,4:46,14:18
81,12,Josie,Aitken,9:50,4:45,14:15
82,29,Alison,Cartner,9:50,4:42,14:06
83,82,Sophie,Adamson,9:50,4:45,14:15
84,107,Hayden,Brook,9:50,4:44,14:12
85,201,Beatrice,Lonsdale,9:50,4:43,14:09
86,227,Joseph,Glanville,10:00,4:40,14:00
87,35,Conor,Cunningham,10:10,4:38,13:54
88,198,Matthew,Saxon,10:10,4:38,13:54
89,39,Melissa,Douglas,10:20,4:32,13:36
90,131,Carrisa,Brook,10:20,4:34,13:42
91,184,Will,Crane,10:20,4:34,13:42
92,105,Toby,McCaig,10:50,4:25,13:15
93,192,Nicholas,Ashman,11:00,4:20,13:00
94,203,Tullie,Rowe,11:20,4:15,12:45
95,236,Harry,Seaward,11:20,4:14,12:42
96,177,Ben,Wilby,11:30,4:11,12:33
97,218,Noah,Walsh,11:30,4:09,12:27
98,80,Bridie,Blake-Burrows,11:40,4:08,12:24
99,202,Callum,Tucker,11:40,4:07,12:21
100,224,Cooper,Hale,11:40,4:06,12:18
101,114,Spencer,Evans,11:50,4:05,12:15
102,19,Troy,Cartner,12:10,3:56,11:48
103,137,Anton,Paholek,12:10,3:57,11:51
104,219,Wil,McCaig,12:10,3:56,11:48
105,167,Jack,Meade,12:20,3:54,11:42
106,42,Craig,Feuerherdt,12:30,3:50,11:30
107,143,Maxine,Paholek,12:30,3:50,11:30
108,33,Andrew,Creer,13:00,3:40,11:00
109,115,Alexander,Evans,13:10,3:38,10:54
110,97,Adam,Fleming,13:40,3:28,10:24
111,46,Richard,Gleisner,13:50,3:23,10:09
112,27,Andrew,Buchanan,14:50,3:04,9:12