place,first,last,net Time,diff
1,Carissa,Brook,15:32,+ 0:32
2,Callum,Tucker,13:39,+ 0:45
3,Tullie,Rowe,15:36,+ 1:06
4,Ross,Douglas,15:02,+ 1:08
5,Micheala,Meharry,16:57,+ 1:12
6,Jack,Cripps,14:19,+ 1:22
7,Karina,Bray,19:51,+ 1:21
8,Will,Crane,16:33,+ 1:33
9,Nicole,Kelly,18:40,+ 1:43
10,Emily,Heislers,16:55,+ 1:40
11,Matthew,Saxon,18:10,+ 2:04
12,Beatrice,Lonsdale,17:16,+ 2:01
13,Kathryne,Charnas,22:35,+ 2:14
14,Fiona,Dangerfield,21:18,+ 2:18
15,Olivia,Kealy,25:01,+ 4:01
16,Hanna,Crane,21:08,+ 4:23
17,Phoebe,Lonsdale,21:59,+ 4:32
18,Cathleen,Farrelly,27:19,+ 6:19
19,Neve,Coleman,28:22,+ 7:22