PLACE,NAME,TIME,PACE,CLUB,GENDER,AGE
1,Toby McCaig,0:03:31.9,03:31.9,UNI,M,11
2,Logan Tickell,0:03:45.7,03:45.7,SOUTH,M,9
3,Sasha Pearce,0:04:00.7,04:00.7,SOUTH,F,9
4,William Robinson,0:04:01.4,04:01.4,UNI,M,8
5,Abbey Cartner,0:04:03.9,04:03.9,UNI,F,8
6,Kayla McManus,0:04:05.8,04:05.8,UNI,F,10
7,Levi Bowe,0:04:10.5,04:10.5,SOUTH,M,9
8,Asher Bowe,0:04:12.2,04:12.2,SOUTH,M,8
9,Kai Pearce,0:04:16.0,04:16.0,SOUTH,M,7
10,Avery McDermid,0:04:17.2,04:17.2,UNI,M,8
11,Max Bray,0:04:26.1,04:26.1,UNI,M,10
12,Lily Sanderson,0:04:27.9,04:27.9,UNI,F,9
13,Chelsea Tickell,0:04:28.5,04:28.5,SOUTH,F,7
14,Maiya Pearce,0:04:29.8,04:29.8,SOUTH,F,11
15,Eryn McManus,0:04:37.3,04:37.3,UNI,F,8
16,Lucy McCaig,0:04:46.0,04:46.0,UNI,F,8
17,Sebastian Boromeo,0:04:47.0,04:47.0,UNI,M,7
18,Ivy Bray,0:04:47.4,04:47.4,UNI,F,8
19,Will de Vries,0:05:36.5,05:36.5,UNI,M,7
20,Jonty McDermid,0:05:37.3,05:37.3,UNI,M,5
21,Harry Cripps,0:05:44.3,05:44.3,UNI,M,9
22,Poppy Wainwright,0:06:00.4,06:00.4,UNI,F,7
23,Tully Cripps,0:06:11.2,06:11.2,UNI,F,6
