place,first,last,net Time,diff
1,Joseph,Baldwin,15:24,- 3:01
2,Greg,Christie,15:31,- 2:54
3,Sharon,Kemp,19:01,- 2:24
4,Isabella,Douglass,17:15,- 1:07
5,Stephanie,Roberts,14:16,- 0:41
6,Bronte,Walsh,15:43,- 0:39
7,Bailey,Evans,11:40,- 0:25
8,Noah,Walsh,15:51,- 0:19
9,Laura,Terry,15:54,- 0:19
10,Scott,Roberts,15:41,+ 1:46
11,Bryn,McCormack,19:08,+ 6:54