{
  "extends": "tslint:recommended",
  "rules": {
    "quotemark": [
      true,
      "single",
      "jsx-double",
      "avoid-escape"
    ],
    "object-literal-key-quotes": [
      true,
      "as-needed"
    ],
    "object-literal-sort-keys":  false 
  },
  "jsRules":true

}
