place,first,last,net Time,diff
1,Oscar,Pearce,4:50,- 1:38
2,Harry,Jackel,4:14,- 0:48
3,Harry,Wright,5:15,- 0:38
4,Rielly,Walsh,4:14,- 0:17
5,Will,Hogan,3:38,- 0:17
6,Ruby,Walsh,4:36,- 0:11
7,Bree,Heiden,4:54,+ 0:03
8,Bailey,Evans,3:39,+ 0:05
9,Frances,Pearce,6:34,+ 0:06
10,Imogen,Douglass,6:09,+ 0:12
11,Lucinda,Terry,6:42,+ 0:16
12,Dane,Heiden,4:05,+ 0:21
13,Dylan,Evans,5:56,+ 0:22