Place,Member,First,Last,Start,Pace,Est Time
1,1005,Ann-Marie,Wangdi,31:50,07:59,1:03:13.7
2,3748,Amelia,Mitchell,31:50,07:59,1:03:13.7
3,3750,Genevieve,Draper,31:50,07:59,1:03:13.7
4,3781,Hamish,Draper,31:50,07:59,1:03:13.7
5,40,Aida,Escall,32:50,07:51,1:02:10.3
6,2,Alan,East,41:00,06:50,0:54:07.2
7,1068,Nick,O'Meara,41:00,06:50,0:54:07.2
8,39,Melissa,Douglas,41:30,06:45,0:53:27.6
9,1069,Julie,Marr,41:30,06:45,0:53:27.6
10,1070,Thomas,Lee,41:50,06:43,0:53:11.8
11,3776,Kathleen,Pleasants,42:00,06:42,0:53:03.8
12,3741,Kim,Carter,42:20,06:39,0:52:40.1
13,201,Beatrice,Lonsdale,42:30,06:38,0:52:32.2
14,159,Renelle,McManus,42:40,06:37,0:52:24.2
15,1002,Tammy,Fear,43:10,06:33,0:51:52.6
16,270,Tyler,Wilkie,44:40,06:21,0:50:17.5
17,100,Justine,Rowe,44:50,06:20,0:50:09.6
18,190,Michaela,Meharry,44:50,06:20,0:50:09.6
19,1028,Mel,Debnam-Smith,45:10,06:18,0:49:53.8
20,186,Jason,Anderton,46:00,06:12,0:49:06.2
21,43,Josephine,Robinson,46:00,06:11,0:48:58.3
22,191,Phoebe,Lonsdale,46:00,06:11,0:48:58.3
23,66,Megan,McDonald,46:10,06:10,0:48:50.4
24,157,Bec,Lacy,47:20,06:01,0:47:39.1
25,197,Sue,Taylor,48:30,05:52,0:46:27.8
26,149,Janelle,Giffin,48:40,05:51,0:46:19.9
27,233,Sue,Anderton,49:00,05:49,0:46:04.1
28,3732,Emma,Gibbons,49:10,05:47,0:45:48.2
29,6,Shayne,Rushan,49:30,05:45,0:45:32.4
30,54,Kevin,de Vries,49:30,05:45,0:45:32.4
31,87,Frances,Walsh,49:40,05:44,0:45:24.5
32,210,Fiona,Dangerfield,49:40,05:44,0:45:24.5
33,3758,Janis,Bull,50:20,05:39,0:44:44.9
34,251,Beth,Lavery,50:30,05:37,0:44:29.0
35,16,Jennifer,Lee,50:40,05:36,0:44:21.1
36,111,Troy,Davis,50:50,05:35,0:44:13.2
37,364,David,Howes,51:00,05:33,0:43:57.4
38,1066,Jodie,McLeod,51:20,05:31,0:43:41.5
39,91,Melissa,Wilkie,51:40,05:29,0:43:25.7
40,1087,Deanna,Marshall,51:40,05:29,0:43:25.7
41,52,Leah,Cripps,51:40,05:28,0:43:17.8
42,3777,Alistair,Stewart,51:40,05:28,0:43:17.8
43,67,Leeza,Meharry,52:00,05:26,0:43:01.9
44,3740,Vicki,Lane,52:10,05:25,0:42:54.0
45,299,Jay,Sanderson,52:20,05:24,0:42:46.1
46,1078,Leigh,Draper,52:20,05:24,0:42:46.1
47,74,Maree,Platt,52:30,05:22,0:42:30.2
48,1058,Tyler,Swann,53:00,05:19,0:42:06.5
49,1025,Liz,Foster,53:10,05:17,0:41:50.6
50,1041,Lachlan,Cherry,53:10,05:17,0:41:50.6
51,77,Brad,Russell,53:30,05:15,0:41:34.8
52,3747,Jeremy,Draper,53:30,05:15,0:41:34.8
53,59,Tina,McBain,53:40,05:13,0:41:19.0
54,1040,Erin,Williams,53:40,05:13,0:41:19.0
55,254,William,Robinson,54:00,05:11,0:41:03.1
56,307,Philip,Shambrook,54:00,05:11,0:41:03.1
57,359,Anne,McIntosh,54:00,05:11,0:41:03.1
58,1067,Scott,McLeod,54:10,05:10,0:40:55.2
59,13,Gavin,Fiedler,54:20,05:09,0:40:47.3
60,183,Janet,Hodnett,54:20,05:08,0:40:39.4
61,253,Charlotte,Murphy,54:20,05:08,0:40:39.4
62,22,Ross,Douglas,54:50,05:05,0:40:15.6
63,9,Trinity,Sanderson,55:00,05:03,0:39:59.8
64,333,Jon,McIntosh,55:10,05:02,0:39:51.8
65,1024,Todd,Foster,55:20,05:01,0:39:43.9
66,400,Darren,Rowe,55:30,05:00,0:39:36.0
67,29,Alison,Cartner,55:30,04:59,0:39:28.1
68,1088,Molly,Butler,55:30,04:59,0:39:28.1
69,1099,Kelvin,Niblett,56:00,04:56,0:39:04.3
70,1091,Adrian,McMahon,56:10,04:55,0:38:56.4
71,1074,David,Burrow,56:10,04:54,0:38:48.5
72,3714,Tanner,Fear,56:20,04:53,0:38:40.6
73,1072,Michael,Farr,56:30,04:52,0:38:32.6
74,34,Mathew,Creer,56:40,04:51,0:38:24.7
75,3,Alan,Buchanan,56:50,04:50,0:38:16.8
76,5,Jenny,Buchanan,56:50,04:50,0:38:16.8
77,55,Justin,Lee,56:50,04:50,0:38:16.8
78,1029,James,Trew,56:50,04:50,0:38:16.8
79,60,Greg,McBain,57:00,04:48,0:38:01.0
80,3726,Clare,Montgomery,57:00,04:48,0:38:01.0
81,3735,Travis,Edwards,57:00,04:48,0:38:01.0
82,14,Lisa,Wilkinson,57:30,04:45,0:37:37.2
83,278,James,Russell,57:30,04:45,0:37:37.2
84,1020,Mumtaz,Hussain,58:00,04:41,0:37:05.5
85,384,Andrew,Wilkie,58:00,04:40,0:36:57.6
86,1003,Damien,Roberts,58:00,04:40,0:36:57.6
87,1036,Harry,Wright,58:20,04:38,0:36:41.8
88,31,Charles,Chambers,58:30,04:37,0:36:33.8
89,394,Rhianna,Wik-Gamble,58:30,04:37,0:36:33.8
90,85,Joanne,Russell,58:40,04:35,0:36:18.0
91,1057,Wes,Jenkyn,59:50,04:27,0:35:14.6
92,350,David,Cripps,60:40,04:21,0:34:27.1
93,386,Danny,Burgess,60:40,04:20,0:34:19.2
94,51,Andrew,Hosking,61:00,04:18,0:34:03.4
95,94,David,Lonsdale,61:20,04:15,0:33:39.6
96,1009,Nicholas,Cherry,61:20,04:15,0:33:39.6
97,49,David,Heislers,61:30,04:14,0:33:31.7
98,3730,Greg,Carter,61:40,04:13,0:33:23.8
99,65,Ben,McDermid,61:50,04:11,0:33:07.9
100,84,Craig,Green,61:50,04:11,0:33:07.9
101,1027,Andrew,Van Agtmaal,61:50,04:11,0:33:07.9
102,63,John,Robinson,62:10,04:09,0:32:52.1
103,169,Floyd,Cartner,62:10,04:09,0:32:52.1
104,15,Rebecca,Wilkinson,62:30,04:07,0:32:36.2
105,125,Sarah,Jalim,62:40,04:05,0:32:20.4
106,1080,Jayson,Carter,62:40,04:05,0:32:20.4
107,118,Tim,Lauder,63:00,04:03,0:32:04.6
108,308,Chris,Giffin,63:00,04:03,0:32:04.6
109,1043,Michael,Gibbons,63:10,04:02,0:31:56.6
110,62,Lee,McCullagh,63:40,03:58,0:31:25.0
111,8,Rik,McCaig,63:50,03:57,0:31:17.0
112,1031,Jack,Milligan,63:50,03:57,0:31:17.0
113,33,Andrew,Creer,63:50,03:56,0:31:09.1
114,48,Matthew,Heislers,64:20,03:53,0:30:45.4
115,1023,Matthew,Schepisi,64:20,03:52,0:30:37.4
116,88,Brian,Watson,64:30,03:51,0:30:29.5
117,23,Michael,Bieleny,64:40,03:50,0:30:21.6
118,42,Craig,Feuerherdt,64:50,03:49,0:30:13.7
119,219,Wil,McCaig,65:00,03:48,0:30:05.8
120,1061,Tarli,Bird,65:00,03:48,0:30:05.8
121,1022,Ben,Stolz,65:10,03:46,0:29:49.9
122,1034,Garry,Marwood,65:40,03:42,0:29:18.2
123,3739,Stephen,van Rees,65:50,03:41,0:29:10.3
124,1056,Kye,Jenkyn,66:40,03:35,0:28:22.8
125,3701,Nigel,Preston,67:40,03:27,0:27:19.4
126,27,Andrew,Buchanan,70:00,03:10,0:25:04.8
