PLACE,FIRST,LAST,RACES,POINTS
1,Harry,Cripps,4,69
2,William,Trew,3,68
3,Luke,Feuerherdt,2,66
4,Floyd,Cartner,3,60
5,Eiliyah,Daneen,3,60
6,Tully,Cripps,4,58
7,Phoebe,Lonsdale,4,51
8,Kane,Safstrom,3,50
9,Hamish,Draper,2,47
10,Amelia,Mitchell,2,46
11,Mumtaz,Hussain,4,45
12,Dean,Trew,3,45
13,Will,de Vries,3,44
14,Jonty,McDermid,3,44
15,Avery,McDermid,3,42
16,Geoffrey,Robinson,3,41
17,Michelle,Scott,3,41
18,Xavier,Marwood,1,40
19,Mason,Woodward,4,40
20,Isabella,Draper,2,40
21,Lewis,Lonsdale,3,38
22,Poppy,Wainwright,3,35
23,David,Cripps,3,32
24,Lewis,McIntosh,2,30
25,Andrea,Smith,3,29
26,Thom,Hosking,3,29
27,Lynley,McDonald,4,28
28,Chris,Giffin,2,27
29,Bec,Woodward,4,27
30,Harry,Scott,3,26
31,Lachlan,Feuerherdt,1,25
32,Tim,Creer,1,24
33,Jasmine,Murphy,2,24
34,Sarah,Trew,3,24
35,Kelvin,Niblett,2,23
36,Tullie,Rowe,3,22
37,Anna,de Vries,2,22
38,Liz,Stewart,2,21
39,Renelle,McManus,2,21
40,Luke,Creer,1,21
41,William,Robinson,3,21
42,Logan,Beesley,2,20
43,Sonya,Walker,2,19
44,Ross,Douglas,2,18
45,Abbey,Cartner,1,18
46,Max,Rowe,3,18
47,Tanner,Fear,4,18
48,Ethan,Marwood,2,15
49,Beatrice,Lonsdale,2,14
50,Imogen,Stewart,2,14
51,Lesley,Fabian,3,13
52,Lachlan,Edwards,1,13
53,Ebony,Woodward,4,13
54,Kim,Carter,2,13
55,Charlotte,Murphy,3,11
56,Travis,Edwards,1,10
57,Leah,Cripps,3,9
58,Tammy,Fear,2,9
59,Kevin,de Vries,2,8
60,Ben,McDermid,2,7
61,Andrew,Creer,1,6
62,Rebecca,Kirkby,3,5
63,Jazlin,Fear,3,3
64,Anthony,Byrne,2,3
65,Melinda,Marwood,2,1
66,Lisa,Wilkinson,1,0
67,Josephine,Robinson,2,0
68,Megan,McDonald,1,0
69,Joshua,Condon,1,0
70,Olivia,Douglas,1,0
71,Lou,Bray,1,0
72,Jaron,Ekanayake,1,0
73,Fin,Bray,1,0
74,Joshua,Feuerherdt,1,0
75,Jon,McIntosh,1,0
76,April,Wainwright,1,0
77,Sebastian,Boromeo,1,0
78,James,Trew,1,0
79,Harry,Wright,1,0
80,Jodie,McLeod,1,0
81,Scott,McLeod,1,0
82,Freya,Nicoletti,1,0
83,Louise,Firli,1,0
84,Jimi,Read,1,0
85,Kale,Beesley,1,0
86,Zac,Firli,1,0
87,Hannah,Niblett,1,0
88,Cooper,Firli,1,0
89,Genevieve,Draper,2,0
90,Elijah,Willits,1,0
91,Noah,Willits,1,0
92,Tanae,Bull,1,0
93,Lyn,Sebire,1,0
94,Charlie,Collins,1,0
95,Janelle,Willits,1,0
