place,first,last,net Time,diff
1,Stephanie,Roberts,13:34,- 3:05
2,Jessey,Wilson,14:09,- 2:30
3,Bronte,Walsh,14:58,- 1:41
4,Sam,Brewin,13:25,- 1:35
5,Scott,Roberts,13:31,- 1:02
6,Ellie,Wilson,14:14,- 0:28
7,Blaze,Houlden,14:07,- 0:26
8,Helen,Sexton,16:50,- 0:04
9,Nick,Moloney,10:32,+ 0:02
10,Jeremy,Pearson,15:45,+ 1:18
11,Bridget,Houlden,19:29,+ 2:50
12,Sophie,Rohde,17:00,+ 6:30