place,first,last,start,pace,est Time
1,Eric,Aardvark,0:00,8:0,8:00
2,Mathew,Creer,0:30,7:30,7:30
3,Manny,Rose,0:30,7:30,7:30
4,Albert,Cordell,0:30,7:30,7:30
5,Luke,Feuerherdt,0:50,7:15,7:15
6,Neve,Coleman,1:00,7:1,7:01
7,Sarah,Cunningham,1:00,7:0,7:00
8,Finn,Cunningham,1:10,6:55,6:55
9,Lucy,Hall,1:10,6:50,6:50
10,Henry,Edwards,1:20,6:40,6:40
11,Owen,Brasher,1:30,6:30,6:30
12,Aedan,Hamilton,1:30,6:30,6:30
13,Ciaran,Nobel,1:30,6:30,6:30
14,Livinia,Douglass,1:40,6:19,6:19
15,Olivia,Kealy,1:40,6:25,6:25
16,Jordan,Spencer,1:40,6:20,6:20
17,Wilham,Gleisner,1:40,6:25,6:25
18,Morgan,Whatley,1:40,6:16,6:16
19,Eliza,Christie,1:50,6:15,6:15
20,Oscar,Terry,1:50,6:15,6:15
21,Lucinda,Terry,1:50,6:10,6:10
22,Aoife,Cunningham,1:50,6:15,6:15
23,Seyku,Hamond,1:50,6:15,6:15
24,Bweku tu,Hamond,1:50,6:15,6:15
25,Raph,Musk,1:50,6:10,6:10
26,Lewis,Lonsdale,1:50,6:15,6:15
27,Pheobe,Lonsdale,2:00,6:0,6:00
28,Felix,Ansted,2:00,6:0,6:00
29,Tara,Anderson,2:10,5:52,5:52
30,Hannah,Crane,2:10,5:50,5:50
31,Rachael,Hamilton,2:10,5:49,5:49
32,Emerson,Sim,2:10,5:48,5:48
33,Lachlan,Walsh,2:10,5:51,5:51
34,Melana,Cordell,2:10,5:54,5:54
35,Nick,Oke,2:20,5:40,5:40
36,Ruby,Fletcher,2:30,5:30,5:30
37,Max,Rowe,2:30,5:35,5:35
38,Ella,Fisher,2:30,5:35,5:35
39,Charlie,Lourie,2:30,5:31,5:31
40,Lulu,Hamond,2:30,5:30,5:30
41,Luke,Creer,2:30,5:30,5:30
42,Otto,Ansted,2:30,5:30,5:30
43,Nellie,Rose,2:40,5:23,5:23
44,Mathilda,Stewart,2:40,5:20,5:20
45,Luella,Ansted,2:40,5:20,5:20
46,Lachlan,Feuerherdt,2:40,5:23,5:23
47,McKinley,Musk,2:40,5:17,5:17
48,Madlen,Hearne,2:50,5:15,5:15
49,Zac,Walsh,2:50,5:10,5:10
50,Henry,Cordell,2:50,5:12,5:12
51,Henry,Spencer,2:50,5:6,5:06
52,Sol,Musk,2:50,5:15,5:15
53,Carissa,Brook,3:00,5:4,5:04
54,Amber,Lyons,3:00,5:0,5:00
55,Lillian,Oke,3:00,5:5,5:05
56,Vincent,Weatherhead,3:00,5:0,5:00
57,Nina,Lenard,3:00,5:2,5:02
58,Tim,Creer,3:00,4:57,4:57
59,Will,Crane,3:10,4:48,4:48
60,Jayden,Padgham,3:10,4:55,4:55
61,Jude,Perez,3:10,4:50,4:50
62,Riley,Walsh,3:10,4:50,4:50
63,Tanner,Nally,3:10,4:47,4:47
64,James,Kealy,3:20,4:45,4:45
65,Bronte,Walsh,3:20,4:45,4:45
66,Emily,Heislers,3:20,4:39,4:39
67,Declan,McMahon,3:20,4:36,4:36
68,Floyd,Cartner,3:30,4:34,4:34
69,Olivia,Houlden,3:30,4:30,4:30
70,Beatrice,Lonsdale,3:30,4:32,4:32
71,Kaidyn,Tucker,3:30,4:35,4:35
72,Brodie,Hartland,3:40,4:21,4:21
73,Leila,Padgham,3:40,4:25,4:25
74,Matisse,Perez,3:40,4:25,4:25
75,Noah,Walsh,3:40,4:22,4:22
76,Tullie,Rowe,3:40,4:17,4:17
77,Jake,Lyons,3:50,4:15,4:15
78,Steffany,Roberts,3:50,4:10,4:10
79,Brayden,Roberts,4:00,4:1,4:01
80,Luke,Padgham,4:10,3:50,3:50
81,Ned,Buckell,4:10,3:55,3:55
82,Matthew,Heislers,4:20,3:40,3:40
83,Jacob,Buckell,4:20,3:40,3:40