first,last,start,pace,est Time
Victoria,Jeffery,0:10,7:50,7:50
Olivia,Kealy,0:10,7:50,7:50
Eloise,Arthur,0:20,7:42,7:42
Oliver,Turnbull,0:30,7:30,7:30
Ciaran,Nobel,0:50,7:9,7:09
Jack,Wright,0:50,7:14,7:14
Connar,Pearson,1:00,6:57,6:57
Oscar,Terry,1:00,7:0,7:00
Neve,Coleman,1:10,6:52,6:52
Aedan,Hamilton,1:20,6:45,6:45
Owen,Brasher,1:20,6:40,6:40
Pheobe,Lonsdale,1:30,6:30,6:30
Maire,Coleman,1:40,6:25,6:25
Emerson,Sim,1:40,6:23,6:23
Janine,Butcher,1:40,6:21,6:21
Nicholas,Meharry,1:50,6:13,6:13
Imogen,Douglass,1:50,6:12,6:12
Lachlan,Walsh,2:00,6:0,6:00
Lucinda,Terry,2:00,6:0,6:00
Livinia,Douglass,2:00,5:58,5:58
Eliza,Christie,2:00,6:0,6:00
Nick,Oke,2:00,6:0,6:00
Imogen,Thompson,2:10,5:50,5:50
Liam,Carroll,2:10,5:52,5:52
Tara,Anderson,2:10,5:54,5:54
Nellie,Rose,2:10,5:50,5:50
Hannah,Crane,2:10,5:50,5:50
Ruby,Fletcher,2:10,5:50,5:50
Jayden,Padgham,2:10,5:50,5:50
Madelaine,Hearn,2:20,5:41,5:41
Morgan,Dunn,2:20,5:44,5:44
Rachael,Hamilton,2:20,5:40,5:40
Connor,O'Farrell,2:20,5:44,5:44
Maeve,Hogan,2:20,5:45,5:45
Vincent,Weatherhead,2:20,5:45,5:45
Holly,Lockhart,2:20,5:36,5:36
Molly,Robinson,2:20,5:36,5:36
Belle,Livingstone,2:20,5:36,5:36
Tanner,Nally,2:30,5:28,5:28
Mathilda,Stewart,2:30,5:31,5:31
Rhiannon,Hearne,2:30,5:30,5:30
Madlen,Hearne,2:30,5:30,5:30
Hamish,Lockhart,2:30,5:35,5:35
Zac,Walsh,2:40,5:18,5:18
Tom,Coleman,2:40,5:23,5:23
Ebony,Butcher,2:40,5:18,5:18
Megan,Neilson,2:40,5:25,5:25
Floyd,Cartner,2:50,5:10,5:10
Amber,Lyons,2:50,5:15,5:15
Lucy,Hogan,2:50,5:10,5:10
Lillian,Oke,2:50,5:10,5:10
Carissa,Brook,2:50,5:8,5:08
Tara,Carroll,3:00,5:0,5:00
Beatrice,Lonsdale,3:00,5:0,5:00
Dylan,Evans,3:00,5:3,5:03
James,Kealy,3:00,4:56,4:56
William,Kenny,3:00,5:5,5:05
Will,Crane,3:00,5:4,5:04
Ava,Perez,3:10,4:54,4:54
Riley,Walsh,3:10,4:50,4:50
Jude,Perez,3:10,4:50,4:50
Miles,Livingstone,3:10,4:51,4:51
Bronte,Walsh,3:20,4:40,4:40
Michaela,Meharry,3:20,4:36,4:36
Emily,Heislers,3:20,4:40,4:40
William,Neilson,3:20,4:38,4:38
Jake,Lyons,3:20,4:40,4:40
Noah,Walsh,3:30,4:26,4:26
Olivia,Houlden,3:30,4:29,4:29
Brayden,Roberts,3:30,4:27,4:27
Steffany,Roberts,3:30,4:32,4:32
Leila,Padgham,3:30,4:35,4:35
Matisse,Perez,3:30,4:33,4:33
Harry,Wright,3:40,4:18,4:18
Jayden,Walsh,3:40,4:19,4:19
Brodie,Hartland,3:40,4:24,4:24
Blaze,Houlden,3:40,4:20,4:20
Ollie,Sexton,3:40,4:20,4:20
Tyson,Peautagitama,4:00,4:0,4:00
Luke,Padgham,4:00,4:0,4:00
Will,Hogan,4:10,3:52,3:52
Matthew,Heislers,4:10,3:52,3:52
Bailey,Evans,4:20,3:45,3:45