Place,First,Last,NET Time,Pace,Diff
1,Janelle,Giffin,0:50:31.1,06:09.6,-00:43.9
2,David,Lonsdale,0:35:01.8,04:16.3,-00:13.8
3,Greg,McBain,0:37:23.8,04:33.6,-00:11.2
4,Ben,McDermid,0:35:16.7,04:18.1,+00:09.3
5,Chris,Giffin,0:36:49.3,04:29.4,+00:28.1
6,Ross,Douglas,0:40:57.2,04:59.7,+00:54.6
7,Rik,McCaig,0:31:41.2,03:51.9,+00:56.2
8,Els,Viester,0:37:16.0,04:32.7,+01:03.0
9,Maree,Platt,0:44:03.7,05:22.4,+01:17.1
10,Sue,Taylor,0:50:06.4,06:06.6,+01:19.0
11,Justin,Lee,0:38:03.4,04:38.5,+01:25.8
12,Andrea,Smith,0:40:59.4,04:59.9,+01:37.8
13,Alison,Cartner,0:40:21.2,04:55.3,+01:48.8
14,Craig,Feuerherdt,0:33:07.6,04:02.4,+01:58.0
15,Lauren,Hancock,0:44:47.6,05:27.8,+02:58.4
16,Kevin,deVries,0:47:01.0,05:44.0,+02:52.4
17,Darren,Hartland,0:34:43.7,04:14.1,+03:17.7
18,Alan,East,0:55:03.5,06:42.9,+04:04.9
19,Leah,Cripps,0:48:40.3,05:56.1,+05:53.7
20,John,Robinson,0:38:28.1,04:41.5,+07:43.1
NEW,David,Howes,0:48:02.4,05:51.5
