Place,First,Last,NET Time,Pace,Diff
1,Josephine,Robinson,0:16:18.9,05:26.3,+00:00.9
2,Wil,McCaig,0:11:25.0,03:48.3,+00:10.0
3,Toby,McCaig,0:12:05.6,04:01.9,+00:05.6
4,Nathan,Jones,0:15:43.6,05:14.5,+00:10.6
5,Melissa,Douglas,0:12:56.2,04:18.7,+00:11.2
6,Connor,Bedson,0:13:22.7,04:27.6,+00:25.7
7,Max,Rowe,0:14:35.9,04:52.0,+00:35.9
8,Tullie,Rowe,0:12:22.5,04:07.5,+00:37.5
9,James,Toomey,0:13:35.8,04:31.9,+00:41.8
10,Phoebe,Lonsdale,0:14:36.9,04:52.3,+00:42.9
11,Beatrice,Lonsdale,0:14:13.1,04:44.4,+00:49.1
12,Lou,Bray,0:18:25.0,06:08.3,+01:10.0
13,Lynley,McDonald,0:17:29.0,05:49.7,+01:20.0
14,John,Robinson,0:16:19.3,05:26.4,+03:49.3
NEW,David,Cripps,0:12:59.4,04:19.8
NEW,Sarah,Schroeder,0:17:54.5,05:58.2
NEW,Trinity,Sanderson,0:18:18.0,06:06.0
NEW,Beth,Lavery,0:17:28.2,05:49.4
