PLACE,FIRST,LAST,RACES,POINTS
1,Rik,McCaig,12,138
2,Matthew,Heislers,9,135
3,John,Robinson,12,132
4,Sarah,Jalim,12,118
5,Andrew,Creer,7,117
6,Tim,Lauder,8,114
7,Craig,Feuerherdt,6,106
8,Chris,McCormack,9,103
9,Rebecca,Wilkinson,11,100
10,Ben,McDermid,10,99
11,David,Lonsdale,8,92
12,Darren,Hartland,5,89
13,Chris,Giffin,14,77
14,David,Heislers,9,74
15,Justin,Lee,12,69
16,Brian,Watson,4,69
17,Els,Viester,6,64
18,Brock,Prime,4,61
19,Andrew,Wilkie,5,55
20,Lee,Bray,5,54
21,Charles,Chambers,7,53
22,Alison,Cartner,15,49
23,Gavin,Fiedler,13,46
24,Greg,McBain,6,45
25,Andrew,Buchanan,2,40
26,Lee,McCullagh,2,40
27,David,Meade,2,39
28,Ross,Douglas,15,38
29,John,Flood,4,37
30,Andrea,Smith,13,35
31,David,Cripps,6,35
32,Alan,Buchanan,6,34
33,Craig,Green,2,32
34,Paul,Lomax,12,28
35,Matt,Holmes,3,27
36,Michael,Bieleny,2,25
37,Jack,Meade,2,25
38,Trinity,Sanderson,6,24
39,Georgie,Lanyon,4,23
40,Maree,Platt,14,20
41,Tom,Barkmeyer,1,20
42,Paul,Seaward,2,19
43,Russell,Jenkins,1,17
44,Todd,Cody,1,17
45,Danny,Burgess,3,16
46,Jason,Sim,1,16
47,Rory,Weightman,3,14
48,Karl,Lanyon,2,13
49,Jenny,Buchanan,6,12
50,Lauren,Hancock,5,12
51,Melissa,Douglas,3,12
52,Tullie,Rowe,2,12
53,Jim,Russell,1,12
54,Kevin,deVries,10,11
55,Amy,Holmes,2,11
56,David,Sebastian,1,11
57,Philip,Shambrook,8,10
58,Paul,Vickery,2,10
59,Bridie,Blake-Burrows,1,9
60,Rhianna,Wik-Gamble,2,8
61,Leah,Cripps,11,7
62,Stephen,Wainwright,1,7
63,Lisa,Wilkinson,3,6
64,Beth,Lavery,6,5
65,Kate,Hadkins,7,5
66,Brett,Houlden,3,5
67,Ingrid,Douglass,2,5
68,Jon,McIntosh,6,4
69,Tina,McBain,2,4
70,David,Howes,1,4
71,Sue,Taylor,9,2
72,Shayne,Rushan,8,2
73,Melissa,Wilkie,5,2
74,Philippa,Morris,4,2
75,Janelle,Giffin,8,1
76,James,Toomey,2,1
77,Alan,East,6,0
78,Jennifer,Lee,6,0
79,Sue,Condon,5,0
80,Jason,Anderton,6,0
81,Troy,Davis,3,0
82,Brad,Russell,5,0
83,Fiona,Dangerfield,4,0
84,Anne,McIntosh,3,0
85,Aida,Escall,4,0
86,Joshua,Condon,2,0
87,Scott,Roberts,3,0
88,Laura,Terry,2,0
89,James,Deacon,2,0
90,John,Doering,2,0
91,Natalie,Jacobson,1,0
92,Adam,Henderson,2,0
93,Megan,McDonald,1,0
94,Jay,Sanderson,1,0
95,Cara,Smith,1,0
96,Tim,Creer,1,0
97,Amy,Sim,1,0
98,Peter,Noble,1,0
99,Paula,Meade,1,0
100,Blaze,Houlden,1,0
101,Alex,Tranter,1,0
102,Greg,Toomey,1,0
103,Jenni,Jenkins,1,0
104,Mark,Logan,1,0
