Place,First,Last,NET Time,Pace,Diff
1,Samuel,Preston,0:05:26.3,05:26,-00:15.7
2,Geoffrey,Robinson,0:05:31.4,05:31,+00:13.4
3,Genevieve,Robinson,0:06:40.5,06:40,+00:17.5
4,William,Trew,0:04:00.4,04:00,+00:20.4
5,Mason,Woodward,0:04:00.7,04:01,+00:20.7
6,Avery,McDermid,0:04:24.3,04:24,+00:22.3
7,James,Trew,0:04:02.2,04:02,+00:25.2
8,Luke,Feuerherdt,0:04:39.6,04:40,+00:27.6
9,Braxton,Safstrom,0:05:38.9,05:39,+00:28.9
10,Edie,Gibbons,0:07:09.1,07:09,+00:30.1
11,Jonty,McDermid,0:04:48.0,04:48,+00:34.0
12,Joshua,Feuerherdt,0:04:47.6,04:48,+00:36.6
13,Skylar,Woodward,0:05:47.4,05:47,+00:39.4
14,Ebony,Woodward,0:05:02.7,05:03,+00:39.7
15,Lewis,Lonsdale,0:04:34.0,04:34,+00:40.0
16,Harry,Scott,0:05:21.4,05:21,+00:43.4
17,Eiliyah,Daneen,0:05:54.9,05:55,+00:46.9
18,Oliver,Clarke,0:06:55.1,06:55,+00:49.1
19,April,Wainwright,0:05:22.7,05:23,+00:55.7
20,William,Robinson,0:04:58.1,04:58,+00:59.1
21,Chloe,Beesley,0:06:29.2,06:29,+01:12.2
22,Sebastian,Stewart,0:06:26.4,06:26,+01:13.4
23,Ellie,Beesley,0:09:37.0,09:37,+03:23.0
NEW,Sophie,Rogers,0:07:18.0,07:18
NEW,Cooper,Rogers,0:08:57.3,08:57
