PLACE,FIRST,LAST,TIME,PACE,CLUB
1,Melissa,Douglas,0:35:14.0,04:38.2,UNI
2,Alison,Cartner,0:38:36.8,05:04.8,UNI
3,Maree,Platt,0:40:31.8,05:20.0,UNI
4,Leah,Cripps,0:41:37.2,05:28.6,UNI
5,Melinda,Gilligan,0:51:00.2,06:42.7,HARRIERS
