place,first,last,net Time,diff
1,Danni,Adams,46:28,- 5:32
2,$ Jason,Finch,37:24,- 4:36
3,$ Aida,Escall,49:59,- 3:29
4,Carol,Sing,44:27,- 2:37
5,Frances,Walsh,42:29,- 2:35
6,Michelle,Bieleny,48:09,- 2:23
7,George,Thomas,35:43,- 2:17
8,Natalie,Watson,44:57,- 2:15
9,John,McCullagh,34:38,- 1:22
10,Alan,Buchanan,33:54,- 1:02
11,$ Andrew,Evely,39:17,- 0:59
12,Gavin,Fiedler,35:18,- 0:50
13,Chris,McCormack,31:49,- 0:51
14,Fraser,Walsh,28:52,- 0:44
15,Ryan,Brook,33:25,- 0:43
16,Brad,Russell,40:19,- 0:45
17,Rebecca,Tweed,33:00,- 0:36
18,Alison,Cartner,37:11,- 0:41
19,Justin,O'Brien,40:44,- 0:36
20,Craig,Feuerherdt,31:45,- 0:31
21,Laura,Terry,41:47,- 0:29
22,Andrew,Hosking,30:38,- 0:34
23,$ Max,Pearse,33:51,- 0:33
24,$ Erica,Wilkinson,34:16,- 0:24
25,Andrew,Creer,31:09,- 0:19
26,Genevieve,Green,37:39,+ 0:03
27,$ Ben,McDermid,31:42,- 0:02
28,Michael,Bieleny,29:39,+ 0:11
29,Melissa,Wilkie,43:03,+ 0:15
30,$ Richard,Gleisner,28:03,+ 0:19
31,Maree,Platt,43:56,+ 0:28
32,Mark,Saxon,35:39,+ 0:27
33,Gary,Crouch,37:07,+ 0:51
34,Shayne,Rushan,39:42,+ 0:54
35,Jenny,Buchanan,37:35,+ 0:55
36,$ Melissa,Douglas,39:19,+ 1:03
37,Jordan,Adams,31:12,+ 1:12
38,$ Charles,Chambers,33:14,+ 2:10