place,first,last,net Time,diff
1,Jesse,Brook,06:52,- 0:38
2,Olivia,Douglas,06:26,- 0:24
3,Lewis,Kalloun,06:07,- 0:19
4,Jack,Gleisner,05:28,- 0:22
5,Toby,McCaig,04:21,- 0:16
6,Paige,a'Beckett,05:26,- 0:19
7,Lewis,Lonsdale,04:39,- 0:10
8,Avery,McDermid,05:39,- 0:16
9,Lachlan,Feuerherdt,04:30,- 0:12
10,Luke,Feuerherdt,04:54,- 0:11
11,Lucy,McCaig,05:50,- 0:05
12,Abbey,Cartner,04:52,+ 0:02
13,Oscar,Terry,05:12,+ 0:01
14,Lucinda,Terry,05:48,+ 0:10
15,Emily,Christie,05:48,+ 0:03
16,Floyd,Cartner,04:21,+ 0:11
17,Lacey,Wilkie,06:29,+ 0:33
18,William,Robinson,06:13,+ 0:56
19,Ava,Terry,07:55,+ 1:29