place,first,last,net Time,diff
1,Kaidyn,Tucker,16:37,- 2:44
2,Ashlee,Bull,16:05,- 2:04
3,Tyler,Wilkie,18:40,- 0:56
4,Matthew,Saxon,14:13,- 0:53
5,Jack,Meade,12:26,- 0:52
6,Will,McCaig,12:58,- 0:47
7,Will,Gleisner,17:23,- 0:37
8,Brad,Russell,15:26,- 0:25
9,Darcy,Tucker,16:10,- 0:20
10,Maxine,Paholek,11:47,- 0:13
11,Anton,Paholek,12:22,- 0:08
12,Beatrice,Lonsdale,15:09,- 0:06
13,Callum,Tucker,12:41,+ 0:11
14,Max,Rowe,15:07,+ 0:19
15,Phoebe,Lonsdale,17:38,+ 0:17
16,Phoebe,a'Beckett,15:56,+ 0:26
17,Fiona,Dangerfield,17:57,+ 0:27
18,Lucinda,Terry,18:49,+ 0:28
19,Suellen,Bambrick,20:01,+ 0:46
20,Renelle,McManus,19:08,+ 1:38
21,Tullie,Rowe,18:42,+ 4:27