place,first,last,club,net Time
1,Mike,Bieleny,UNI,27:41.8
2,Peter,Cowell,HAR,28:11.0
3,Tim,Lauder,UNI,31:45.1
4,David,Grimes,HAR,34:01.4
5,Greg,McBain,UNI,34:16.6
6,Gavin,Fiedler,UNI,34:34.7
7,Leon,Gilbert,HAR,34:58.9
8,Roy,Preece,UNI,35:39.0
9,Shayne,Rushan,UNI,39:04.6
10,Brian,Cornell,EGWK,39:12.8
11,Garnet,Rodda,HAR,39:33.7
12,George,Flack,EGWK,39:46.6
13,Tony,Fahy,HAR,43:52.2