Place,Member,First,Last,Start,Pace,Est Time
1,1098,Hannah,Niblett,05:20,10:15,0:30:45.0
2,3782,Owen,Draper,12:00,07:59,0:23:57.0
3,1093,Kale,Beesley,12:20,07:53,0:23:39.0
4,3748,Amelia,Mitchell,13:20,07:34,0:22:42.0
5,1038,Xavier,Marwood,13:50,07:24,0:22:12.0
6,250,Tully,Cripps,14:00,07:20,0:22:00.0
7,246,Poppy,Wainwright,14:10,07:18,0:21:54.0
8,3750,Genevieve,Draper,14:50,07:04,0:21:12.0
9,79,Liz,Stewart,15:20,06:54,0:20:42.0
10,3781,Hamish,Draper,15:30,06:50,0:20:30.0
11,1039,Melinda,Marwood,16:30,06:30,0:19:30.0
12,3720,Bec,Woodward,16:30,06:29,0:19:27.0
13,3776,Kathleen,Pleasants,16:40,06:28,0:19:24.0
14,356,Lynley,McDonald,16:40,06:25,0:19:15.0
15,159,Renelle,McManus,17:00,06:19,0:18:57.0
16,358,Lewis,McIntosh,17:30,06:11,0:18:33.0
17,1049,Georgie,Gibbons,17:30,06:09,0:18:27.0
18,100,Justine,Rowe,17:40,06:07,0:18:21.0
19,1019,Christopher,Epworth,17:50,06:02,0:18:06.0
20,1077,Dean,Trew,18:00,06:01,0:18:03.0
21,3729,Fiona,Preston,18:00,06:01,0:18:03.0
22,225,Lesley,Fabian,18:00,06:00,0:18:00.0
23,3741,Kim,Carter,18:00,06:00,0:18:00.0
24,98,Tanya,Fleming,18:20,05:54,0:17:42.0
25,282,Anna,de Vries,18:20,05:54,0:17:42.0
26,149,Janelle,Giffin,18:30,05:51,0:17:33.0
27,1066,Jodie,McLeod,18:30,05:50,0:17:30.0
28,50,Harry,Cripps,18:40,05:47,0:17:21.0
29,157,Bec,Lacy,18:40,05:45,0:17:15.0
30,40,Aida,Escall,18:50,05:44,0:17:12.0
31,66,Megan,McDonald,18:50,05:43,0:17:09.0
32,3753,Logan,Beesley,19:00,05:39,0:16:57.0
33,44,Geoffrey,Robinson,19:10,05:38,0:16:54.0
34,1002,Tammy,Fear,19:10,05:37,0:16:51.0
35,1063,Will,Trewick,19:10,05:37,0:16:51.0
36,1076,Sarah,Trew,19:20,05:35,0:16:45.0
37,3783,Zacch,Martin,19:20,05:34,0:16:42.0
38,1033,Sal,Ekanayake,19:20,05:32,0:16:36.0
39,43,Josephine,Robinson,19:30,05:31,0:16:33.0
40,52,Leah,Cripps,19:40,05:28,0:16:24.0
41,220,Ella,Meharry,19:40,05:25,0:16:15.0
42,1017,Scott,Broad,19:40,05:25,0:16:15.0
43,1015,Miller,Armstrong,19:50,05:24,0:16:12.0
44,16,Jennifer,Lee,20:00,05:21,0:16:03.0
45,54,Kevin,de Vries,20:00,05:20,0:16:00.0
46,252,Jasmine,Murphy,20:30,05:11,0:15:33.0
47,1016,Noah,Armstrong,20:30,05:11,0:15:33.0
48,195,Luke,Creer,20:30,05:10,0:15:30.0
49,1030,Ella,Smith,20:30,05:10,0:15:30.0
50,1067,Scott,McLeod,20:30,05:10,0:15:30.0
51,1058,Tyler,Swann,20:30,05:09,0:15:27.0
52,276,Joshua,Feuerherdt,20:40,05:08,0:15:24.0
53,360,Phoebe,Martin,20:40,05:07,0:15:21.0
54,3715,Chloe,Green,20:40,05:07,0:15:21.0
55,1012,Danny,Breen,20:40,05:06,0:15:18.0
56,22,Ross,Douglas,21:00,05:01,0:15:03.0
57,400,Darren,Rowe,21:00,05:00,0:15:00.0
58,13,Gavin,Fiedler,21:00,04:59,0:14:57.0
59,284,Imogen,Stewart,21:00,04:59,0:14:57.0
60,270,Tyler,Wilkie,21:10,04:58,0:14:54.0
61,277,Luke,Feuerherdt,21:10,04:56,0:14:48.0
62,281,Will,de Vries,21:20,04:53,0:14:39.0
63,305,Jonty,McDermid,21:20,04:53,0:14:39.0
64,3737,Ebony,Woodward,21:30,04:51,0:14:33.0
65,29,Alison,Cartner,21:30,04:49,0:14:27.0
66,3735,Travis,Edwards,21:40,04:48,0:14:24.0
67,39,Melissa,Douglas,21:40,04:47,0:14:21.0
68,14,Lisa,Wilkinson,21:40,04:45,0:14:15.0
69,292,Jye,Ekanayake,21:40,04:45,0:14:15.0
70,1037,Ethan,Marwood,21:50,04:44,0:14:12.0
71,1020,Mumtaz,Hussain,21:50,04:43,0:14:09.0
72,266,Lewis,Lonsdale,22:00,04:41,0:14:03.0
73,272,Abbey,Cartner,22:00,04:41,0:14:03.0
74,1060,William,Trew,22:00,04:39,0:13:57.0
75,274,Avery,McDermid,22:10,04:38,0:13:54.0
76,1013,Jonte,Breen,22:10,04:36,0:13:48.0
77,3713,Jazlin,Fear,22:20,04:35,0:13:45.0
78,147,Lachlan,Feuerherdt,22:20,04:33,0:13:39.0
79,241,Andrea,Smith,22:20,04:33,0:13:39.0
80,55,Justin,Lee,22:30,04:31,0:13:33.0
81,201,Beatrice,Lonsdale,22:30,04:31,0:13:33.0
82,1051,Kane,Safstrom,22:30,04:30,0:13:30.0
83,244,Jaron,Ekanayake,22:40,04:27,0:13:21.0
84,3717,Lachlan,Edwards,22:40,04:27,0:13:21.0
85,254,William,Robinson,22:50,04:22,0:13:06.0
86,350,David,Cripps,22:50,04:22,0:13:06.0
87,253,Charlotte,Murphy,23:00,04:20,0:13:00.0
88,105,Toby,McCaig,23:10,04:17,0:12:51.0
89,189,Tim,Creer,23:10,04:17,0:12:51.0
90,3738,Mason,Woodward,23:10,04:17,0:12:51.0
91,3714,Tanner,Fear,23:20,04:15,0:12:45.0
92,191,Phoebe,Lonsdale,23:20,04:14,0:12:42.0
93,3730,Greg,Carter,23:20,04:13,0:12:39.0
94,1029,James,Trew,23:30,04:10,0:12:30.0
95,63,John,Robinson,23:30,04:09,0:12:27.0
96,169,Floyd,Cartner,23:40,04:08,0:12:24.0
97,203,Tullie,Rowe,24:00,04:00,0:12:00.0
98,275,Max,Rowe,24:00,04:00,0:12:00.0
99,308,Chris,Giffin,24:00,03:59,0:11:57.0
100,33,Andrew,Creer,24:10,03:56,0:11:48.0
101,1023,Matthew,Schepisi,24:20,03:52,0:11:36.0
102,65,Ben,McDermid,24:30,03:51,0:11:33.0
103,171,Oliver,Sanderson,24:30,03:51,0:11:33.0
104,1031,Jack,Milligan,24:30,03:50,0:11:30.0
105,1061,Tarli,Bird,24:40,03:48,0:11:24.0
106,1036,Harry,Wright,24:40,03:46,0:11:18.0
