PLACE,FIRST,LAST,RACES,POINTS
1,Mason,Woodward,2,40
2,William,Trew,2,38
3,Avery,McDermid,2,32
4,Ebony,Woodward,2,27
5,William,Robinson,2,26
6,Jonty,McDermid,2,26
7,Logan,Beesley,2,20
8,Floyd,Cartner,1,18
9,Tanner,Fear,1,18
10,Lewis,Lonsdale,1,17
11,Luke,Feuerherdt,1,16
12,Joshua,Feuerherdt,1,14
13,Jimi,Read,1,14
14,Sebastian,Boromeo,1,12
15,Abbey,Cartner,1,11
16,Harry,Scott,1,10
17,Jaron,Ekanayake,1,9
18,Eiliyah,Daneen,1,8
19,Zac,Firli,1,8
20,Geoffrey,Robinson,1,7
21,April,Wainwright,1,7
22,Kayla,McManus,1,6
23,Skylar,Woodward,1,5
24,Eryn,McManus,1,4
25,Lily,Sanderson,1,3
26,Xavier,Marwood,1,2
27,Braxton,Safstrom,1,1
28,Alice,McIntosh,1,0
29,Genevieve,Robinson,1,0
30,Ruby,Douglas,1,0
31,Tom,Roberts,1,0
32,Savannah,Marwood,1,0
33,Louise,Firli,1,0
34,Miriam,Niblett,1,0
35,Jemma,Carter,1,0
36,Liam,Carter,1,0
37,Ellie,Beesley,1,0
38,Chloe,Beesley,1,0
39,Sebastian,Stewart,1,0
