Place,Member,First,Last,Start,Pace,Est Time
1,173,Melanie,Cuzzillo,00:50,06:54,0:55:12.0
2,145,Joshua,Condon,04:40,06:25,0:51:20.0
3,303,Paula,Meade,05:20,06:20,0:50:40.0
4,2,Alan,East,06:20,06:13,0:49:44.0
5,66,Megan,McDonald,07:00,06:08,0:49:04.0
6,37,John,Doering,07:10,06:06,0:48:48.0
7,196,Kathryne,Charnas,07:10,06:06,0:48:48.0
8,100,Justine,Rowe,07:20,06:05,0:48:40.0
9,329,Jolie,Middleton,08:10,05:59,0:47:52.0
10,385,Jenni,Jenkins,08:20,05:57,0:47:36.0
11,149,Janelle,Giffin,08:30,05:56,0:47:28.0
12,40,Aida,Escall,08:40,05:55,0:47:20.0
13,57,Adam,Henderson,08:40,05:55,0:47:20.0
14,77,Brad,Russell,08:40,05:55,0:47:20.0
15,197,Sue,Taylor,08:50,05:54,0:47:12.0
16,233,Sue,Condon,09:40,05:48,0:46:24.0
17,214,Amy,Sim,09:40,05:47,0:46:16.0
18,98,Tanya,Fleming,10:00,05:45,0:46:00.0
19,189,Tim,Creer,10:00,05:45,0:46:00.0
20,210,Fiona,Dangerfield,10:20,05:42,0:45:36.0
21,11,Jane,McCaig,10:30,05:41,0:45:28.0
22,186,Jason,Anderton,10:30,05:41,0:45:28.0
23,76,Cara,Smith,10:50,05:39,0:45:12.0
24,334,Alex,Tranter,11:20,05:35,0:44:40.0
25,87,Frances,Walsh,11:30,05:34,0:44:32.0
26,237,Lou,Bray,11:30,05:34,0:44:32.0
27,194,Melanie,Woods,11:40,05:32,0:44:16.0
28,89,Natalie,Watson,11:50,05:31,0:44:08.0
29,199,Shann,Anderson,11:50,05:31,0:44:08.0
30,16,Jennifer,Lee,12:20,05:28,0:43:44.0
31,81,Laura,Terry,12:20,05:27,0:43:36.0
32,123,Harry,Terry,12:20,05:27,0:43:36.0
33,363,Philippa,Morris,12:20,05:27,0:43:36.0
34,127,Alison,McCullagh,12:30,05:26,0:43:28.0
35,333,Jon,McIntosh,12:30,05:26,0:43:28.0
36,52,Leah,Cripps,12:40,05:25,0:43:20.0
37,331,Scott,Roberts,12:50,05:24,0:43:12.0
38,6,Shayne,Rushan,13:10,05:21,0:42:48.0
39,394,Rhianna,Wik-Gamble,13:10,05:21,0:42:48.0
40,130,David,Pitson,13:20,05:20,0:42:40.0
41,268,Kirrily,Hall,13:40,05:18,0:42:24.0
42,181,Rob,Redmond,13:40,05:17,0:42:16.0
43,91,Melissa,Wilkie,14:00,05:15,0:42:00.0
44,111,Troy,Davis,14:00,05:15,0:42:00.0
45,74,Maree,Platt,14:10,05:14,0:41:52.0
46,370,James,Deacon,14:10,05:14,0:41:52.0
47,54,Kevin,deVries,14:20,05:13,0:41:44.0
48,20,John,McCullagh,14:20,05:12,0:41:36.0
49,59,Tina,McBain,14:20,05:12,0:41:36.0
50,302,Peter,Noble,14:20,05:12,0:41:36.0
51,180,Lauren,Hancock,14:40,05:10,0:41:20.0
52,251,Beth,Lavery,14:40,05:10,0:41:20.0
53,183,Janet,Hodnet,14:50,05:09,0:41:12.0
54,309,Blaze,Houlden,15:00,05:07,0:40:56.0
55,4,Gary,Crouch,15:20,05:05,0:40:40.0
56,47,Genevieve,Green,15:50,05:01,0:40:08.0
57,35,Conor,Cunningham,16:00,05:00,0:40:00.0
58,45,Helen,Kavanagh,16:10,04:59,0:39:52.0
59,339,James,Toomey,16:20,04:57,0:39:36.0
60,162,Natalie,Jacobson,16:30,04:56,0:39:28.0
61,22,Ross,Douglas,16:40,04:55,0:39:20.0
62,321,Brett,Houlden,16:40,04:55,0:39:20.0
63,161,Amelia,Evans,16:50,04:54,0:39:12.0
64,359,Anne,McIntosh,16:50,04:54,0:39:12.0
65,12,Josie,Aitken,17:00,04:52,0:38:56.0
66,330,Kate,Hadkins,17:00,04:52,0:38:56.0
67,5,Jenny,Buchanan,17:20,04:50,0:38:40.0
68,296,Ashlee,Diston,17:20,04:50,0:38:40.0
69,307,Philip,Shambrook,17:20,04:50,0:38:40.0
70,13,Gavin,Fiedler,17:40,04:48,0:38:24.0
71,39,Melissa,Douglas,17:40,04:47,0:38:16.0
72,107,Hayden,Brook,17:40,04:47,0:38:16.0
73,90,Rory,Weightman,18:00,04:45,0:38:00.0
74,241,Andrea,Smith,18:00,04:45,0:38:00.0
75,29,Alison,Cartner,18:10,04:44,0:37:52.0
76,236,Harry,Seaward,18:10,04:44,0:37:52.0
77,165,Jake,Power,18:30,04:41,0:37:28.0
78,116,Roy,Preece,18:40,04:40,0:37:20.0
79,315,Paul,Lomax,18:40,04:40,0:37:20.0
80,3,Alan,Buchanan,19:00,04:38,0:37:04.0
81,18,Georgie,Lanyon,19:00,04:38,0:37:04.0
82,386,Danny,Burgess,19:00,04:38,0:37:04.0
83,14,Lisa,Wilkinson,19:00,04:37,0:36:56.0
84,38,Cameron,Turnbull,19:10,04:36,0:36:48.0
85,55,Justin,Lee,19:10,04:36,0:36:48.0
86,9,Trinity,Sanderson,19:20,04:35,0:36:40.0
87,117,Ingrid,Douglass,19:20,04:35,0:36:40.0
88,350,David,Cripps,19:20,04:35,0:36:40.0
89,93,Erica,Wilkinson,19:40,04:33,0:36:24.0
90,299,Jay,Sanderson,19:40,04:33,0:36:24.0
91,60,Greg,McBain,19:50,04:31,0:36:08.0
92,78,Mark,Saxon,19:50,04:31,0:36:08.0
93,65,Ben,McDermid,20:00,04:30,0:36:00.0
94,203,Tullie,Rowe,20:00,04:30,0:36:00.0
95,17,Karl,Lanyon,20:10,04:29,0:35:52.0
96,346,Paul,Vickery,20:10,04:29,0:35:52.0
97,26,Ryan,Brook,20:20,04:28,0:35:44.0
98,34,Matthew,Creer,20:20,04:28,0:35:44.0
99,231,Paul,Seaward,20:40,04:25,0:35:20.0
100,109,Tim,Lovell,20:50,04:24,0:35:12.0
101,351,Matt,Holmes,20:50,04:24,0:35:12.0
102,308,Chris,Giffin,21:00,04:23,0:35:04.0
103,384,Andrew,Wilkie,21:00,04:22,0:34:56.0
104,70,Els,Viester,21:10,04:21,0:34:48.0
105,31,Charles,Chambers,21:20,04:20,0:34:40.0
106,80,Bridie,Blake-Burrows,21:20,04:20,0:34:40.0
107,49,David,Heislers,21:30,04:19,0:34:32.0
108,96,Steve,Brereton,21:30,04:19,0:34:32.0
109,352,Amy,Holmes,21:30,04:19,0:34:32.0
110,94,David,Lonsdale,21:40,04:18,0:34:24.0
111,75,David,Sebastian,21:40,04:17,0:34:16.0
112,167,Jack,Meade,22:00,04:15,0:34:00.0
113,317,John,Flood,22:00,04:15,0:34:00.0
114,85,Joanne,Russell,22:20,04:12,0:33:36.0
115,163,Shai,O'Brien,22:20,04:12,0:33:36.0
116,143,Maxine,Paholek,22:30,04:11,0:33:28.0
117,15,Rebecca,Wilkinson,22:40,04:10,0:33:20.0
118,137,Anton,Paholek,23:00,04:08,0:33:04.0
119,10,Lee,Bray,23:00,04:07,0:32:56.0
120,61,Chris,McCormack,23:00,04:07,0:32:56.0
121,118,Tim,Lauder,23:00,04:07,0:32:56.0
122,125,Sarah,Jalim,23:40,04:03,0:32:24.0
123,343,Todd,Cody,23:40,04:02,0:32:16.0
124,336,Brock,Prime,24:10,03:59,0:31:52.0
125,95,Jason,Sim,24:20,03:58,0:31:44.0
126,42,Craig,Feuerherdt,24:40,03:55,0:31:20.0
127,121,Russell,Jenkins,25:10,03:51,0:30:48.0
128,88,Brian,Watson,25:30,03:49,0:30:32.0
129,8,Rik,McCaig,25:40,03:48,0:30:24.0
130,63,John,Robinson,25:40,03:48,0:30:24.0
131,84,Craig,Green,25:40,03:48,0:30:24.0
132,399,Darren,Hartland,25:40,03:47,0:30:16.0
133,62,Lee,McCullagh,26:00,03:45,0:30:00.0
134,247,Ross,McPhee,26:00,03:45,0:30:00.0
135,23,Michael,Bieleny,26:20,03:43,0:29:44.0
136,51,Andrew,Hosking,26:20,03:43,0:29:44.0
137,97,Adam,Fleming,27:00,03:38,0:29:04.0
138,285,Luke,Crameri,27:00,03:38,0:29:04.0
139,33,Andrew,Creer,27:00,03:37,0:28:56.0
140,166,David,Meade,27:20,03:35,0:28:40.0
141,115,Alexander,Evans,27:30,03:34,0:28:32.0
142,86,Fraser,Walsh,28:00,03:30,0:28:00.0
143,120,Tom,Barkmeyer,28:00,03:30,0:28:00.0
144,144,Nathan,Meade,28:30,03:26,0:27:28.0
145,46,Richard,Gleisner,28:40,03:25,0:27:20.0
146,48,Matthew,Heislers,28:40,03:25,0:27:20.0
147,27,Andrew,Buchanan,30:30,03:11,0:25:28.0
