Place,Member,First,Last,Start,Pace,Est Time
1,2,Alan,East,01:00,06:53,0:56:26.6
2,3715,Chloe,Green,03:20,06:35,0:53:59.0
3,145,Joshua,Condon,04:50,06:25,0:52:37.0
4,66,Megan,McDonald,05:00,06:23,0:52:20.6
5,3776,Kathleen,Pleasants,06:00,06:16,0:51:23.2
6,397,Taylor,Lovell,07:10,06:08,0:50:17.6
7,37,John,Doering,07:20,06:06,0:50:01.2
8,159,Renelle,McManus,07:30,06:05,0:49:53.0
9,35,Conor,Cunningham,08:40,05:56,0:48:39.2
10,77,Brad,Russell,08:50,05:55,0:48:31.0
11,57,Adam,Henderson,08:50,05:55,0:48:31.0
12,43,Josephine,Robinson,09:20,05:52,0:48:06.4
13,149,Janelle,Giffin,09:30,05:50,0:47:50.0
14,197,Sue,Taylor,09:40,05:49,0:47:41.8
15,233,Sue,Condon,09:50,05:48,0:47:33.6
16,68,Justin,O'Brien,10:10,05:46,0:47:17.2
17,3732,Emma,Gibbons,10:20,05:44,0:47:00.8
18,6,Shayne,Rushan,10:30,05:43,0:46:52.6
19,392,Mark,Logan,10:40,05:42,0:46:44.4
20,3777,Alistair,Stewart,10:50,05:41,0:46:36.2
21,186,Jason,Anderton,11:00,05:40,0:46:28.0
22,111,Troy,Davis,11:00,05:40,0:46:28.0
23,87,Frances,Walsh,11:20,05:37,0:46:03.4
24,40,Aida,Escall,12:20,05:30,0:45:06.0
25,251,Beth,Lavery,12:20,05:30,0:45:06.0
26,299,Jay,Sanderson,12:30,05:29,0:44:57.8
27,16,Jennifer,Lee,12:30,05:28,0:44:49.6
28,400,Darren,Rowe,12:40,05:27,0:44:41.4
29,81,Laura,Terry,12:40,05:27,0:44:41.4
30,91,Melissa,Wilkie,12:40,05:27,0:44:41.4
31,210,Fiona,Dangerfield,12:50,05:26,0:44:33.2
32,321,Brett,Houlden,13:00,05:25,0:44:25.0
33,398,Angus,McPherson,13:00,05:25,0:44:25.0
34,331,Scott,Roberts,13:10,05:24,0:44:16.8
35,339,James,Toomey,13:50,05:19,0:43:35.8
36,52,Leah,Cripps,14:00,05:17,0:43:19.4
37,74,Maree,Platt,14:20,05:15,0:43:03.0
38,370,James,Deacon,14:30,05:14,0:42:54.8
39,180,Lauren,Hancock,14:50,05:12,0:42:38.4
40,315,Paul,Lomax,15:00,05:10,0:42:22.0
41,3726,Clare,Montgomery,15:20,05:08,0:42:05.6
42,22,Ross,Douglas,15:20,05:08,0:42:05.6
43,3747,Jeremy,Draper,15:20,05:08,0:42:05.6
44,364,David,Howes,15:30,05:07,0:41:57.4
45,54,Kevin,deVries,15:30,05:06,0:41:49.2
46,13,Gavin,Fiedler,15:40,05:05,0:41:41.0
47,34,Matthew,Creer,16:50,04:57,0:40:35.4
48,363,Philippa,Morris,17:00,04:56,0:40:27.2
49,29,Alison,Cartner,17:00,04:56,0:40:27.2
50,5,Jenny,Buchanan,17:10,04:54,0:40:10.8
51,359,Anne,McIntosh,17:10,04:54,0:40:10.8
52,59,Tina,McBain,17:20,04:53,0:40:02.6
53,369,Stephen,Wainwright,17:30,04:52,0:39:54.4
54,333,Jon,McIntosh,17:40,04:51,0:39:46.2
55,330,Kate,Hadkins,17:50,04:50,0:39:38.0
56,384,Andrew,Wilkie,17:50,04:49,0:39:29.8
57,3735,Travis,Edwards,18:00,04:48,0:39:21.6
58,241,Andrea,Smith,18:10,04:47,0:39:13.4
59,9,Trinity,Sanderson,18:20,04:46,0:39:05.2
60,307,Philip,Shambrook,18:20,04:46,0:39:05.2
61,90,Rory,Weightman,18:30,04:45,0:38:57.0
62,3702,Vicki,Bayliss,18:30,04:45,0:38:57.0
63,18,Georgie,Lanyon,18:30,04:45,0:38:57.0
64,55,Justin,Lee,18:30,04:45,0:38:57.0
65,296,Ashlee,Diston,18:40,04:43,0:38:40.6
66,394,Rhianna,Wik-Gamble,18:50,04:42,0:38:32.4
67,60,Greg,McBain,19:20,04:39,0:38:07.8
68,3,Alan,Buchanan,19:20,04:39,0:38:07.8
69,14,Lisa,Wilkinson,19:30,04:37,0:37:51.4
70,31,Charles,Chambers,19:50,04:35,0:37:35.0
71,117,Ingrid,Douglass,19:50,04:35,0:37:35.0
72,3744,Finn,MacGregor,20:20,04:31,0:37:02.2
73,39,Melissa,Douglas,20:30,04:30,0:36:54.0
74,399,Darren,Hartland,20:30,04:30,0:36:54.0
75,350,David,Cripps,20:30,04:30,0:36:54.0
76,396,Simon,Hunt,20:30,04:30,0:36:54.0
77,203,Tullie,Rowe,20:30,04:30,0:36:54.0
78,346,Paul,Vickery,20:40,04:29,0:36:45.8
79,49,David,Heislers,20:50,04:28,0:36:37.6
80,231,Paul,Seaward,21:10,04:25,0:36:13.0
81,15,Rebecca,Wilkinson,21:10,04:25,0:36:13.0
82,70,Els,Viester,21:10,04:25,0:36:13.0
83,109,Tim,Lovell,21:10,04:25,0:36:13.0
84,17,Karl,Lanyon,21:40,04:21,0:35:40.2
85,386,Danny,Burgess,21:40,04:21,0:35:40.2
86,94,David,Lonsdale,21:50,04:20,0:35:32.0
87,352,Amy,Holmes,22:00,04:19,0:35:23.8
88,3730,Greg,Carter,22:10,04:18,0:35:15.6
89,3734,Lukas,Jara,22:20,04:16,0:34:59.2
90,167,Jack,Meade,22:30,04:15,0:34:51.0
91,317,John,Flood,22:30,04:15,0:34:51.0
92,10,Lee,Bray,23:00,04:12,0:34:26.4
93,308,Chris,Giffin,23:20,04:09,0:34:01.8
94,61,Chris,McCormack,23:50,04:05,0:33:29.0
95,351,Matt,Holmes,23:50,04:05,0:33:29.0
96,118,Tim,Lauder,24:10,04:03,0:33:12.6
97,3746,Peter,King,24:40,04:00,0:32:48.0
98,125,Sarah,Jalim,24:40,03:59,0:32:39.8
99,336,Brock,Prime,24:40,03:59,0:32:39.8
100,65,Ben,McDermid,25:10,03:56,0:32:15.2
101,3739,Stephen,Van Rees,25:10,03:56,0:32:15.2
102,84,Craig,Green,25:30,03:53,0:31:50.6
103,88,Brian,Watson,25:40,03:52,0:31:42.4
104,8,Rik,McCaig,26:00,03:50,0:31:26.0
105,42,Craig,Feuerherdt,26:00,03:50,0:31:26.0
106,33,Andrew,Creer,26:00,03:50,0:31:26.0
107,62,Lee,McCullagh,26:10,03:48,0:31:09.6
108,23,Michael,Bieleny,26:30,03:46,0:30:53.2
109,63,John,Robinson,26:40,03:45,0:30:45.0
110,166,David,Meade,28:00,03:35,0:29:23.0
111,3701,Nigel,Preston,28:30,03:31,0:28:50.2
112,48,Matthew,Heislers,28:40,03:30,0:28:42.0
113,86,Fraser,Walsh,30:10,03:19,0:27:11.8
114,27,Andrew,Buchanan,31:20,03:11,0:26:06.2
