place,first,last,club,net Time,pace
1,Trevor,Kelly,EGWK,0:25:35.3,3:39.3
2,Victor,Cook,HAR,0:28:33.3,4:04.8
3,Rick,Ermel,OTHER,0:29:00.6,4:08.7
4,Jim,Nielsen,HAR,0:30:14.2,4:19.2
5,Eric,Baker,HAR,0:32:30.1,4:38.6
6,Brad,Russell,BUAC,0:37:19.4,5:19.9