place,first,last,club,net Time,pace
1,Leeza,Meharry,UNI,1:51:58,5:20
2,Yvette,Tuohey,HAR,1:57:56,5:37
3,Maree,Platt,UNI,2:01:57,5:48
4,Melinda,Gilligan,UNI,2:10:28,6:13
5,Elizabeth,Griffin,INV,2:15:38,6:28
6,Megan,McDonald,UNI,2:18:05,6:35