place,first,last,net Time,diff
1,Will,Smith,06:37,- 0:11
2,Kaidyn,Tucker,05:07,- 0:07
3,Amber,Anderson,06:46,+ 0:11
4,Abbey,Cartner,05:19,+ 0:17
5,Luke,Feuerherdt,05:30,+ 0:18
6,Lachlan,Feuerherdt,05:06,+ 0:27
7,Floyd,Cartner,04:27,+ 0:25
8,Nick,Meharry,05:38,+ 0:23
9,Rossi,Stevens,05:44,+ 0:34
10,Max,Rowe,05:19,+ 0:39
11,Avery,McDermid,06:50,+ 0:40
12,Mitchell,Bray,08:55,+ 1:10
13,Jack,Meharry,07:16,+ 2:24
14,Tara,Anderson,08:08,+ 2:38
15,Flynn,Madren,09:27,+ 4:12