place,first,last,net Time,diff
1,Tom,Coleman,5.45, 
2,Ava,Perez,4.38, 
3,Noah,Walsh,4.51, 
4,Lachlan,Walsh,4.54, 
5,Callum,Maloney,4.24, 
6,Nick,Maloney,4.31, 
7,Kyle,Gellatly,4.12, 
8,Matisse,Perez,4.45, 
9,Bree,Heiden,4.49, 
10,Zac,Walsh,5.3, 
11,Dane,Heiden,4.44, 
12,Bronte,Walsh,5.11, 
13,Riley,Walsh,4.24, 
14,Will,Hogan,5.05, 
15,Teddrah,Thorpe,5.26, 
16,Neve,Coleman,7, 
17,Harry,Jackel,5.32, 
18,Abbey,McCarthy,5.36, 
19,Bonnie,Taylor,6.15, 
20,Meg,McCarthy,6.51, 
21,Bailey,Dunn,7.03, 
22,Hayley,Forster,7.51, 