PLACE,NAME,PACE,TIME,GUESS,DIFF
1,Andrea Smith,05:44,0:23:31.4,0:23:26.3,-00:05.1
2,Elijah Willits,05:29,0:22:29.1,0:22:45.3,+00:16.2
3,Harry Scott,05:36,0:22:57.3,0:23:14.0,+00:16.7
4,Harry Cripps,06:37,0:27:06.3,0:26:39.0,-00:27.3
5,Gavin Fiedler,06:07,0:25:05.7,0:24:36.0,-00:29.7
6,Hunter Gill,05:58,0:24:26.6,0:24:56.5,+00:29.9
7,Alison Cartner,05:59,0:24:31.4,0:23:55.0,-00:36.4
8,Mason Woodward,04:24,0:18:01.9,0:17:25.5,-00:36.4
9,Xavier Marwood,05:31,0:22:37.2,0:21:52.0,-00:45.2
10,Dean Trew,05:52,0:24:02.4,0:23:14.0,-00:48.4
11,Tim Creer,04:20,0:17:46.4,0:16:56.8,-00:49.6
12,Joshua Feuerherdt,05:33,0:22:45.0,0:21:52.0,-00:53.0
13,Lachlan Feuerherdt,05:19,0:21:46.9,0:20:50.5,-00:56.4
14,Luke Feuerherdt,04:49,0:19:44.6,0:18:47.5,-00:57.1
15,Michael Farr,04:46,0:19:31.5,0:20:30.0,+00:58.5
16,Jennifer Lee,06:14,0:25:34.9,0:24:36.0,-00:58.9
17,Tullie Rowe,05:25,0:22:11.8,0:21:11.0,-01:00.8
18,Floyd Cartner,04:46,0:19:33.2,0:18:27.0,-01:06.2
19,Max Rowe,04:48,0:19:42.3,0:18:27.0,-01:15.3
20,Phoebe Lonsdale,05:29,0:22:29.8,0:21:11.0,-01:18.8
21,Tanner Fear,04:40,0:19:06.2,0:17:46.0,-01:20.2
22,Michelle Scott,06:36,0:27:03.1,0:25:29.3,-01:33.8
23,Kane Safstrom,04:42,0:19:14.2,0:17:25.5,-01:48.7
24,William Trew,04:57,0:20:18.5,0:18:27.0,-01:51.5
25,Aida Escall,07:58,0:32:38.2,0:30:45.0,-01:53.2
26,Sarah Trew,06:16,0:25:42.6,0:23:46.8,-01:55.8
27,Tammy Fear,06:24,0:26:13.6,0:24:15.5,-01:58.1
28,Eiliyah Daneen,07:00,0:28:41.9,0:26:39.0,-02:02.9
29,Josephine Robinson,06:32,0:26:46.8,0:24:36.0,-02:10.8
30,Ben McDermid,05:32,0:22:41.2,0:20:30.0,-02:11.2
31,Abbey Cartner,05:23,0:22:03.1,0:19:49.0,-02:14.1
32,Jazlin Fear,05:33,0:22:45.6,0:20:30.0,-02:15.6
33,Rebecca Kirkby,04:43,0:19:20.7,0:17:05.0,-02:15.7
34,Ally Collett,06:15,0:25:37.0,0:23:14.0,-02:23.0
35,Ebony Woodward,05:21,0:21:57.7,0:19:28.5,-02:29.2
36,Ross Douglas,08:09,0:33:25.4,0:30:45.0,-02:40.4
37,Leah Cripps,07:51,0:32:12.4,0:28:42.0,-03:30.4
38,Tully Cripps,07:54,0:32:23.4,0:28:42.0,-03:41.4
39,Kathleen Pleasants,08:01,0:32:54.1,0:29:02.5,-03:51.6
40,Janis Bull,06:02,0:24:46.0,0:28:42.0,+03:56.0
41,Jonty McDermid,05:44,0:23:29.1,0:19:28.5,-04:00.6
42,Mumtaz Hussain,07:00,0:28:41.9,0:24:36.0,-04:05.9
43,Sebastian Stewart,08:01,0:32:51.3,0:28:21.5,-04:29.8
44,Bec Woodward,07:16,0:29:47.5,0:23:55.0,-05:52.5
