place,first,last,club,net Time
1,Pat,Kenny,BUAC,1:20:50
2,Matthew,Hooke,BGO YMCA,1:27:21
3,Ross,Evans,BGO YMCA,1:30:55
4,Ben,McDermid,BUAC,1:36:03
5,Jarrad,Epps,BUAC,1:38:01
6,Stephen,Brereton,BUAC,1:39:18
7,David,Tarrant,BUAC,1:43:14