place,first,last,net Time,diff
1,Avery,McDermid,4:48,-0:29
2,Lily,Sanderson,4:27,-0:23
3,Sean,Hughan,7:37,-0:22
4,Toby,McCaig,3:37,-0:28
5,Sachin,Cody,7:30,-0:23
6,Jeremy,Carlson,4:31,-0:22
7,Martin,Steen,4:02,-0:14
8,Sam,Stewart,4:19,-0:11
9,Lewis,Lonsdale,4:12,-0:09
10,Abbey,Cartner,4:25,-0:05
11,Luke,Feuerherdt,4:25,-0:07
12,Paige,a'Beckett,5:18,-0:07
13,Isabella,Makris,5:38,-0:00
14,Oliver,Sanderson,4:00,-0:04
15,William,Robinson,4:23,0:01
16,Halle,Blake-Burrows,5:04,0:07
17,Lachlan,Feuerherdt,4:14,0:04
18,Lucy,McCaig,5:01,0:13
19,Jana,Steen,7:14,1:03
20,Joshua,Feuerherdt,6:07,1:04