place,first,last,net Time,diff
1,Philip,Shambrook,38:58:00,-3:10
2,John,Flood,32:44:00,-2:52
3,Jay,Sanderson,36:56:00,-2:48
4,Andrew,Hosking,29:43:00,-1:53
5,Maree,Platt,41:32:00,-1:48
6,Paul,Seaward,34:55:00,-1:45
7,Shayne,Rushan,40:16:00,-1:44
8,David,Lonsdale,34:01:00,-0:47
9,Brian,Watson,30:32:00,-0:48
10,Joanne,Russell,32:54:00,-0:42
11,John,Robinson,32:10:00,-0:30
12,David,Heislers,33:57:00,-0:27
13,Ingrid,Douglass,35:40:00,-0:20
14,Rebecca,Wilkinson,34:10:00,-0:22
15,Sue,Taylor,45:41:00,-0:19
16,Greg,McBain,34:42:00,-0:22
17,Craig,Feuerherdt,31:19:00,-0:09
18,Alison,Cartner,37:36:00,-0:00
19,Rik,McCaig,29:57:00,-0:03
20,Nathan,Meade,27:34:00,0:06
21,Trinity,Sanderson,38:55:00,0:55
22,Andrew,Buchanan,27:05:00,1:45
23,Andrew,Creer,33:48:00,3:32
New,Grace,Bannon,41:29:00,