place,first,last,start,pace,est Time
1,Lilly,Cahill,00:10,6:59,55:52
2,Julie,Hogan,02:20,6:43,53:44
3,Jessey,Wilson,04:20,6:27,51:36
4,Catherine,Hunter,05:10,6:21,50:48
5,Alan,East,06:00,6:15,50:00
6,Verity,Perez,07:40,6:2,48:16
7,Melissa,Douglas,07:50,6:1,48:08
8,John,Doering,08:00,6:0,48:00
9,Natalie,Watson,08:20,5:58,47:44
10,Loretta,Hanns,08:30,5:56,47:28
11,Sam,MacLeod,08:30,5:56,47:28
12,Drew,Cahill,08:40,5:55,47:20
13,Ella,Wright,08:40,5:55,47:20
14,John,Taylor,09:00,5:52,46:56
15,Shann,Anderson,10:20,5:42,45:36
16,Carl,Bailey,10:50,5:39,45:12
17,Mikhaela,Wilson,11:40,5:32,44:16
18,Angus,McCormack,11:50,5:31,44:08
19,Andrew,Boshcetti,12:00,5:30,44:00
20,Greg,Christy,12:00,5:30,44:00
21,Wayne,Forbes,12:20,5:28,43:44
22,Danny,Padgham,12:50,5:24,43:12
23,Gabby,Walsh,13:00,5:22,42:56
24,Jodie,Scoble,13:10,5:21,42:48
25,Ian,Beckerleg,13:20,5:20,42:40
26,Angela,Slattery,13:20,5:20,42:40
27,Lilly,Walsh,13:30,5:19,42:32
28,Sheridan,Hail,13:30,5:19,42:32
29,Harry,Terry,14:00,5:15,42:00
30,Peter,Noble,14:00,5:15,42:00
31,Helen,WeeHee,14:00,5:15,42:00
32,Jackie,Tremayne,14:30,5:11,41:28
33,Rachel,Howe,14:40,5:10,41:20
34,Phil,Lloyd,15:00,5:8,41:04
35,Brad,Russell,15:00,5:7,40:56
36,Brian,Brasher,15:00,5:8,41:04
37,Janet,Hodnett,15:20,5:5,40:40
38,Alison,McCullagh,15:20,5:5,40:40
39,Tyson,Hawke,15:20,5:5,40:40
40,Len,Nally,15:30,5:4,40:32
41,Jodie,Giles,15:40,5:2,40:16
42,Lucy,Ruck,15:40,5:2,40:16
43,Tony,Gellatly,15:50,5:1,40:08
44,Chris,Hamond,16:00,5:0,40:00
45,Jennifer,Jones,16:00,5:0,40:00
46,Roy,Preece,16:00,5:0,40:00
47,Kevin,Perez,16:00,5:0,40:00
48,Harriette,Slater,16:00,5:0,40:00
49,Damien,Bilsborrow,16:10,4:59,39:52
50,David,Perris,16:10,4:59,39:52
51,Shayne,Rushan,16:10,4:59,39:52
52,Chris,Tremayne,16:20,4:57,39:36
53,Frances,Walsh,16:20,4:57,39:36
54,Sam,Brewin,16:50,4:54,39:12
55,Navec,Lorkin,16:50,4:54,39:12
56,Trevor,Hanns,17:00,4:53,39:04
57,Tina,McBain,17:10,4:51,38:48
58,John,Brewin,17:20,4:50,38:40
59,Tom,Houlden,17:20,4:50,38:40
60,Matt,Constable,17:20,4:50,38:40
61,Craig,Hunter,17:30,4:49,38:32
62,Scott,Padgham,17:30,4:49,38:32
63,Alison,Cartner,17:40,4:48,38:24
64,Liz,Foster,17:40,4:48,38:24
65,Brett,Houlden,17:50,4:46,38:08
66,Emma,Moylan,17:50,4:46,38:08
67,Scott,Roberts,17:50,4:46,38:08
68,Hayden,Brooke,17:50,4:46,38:08
69,Genevieve,Green,18:10,4:44,37:52
70,Laura,Terry,18:10,4:44,37:52
71,Patrick,Hartney,18:20,4:43,37:44
72,Nick,Walsh,18:30,4:41,37:28
73,Owen,Davies,18:40,4:40,37:20
74,Russell,Jenkins,18:50,4:39,37:12
75,Leeza,Meharry,18:50,4:39,37:12
76,Ned,Slater,18:50,4:39,37:12
77,Peter,Sykes,18:50,4:39,37:12
78,Gary,Crouch,19:00,4:38,37:04
79,Maria,Slater,19:00,4:38,37:04
80,Lisa,Wilkinson,19:00,4:38,37:04
81,Gervase,Birt,19:10,4:36,36:48
82,Joe,Hartney,19:10,4:36,36:48
83,Ian,Frost,19:20,4:35,36:40
84,Mark,Saxon,19:20,4:35,36:40
85,David,Heislers,19:30,4:34,36:32
86,Justin,Lee,19:30,4:34,36:32
87,Jaclyn,Munge,19:40,4:33,36:24
88,Steve,Durkin,19:50,4:31,36:08
89,Paul,McMahon,19:50,4:31,36:08
90,Thomas,Mosley,19:50,4:31,36:08
91,Andrew,Creer,20:00,4:30,36:00
92,Ingrid,Douglass,20:00,4:30,36:00
93,Steve,Corrie,20:20,4:28,35:44
94,Todd,Foster,20:20,4:27,35:36
95,Jenny,Buchanan,20:30,4:26,35:28
96,Greg,McBain,20:40,4:25,35:20
97,Ryan,Brooke,20:40,4:25,35:20
98,Tony,DiPace,20:50,4:24,35:12
99,Alan,Buchanan,21:00,4:22,34:56
100,Xavier,Walsh,21:00,4:23,35:04
101,Cameron,Turnbull,21:00,4:23,35:04
102,Josh,Evely,21:10,4:21,34:48
103,Aaron,Semmens,21:20,4:20,34:40
104,Leon,Hamond,21:30,4:19,34:32
105,Steve,McDougal,21:40,4:18,34:24
106,Aaron,Anderson,21:50,4:16,34:08
107,Gavin,Fiedler,21:50,4:16,34:08
108,Michael,Hogan,21:50,4:16,34:08
109,David,Ottrey,21:50,4:16,34:08
110,Madeleine,Evely,22:00,4:15,34:00
111,Steve,Brereton,22:10,4:14,33:52
112,Tracy,Wilson,22:10,4:14,33:52
113,John,Rose,22:10,4:14,33:52
114,Andrew,Mason,22:10,4:14,33:52
115,Jeff,Pethybridge,22:10,4:14,33:52
116,Jo-Anne,Keely,22:20,4:12,33:36
117,Erica,Wilkinson,22:20,4:12,33:36
118,Daniel,Vains,22:30,4:11,33:28
119,Matthew,Heislers,22:30,4:11,33:28
120,Chris,McCormack,22:40,4:10,33:20
121,John,McCullagh,22:40,4:10,33:20
122,Craig,Fruerherdt,22:40,4:10,33:20
123,Ben,McDermid,23:00,4:7,32:56
124,Josh,Hunter,23:00,4:8,33:04
125,Brendan,Munge,23:30,4:4,32:32
126,Mike,Neilson,23:30,4:4,32:32
127,Rebecca,Tweed,23:30,4:4,32:32
128,David,Tarrant,24:00,4:0,32:00
129,Russell,Tremayne,24:00,4:0,32:00
130,Jarrod,Epps,24:10,3:59,31:52
131,Rick,Jackal,24:10,3:59,31:52
132,Jim,Russell,24:20,3:58,31:44
133,Mac,Biner,24:20,3:58,31:44
134,Luke,Gregory,24:30,3:56,31:28
135,Brian,Watson,24:30,3:56,31:28
136,Jamie,Cook,24:40,3:55,31:20
137,Fraser,Walsh,25:00,3:53,31:04
138,Simon,Austin,25:20,3:50,30:40
139,Jason,Fletcher,25:20,3:50,30:40
140,Patrick,Kenny,25:50,3:46,30:08
141,Chris,Naunton,26:00,3:45,30:00
142,Jason,Sim,26:20,3:42,29:36
143,Lee,McCullagh,26:40,3:40,29:20
144,Michael,Bieleny,27:10,3:36,28:48
145,Andrew,Buchanan,28:40,3:25,27:20
146,Bryan,Keely,28:40,3:25,27:20
147,Richard,Gleisner,29:50,3:16,26:08