PLACE,FIRST,LAST,RACES,POINTS
1,Craig,Feuerherdt,9,129
2,Andrew,Creer,11,117
3,Chris,Giffin,13,113
4,Rebecca,Wilkinson,10,112
5,David,Lonsdale,11,105
6,Ben,McDermid,15,103
7,Greg,Carter,9,97
8,Nicholas,Cherry,8,94
9,Matthew,Schepisi,5,91
10,Tim,Lauder,5,82
11,David,Cripps,11,82
12,Nigel,Preston,4,79
13,Tarli,Bird,4,78
14,John,Robinson,7,75
15,Danny,Burgess,9,67
16,Michael,Gibbons,4,66
17,Justin,Lee,13,64
18,Damien,Roberts,13,62
19,Mumtaz,Hussain,11,61
20,David,Heislers,6,58
21,Wil,McCaig,3,55
22,Lee,McCullagh,3,54
23,Garry,Marwood,3,51
24,Craig,Green,7,43
25,Ross,Douglas,13,39
26,Stephen,van Rees,2,36
27,Alison,Cartner,8,34
28,Jack,Milligan,3,33
29,Sarah,Jalim,2,33
30,Rik,McCaig,2,32
31,Lisa,Wilkinson,8,32
32,Todd,Foster,7,31
33,Darren,Rowe,10,30
34,Clare,Montgomery,6,21
35,Kye,Jenkyn,1,20
36,Andrew,Buchanan,1,20
37,Ben,Stolz,1,18
38,Matthew,Heislers,1,18
39,Alan,Buchanan,4,17
40,Andrew,Van Agtmaal,1,17
41,Brian,Watson,1,16
42,James,Russell,3,15
43,Travis,Edwards,6,15
44,Greg,McBain,3,14
45,Andrew,Wilkie,2,13
46,Charles,Chambers,2,12
47,Gavin,Fiedler,5,11
48,Rhianna,Wik-Gamble,2,11
49,Liz,Foster,6,10
50,Maree,Platt,11,10
51,Janet,Hodnett,4,9
52,Jeremy,Draper,4,8
53,Wes,Jenkyn,1,7
54,Harry,Wright,1,7
55,Jenny,Buchanan,3,7
56,Janelle,Giffin,6,5
57,Kevin,de Vries,4,5
58,Tanner,Fear,1,4
59,Shayne,Rushan,9,4
60,Mathew,Creer,1,4
61,David,Burrow,1,4
62,Fiona,Dangerfield,6,2
63,Leah,Cripps,8,2
64,Justine,Rowe,6,2
65,Julie,Marr,1,1
66,Alan,East,9,1
67,Vicki,Lane,4,1
68,Frances,Walsh,1,1
69,Troy,Davis,6,0
70,Hamish,Draper,1,0
71,Tina,McBain,2,0
72,Melissa,Douglas,1,0
73,Bec,Lacy,2,0
74,Tyler,Wilkie,1,0
75,Beth,Lavery,5,0
76,Megan,McDonald,2,0
77,Leeza,Meharry,1,0
78,Mel,Debham,1,0
79,Beatrice,Lonsdale,1,0
80,Michaela,Meharry,1,0
81,Alistair,Stewart,2,0
82,Josephine,Robinson,3,0
83,Ann-Marie,Wangdi,1,0
84,Philip,Shambrook,3,0
85,Emma,Gibbons,2,0
86,Jay,Sanderson,1,0
87,Kathleen,Pleasants,4,0
88,Kim,Carter,1,0
89,Genevieve,Draper,1,0
90,Tyler,Swann,1,0
91,Charlotte,Murphy,1,0
92,Lachlan,Cherry,2,0
93,Phoebe,Lonsdale,1,0
94,Melissa,Wilkie,5,0
95,Amelia,Mitchell,1,0
96,Thomas,Lee,2,0
97,Brad,Russell,2,0
98,David,Howes,3,0
99,Trinity,Sanderson,4,0
100,Sue,Taylor,8,0
101,Jennifer,Lee,2,0
