place,first,last,net Time,diff
1,Jaci,Low,16:14,- 2:18
2,Julian,Perez,16:09,- 1:40
3,Lilly,Cahill,16:25,- 0:44
4,Jack,Cripps,13:27,- 0:43
5,Ben,Connor,10:29,- 0:45
6,Bailey,Evans,11:54,- 0:15
7,Tanya,Higgs,14:16,- 0:15
8,Sophie,Rohde,17:37,- 0:03
9,Matthew,Heislers,12:05,- 0:01
10,Gervase,Birt,12:51,+ 0:08
11,Ellie,Wilson,15:03,+ 0:07
12,Nick,Moloney,10:55,+ 0:12
13,Laura,Terry,16:10,+ 0:15
14,Matisse,Perez,16:32,+ 0:19
15,Isabella,Douglass,18:47,+ 1:16
16,Stephanie,Roberts,15:29,+ 1:16
17,Bronte,Walsh,16:47,+ 1:20
18,Morgan,Dunn,18:56,+ 1:38