PLACE,FIRST,LAST,TIME,PACE,CLUB
1,Logan,Tickell,0:11:49.3,03:56.4,SOUTH BENDIGO
2,Oscar,Fox,0:12:33.6,04:11.2,SOUTH BENDIGO
3,Jaron,Ekanayake,0:15:35.1,05:11.7,UNI
4,Avery,McDermid,0:15:58.5,05:19.5,UNI
5,Will,deVries,0:17:01.0,05:40.3,UNI
6,Luke,Feuerherdt,0:17:06.4,05:42.1,UNI
7,Mason,Woodward,0:17:48.8,05:56.3,UNI
8,Jonty,McDermid,0:18:13.1,06:04.4,UNI
9,Hamish,Draper,0:23:18.4,07:46.1,UNI
