Place,First,Last,NET Time,Pace,Diff
1,Will,deVries,0:22:18.0,05:43,-01:06.0
2,Leah,Cripps,0:25:50.3,06:38,-00:48.7
3,Tanya,Fleming,0:23:45.6,06:06,-00:21.3
4,Tanner,Fear,0:17:58.8,04:37,+00:25.8
5,Gus,Edwards,0:22:16.7,05:43,+00:34.1
6,Philip,Shambrook,0:23:10.1,05:56,+00:36.8
7,Lachlan,Edwards,0:21:56.9,05:38,+00:37.7
8,Floyd,Cartner,0:17:05.5,04:23,+00:42.7
9,Max,Rowe,0:18:17.7,04:41,+00:44.7
10,Travis,Edwards,0:22:07.8,05:40,+00:44.7
11,Tullie,Rowe,0:16:21.1,04:12,+00:45.1
12,Jazlin,Fear,0:19:44.8,05:04,+00:46.0
13,Lachlan,Feuerherdt,0:18:50.0,04:50,+01:09.2
14,Beatrice,Lonsdale,0:19:45.0,05:04,+01:13.5
15,Renelle,McManus,0:24:50.8,06:22,+01:26.8
16,Connor,Bedson,0:18:38.3,04:47,+01:36.5
17,Phoebe,Lonsdale,0:20:34.7,05:17,+01:43.7
18,Bridie,Blake-Burrows,0:17:24.5,04:28,+01:48.5
19,Lesley,Fabian,0:26:14.2,06:44,+02:15.1
20,Lynley,McDonald,0:27:10.5,06:58,+02:48.0
21,Harry,Seaward,0:20:38.9,05:18,+04:04.4
22,Melissa,Douglas,0:21:34.5,05:32,+05:19.5
NEW,Beth,Lavery,0:21:00.9,05:23
NEW,Anne,McIntosh,0:20:41.7,05:18
NEW,Grant,Leader,0:18:51.6,04:50
NEW,Kim,Carter,0:30:58.3,07:56
