PLACE,FIRST,LAST,RACES,POINTS
1,Max,Rowe,6,137
2,Tullie,Rowe,7,124
3,Connor,Bedson,6,121
4,Philip,Shambrook,5,117
5,Floyd,Cartner,6,104
6,Charlotte,Murphy,4,101
7,Lachlan,Feuerherdt,6,95
8,Bridie,Blake-Burrows,6,85
9,Melissa,Douglas,5,85
10,Phoebe,Lonsdale,5,80
11,Beatrice,Lonsdale,7,77
12,Toby,McCaig,4,77
13,Tanner,Fear,4,76
14,Janine,Butcher,3,70
15,Bec,Lacy,4,68
16,Renelle,McManus,5,67
17,Luke,Creer,3,66
18,Leah,Cripps,3,64
19,Tyler,Wilkie,3,63
20,Ebony,Butcher,3,58
21,Jazlin,Fear,4,57
22,Abbey,Cartner,5,56
23,Mathilda,Stewart,3,56
24,John,Robinson,5,56
25,Phoebe,Martin,3,51
26,Chloe,Green,3,48
27,Wil,McCaig,2,47
28,Bec,Woodward,3,45
29,Tanya,Fleming,3,41
30,Lynley,McDonald,4,40
31,Trent,Bayliss,3,40
32,Will,deVries,2,40
33,Isabelle,Draper,2,40
34,Scott,Butcher,2,40
35,Tim,Creer,3,37
36,Travis,Edwards,3,36
37,Lesley,Fabian,3,35
38,Avery,McDermid,2,35
39,Genevieve,Draper,2,35
40,Megan,McDonald,2,31
41,William,Robinson,2,30
42,Greg,Toomey,2,28
43,Lou,Bray,1,26
44,Gus,Edwards,2,25
45,Ben,McDermid,2,25
46,Rebecca,Ashman,3,24
47,Louise,Toomey,2,24
48,Hamish,Draper,2,24
49,Lachlan,Edwards,2,23
50,Matthew,Saxon,2,19
51,Emerson,Sim,2,19
52,Oliver,Sanderson,2,18
53,Mark,Saxon,3,17
54,Aida,Escall,1,15
55,David,Cripps,2,14
56,Will,Murphy,1,11
57,Harry,Seaward,1,9
58,Danny,Burgess,2,7
59,Amelia,Mitchell,2,3
60,Kathleen,Pleasants,1,0
61,Craig,Feuerherdt,1,0
62,Jonty,McDermid,1,0
63,Craig,Green,1,0
64,Amy,Sim,1,0
65,Harry,Cripps,1,0
66,Alistair,Stewart,1,0
67,Trinity,Sanderson,1,0
68,Fiona,Dangerfield,1,0
69,Anna,Christen,1,0
70,Angus,McPherson,1,0
71,Matthew,Creer,1,0
72,Gus,MacGregor,1,0
73,Gabrielle,Dean,1,0
74,Gavin,Fiedler,1,0
75,Beth,Lavery,1,0
76,Justin,Lee,1,0
77,Kevin,deVries,1,0
78,Lewis,Lonsdale,1,0
79,Jason,Sim,1,0
80,Kyle,Butcher,1,0
81,Natasha,Dean,1,0
82,Kim,Carter,1,0
83,Anne,McIntosh,1,0
