Place,First,Last,NET Time,Pace,Diff
1,Jeremy,Draper,0:37:25.3,05:25,-00:52.4
2,Alan,Buchanan,0:33:40.0,04:53,+00:53.5
3,David,Howes,0:39:35.2,05:44,+01:03.7
4,Karl,Lanyon,0:31:36.8,04:35,+01:08.3
5,Simon,Hunt,0:32:02.6,04:39,+01:13.4
6,Ben,McDermid,0:29:07.8,04:13,+01:24.9
7,Ashlee,Diston,0:35:35.5,05:09,+01:26.2
8,Craig,Green,0:28:36.2,04:09,+01:34.7
9,Chris,Giffin,0:31:44.0,04:36,+01:36.2
10,Rik,McCaig,0:28:05.2,04:04,+01:38.2
11,Philip,Shambrook,0:34:56.2,05:04,+01:49.0
12,Josephine,Robinson,0:42:23.1,06:09,+01:54.3
13,Danny,Burgess,0:31:48.3,04:37,+02:01.2
14,Paul,Lomax,0:37:38.1,05:27,+02:06.0
15,Jon,McIntosh,0:38:27.3,05:34,+02:13.8
16,David,Cripps,0:33:21.7,04:50,+02:18.7
17,Jenny,Buchanan,0:35:44.6,05:11,+02:23.6
18,Clare,Montgomery,0:37:43.1,05:28,+02:24.8
19,Darren,Rowe,0:40:52.0,05:55,+02:48.1
20,Greg,Carter,0:32:52.8,04:46,+02:58.8
21,Megan,McDonald,0:47:10.5,06:50,+03:07.8
22,Alison,Cartner,0:37:16.0,05:24,+03:20.5
23,David,Heislers,0:33:50.3,04:54,+03:21.8
24,Charles,Chambers,0:34:27.6,05:00,+03:24.6
25,Andrea,Smith,0:36:56.6,05:21,+04:10.1
26,Kevin,deVries,0:39:22.5,05:42,+04:24.9
27,Justin,Lee,0:36:49.2,05:20,+04:37.2
28,Maree,Platt,0:40:46.9,05:55,+04:47.2
29,Leah,Cripps,0:41:53.3,06:04,+05:19.1
30,Janelle,Giffin,0:45:58.0,06:40,+06:17.5
31,Gavin,Fiedler,0:40:38.2,05:53,+06:42.7
