PLACE,FIRST,LAST,RACES,POINTS
1,Ben,McDermid,6,90
2,Sarah,Jalim,5,80
3,Michael,Bieleny,4,78
4,Chris,Giffin,6,75
5,Rik,McCaig,4,73
6,Craig,Green,4,73
7,Tim,Lauder,4,59
8,Simon,Hunt,5,51
9,David,Lonsdale,5,49
10,Greg,Carter,4,47
11,Fraser,Walsh,2,40
12,Nigel,Preston,2,39
13,Karl,Lanyon,3,37
14,Andrew,Creer,2,34
15,David,Cripps,4,33
16,Danny,Burgess,3,33
17,Alan,Buchanan,5,32
18,David,Heislers,4,31
19,Rebecca,Wilkinson,2,24
20,Charles,Chambers,3,22
21,Justin,Lee,5,22
22,Darren,Hartland,2,20
23,Tim,Lovell,3,19
24,Craig,Feuerherdt,1,19
25,Stephen,Van Rees,1,18
26,Brian,Watson,1,17
27,Peter,King,1,16
28,Lukas,Jara,1,13
29,Philip,Shambrook,4,12
30,Travis,Edwards,3,11
31,Stephen,Wainwright,4,10
32,Jenny,Buchanan,4,9
33,Finn,MacGregor,1,9
34,Trinity,Sanderson,3,9
35,Ashlee,Diston,2,8
36,Andrea,Smith,5,8
37,Andrew,Wilkie,1,5
38,Georgie,Lanyon,2,5
39,Vicki,Bayliss,3,5
40,Alison,Cartner,6,4
41,Matthew,Creer,1,3
42,Jeremy,Draper,2,2
43,Paul,Lomax,6,1
44,Troy,Davis,2,0
45,Emma,Gibbons,2,0
46,Mark,Logan,1,0
47,Conor,Cunningham,1,0
48,Jay,Sanderson,1,0
49,Melissa,Wilkie,2,0
50,James,Toomey,2,0
51,Taylor,Lovell,2,0
52,Megan,McDonald,2,0
53,Maree,Platt,5,0
54,Angus,McPherson,3,0
55,Janelle,Giffin,2,0
56,Alan,East,1,0
57,Gavin,Fiedler,2,0
58,Jon,McIntosh,3,0
59,Shayne,Rushan,4,0
60,David,Howes,3,0
61,Kevin,deVries,4,0
62,Justin,O'Brien,2,0
63,Lauren,Hancock,2,0
64,Leah,Cripps,3,0
65,Beth,Lavery,3,0
66,Kathleen,Pleasants,1,0
67,Darren,Rowe,5,0
68,Chloe,Green,1,0
69,Sue,Taylor,4,0
70,Renelle,McManus,1,0
71,Josephine,Robinson,6,0
72,Clare,Montgomery,5,0
73,Ross,Douglas,5,0
74,Frances,Walsh,4,0
