PLACE,FIRST,LAST,RACES,POINTS
1,Chris,Giffin,9,123
2,Jack,Milligan,6,108
3,Craig,Green,7,99
4,David,Cripps,7,92
5,Greg,Carter,8,91
6,David,Lonsdale,9,88
7,Andrew,Hosking,6,86
8,Sarah,Jalim,5,86
9,Brian,Watson,4,77
10,Andrew,Creer,4,62
11,Ben,McDermid,6,62
12,David,Heislers,5,59
13,Garry,Marwood,3,59
14,Mumtaz,Hussain,8,52
15,Rebecca,Wilkinson,3,43
16,Lisa,Wilkinson,6,38
17,Rik,McCaig,2,37
18,Michael,Bieleny,2,37
19,Jayson,Carter,2,33
20,James,Trew,6,32
21,John,Robinson,7,29
22,Kelvin,Niblett,8,25
23,Michael,Farr,8,24
24,Tanner,Fear,2,24
25,Damien,Roberts,7,23
26,William,Robinson,7,22
27,Darren,Rowe,8,21
28,Lachlan,Van Schaik,1,20
29,Nigel,Preston,1,20
30,Stephen,van Rees,1,20
31,Brett,Dobbin,3,19
32,Amy,McCormick,1,18
33,Trinity,Sanderson,6,17
34,Charles,Chambers,2,17
35,Matthew,Schubert,2,17
36,Floyd,Cartner,1,16
37,Joanne,Russell,2,15
38,Rhianna,Wik-Gamble,2,15
39,Tim,Lauder,1,13
40,Danny,Burgess,3,12
41,David,Burrow,4,12
42,Anne,McIntosh,5,11
43,Nicholas,Cherry,1,10
44,Karl,Stoltz,4,10
45,Laura,Reynolds,2,8
46,Travis,Edwards,1,7
47,Justin,Lee,5,5
48,Jon,McIntosh,5,4
49,Alison,Cartner,9,3
50,Andrea,Smith,4,3
51,Erin,Williams,5,3
52,Scott,McLeod,7,2
53,Leigh,Draper,3,2
54,Molly,Butler,2,2
55,Adrian,McMahon,3,2
56,Alan,East,5,0
57,Alan,Buchanan,4,0
58,Shayne,Rushan,6,0
59,Gavin,Fiedler,2,0
60,Jennifer,Lee,4,0
61,Ross,Douglas,8,0
62,Melissa,Douglas,1,0
63,Aida,Escall,1,0
64,Leah,Cripps,6,0
65,Kevin,de Vries,6,0
66,Greg,McBain,1,0
67,Maree,Platt,7,0
68,Brad,Russell,8,0
69,Melissa,Wilkie,3,0
70,Justine,Rowe,8,0
71,Janelle,Giffin,7,0
72,Renelle,McManus,6,0
73,Janet,Hodnett,3,0
74,Jason,Anderton,5,0
75,Sue,Taylor,9,0
76,Sue,Anderton,7,0
77,Jay,Sanderson,4,0
78,Tammy,Fear,3,0
79,Todd,Foster,6,0
80,Liz,Foster,8,0
81,Mel,Debnam-Smith,5,0
82,Jodie,McLeod,7,0
83,Nick,O'Meara,7,0
84,Josh,Kent,2,0
85,Deanna,Marshall,5,0
86,Jeremy,Draper,5,0
87,Janis,Bull,5,0
88,Kathleen,Pleasants,4,0
89,Alistair,Stewart,1,0
90,Stephen,McConnell,2,0
91,Nathan,Dunn,1,0
