place,first,last,net Time,diff
1,Albert,Cordell,05:47,- 1:43
2,Tara,Anderson,05:33,- 0:37
3,Shaina,Brook,04:06,- 0:39
4,Carissa,Brook,04:28,- 0:36
5,Lucinda,Terry,05:40,- 0:35
6,Oscar,Terry,05:50,- 0:20
7,Jake,Lyons,04:03,- 0:15
8,Melana,Cordell,05:37,- 0:17
9,Vincent,Weatherhead,04:48,- 0:15
10,Floyd,Cartner,04:29,- 0:02
11,Kaidyn,Tucker,05:01, 0:00
12,Nellie,Rose,05:25,+ 0:02
13,Max,Rowe,05:37,+ 0:07
14,Ruby,Fletcher,05:39,+ 0:09
15,Luke,Creer,06:14,+ 0:26
16,Tim,Creer,05:26,+ 0:44