Place,First,Last,NET Time,Pace,Diff
1,David,Lonsdale,0:13:11.0,04:07.2,-00:53.8
2,David,Howes,0:15:25.0,04:49.1,-00:41.4
3,Josephine,Robinson,0:17:50.0,05:34.4,-00:40.4
4,Melissa,Douglas,0:14:00.0,04:22.5,-00:30.4
5,Darren,Rowe,0:15:22.0,04:48.1,-00:28.4
6,Bridie,Blake-Burrows,0:12:32.0,03:55.0,-00:09.6
7,Luke,Creer,0:19:08.0,05:58.8,-00:04.0
8,Tullie,Rowe,0:12:36.0,03:56.2,+00:04.0
9,Greg,Toomey,0:19:02.0,05:56.9,+00:06.0
10,James,Toomey,0:14:44.0,04:36.2,+00:42.4
11,Beatrice,Lonsdale,0:15:15.0,04:45.9,+00:35.0
12,Max,Rowe,0:14:38.0,04:34.4,+00:55.6
NEW,Craig,Feuerherdt,0:11:35.0,03:37.2
