Place,Member,First,Last,Start,Pace,Est Time
1,173,Melanie,Cuzzillo,00:40,06:54,0:44:51.0
2,145,Joshua,Condon,03:50,06:25,0:41:42.5
3,303,Paula,Meade,04:20,06:20,0:41:10.0
4,2,Alan,East,05:10,06:13,0:40:24.5
5,66,Megan,McDonald,05:40,06:08,0:39:52.0
6,37,John,Doering,05:50,06:06,0:39:39.0
7,196,Kathryne,Charnas,05:50,06:06,0:39:39.0
8,100,Justine,Rowe,06:00,06:05,0:39:32.5
9,329,Jolie,Middleton,06:40,05:59,0:38:53.5
10,385,Jenni,Jenkins,06:50,05:57,0:38:40.5
11,149,Janelle,Giffin,07:00,05:56,0:38:34.0
12,40,Aida,Escall,07:00,05:55,0:38:27.5
13,57,Adam,Henderson,07:00,05:55,0:38:27.5
14,77,Brad,Russell,07:00,05:55,0:38:27.5
15,197,Sue,Taylor,07:10,05:54,0:38:21.0
16,233,Sue,Condon,07:50,05:48,0:37:42.0
17,214,Amy,Sim,07:50,05:47,0:37:35.5
18,98,Tanya,Fleming,08:10,05:45,0:37:22.5
19,189,Tim,Creer,08:10,05:45,0:37:22.5
20,210,Fiona,Dangerfield,08:30,05:42,0:37:03.0
21,11,Jane,McCaig,08:30,05:41,0:36:56.5
22,186,Jason,Anderton,08:30,05:41,0:36:56.5
23,76,Cara,Smith,08:50,05:39,0:36:43.5
24,334,Alex,Tranter,09:10,05:35,0:36:17.5
25,87,Frances,Walsh,09:20,05:34,0:36:11.0
26,237,Lou,Bray,09:20,05:34,0:36:11.0
27,194,Melanie,Woods,09:30,05:32,0:35:58.0
28,89,Natalie,Watson,09:40,05:31,0:35:51.5
29,199,Shann,Anderson,09:40,05:31,0:35:51.5
30,16,Jennifer,Lee,10:00,05:28,0:35:32.0
31,321,Brett,Houlden,10:00,05:28,0:35:32.0
32,81,Laura,Terry,10:00,05:27,0:35:25.5
33,123,Harry,Terry,10:00,05:27,0:35:25.5
34,363,Philippa,Morris,10:00,05:27,0:35:25.5
35,127,Alison,McCullagh,10:10,05:26,0:35:19.0
36,333,Jon,McIntosh,10:10,05:26,0:35:19.0
37,52,Leah,Cripps,10:20,05:25,0:35:12.5
38,331,Scott,Roberts,10:20,05:24,0:35:06.0
39,6,Shayne,Rushan,10:40,05:21,0:34:46.5
40,394,Rhianna,Wik-Gamble,10:40,05:21,0:34:46.5
41,54,Kevin,deVries,10:50,05:20,0:34:40.0
42,130,David,Pitson,10:50,05:20,0:34:40.0
43,268,Kirrily,Hall,11:00,05:18,0:34:27.0
44,181,Rob,Redmond,11:10,05:17,0:34:20.5
45,91,Melissa,Wilkie,11:20,05:15,0:34:07.5
46,111,Troy,Davis,11:20,05:15,0:34:07.5
47,74,Maree,Platt,11:30,05:14,0:34:01.0
48,370,James,Deacon,11:30,05:14,0:34:01.0
49,20,John,McCullagh,11:40,05:12,0:33:48.0
50,59,Tina,McBain,11:40,05:12,0:33:48.0
51,302,Peter,Noble,11:40,05:12,0:33:48.0
52,180,Lauren,Hancock,12:00,05:10,0:33:35.0
53,251,Beth,Lavery,12:00,05:10,0:33:35.0
54,183,Janet,Hodnet,12:00,05:09,0:33:28.5
55,309,Blaze,Houlden,12:10,05:07,0:33:15.5
56,4,Gary,Crouch,12:30,05:05,0:33:02.5
57,47,Genevieve,Green,12:50,05:01,0:32:36.5
58,35,Conor,Cunningham,13:00,05:00,0:32:30.0
59,45,Helen,Kavanagh,13:10,04:59,0:32:23.5
60,339,James,Toomey,13:20,04:57,0:32:10.5
61,162,Natalie,Jacobson,13:30,04:56,0:32:04.0
62,315,Paul,Lomax,13:30,04:55,0:31:57.5
63,5,Jenny,Buchanan,13:40,04:54,0:31:51.0
64,161,Amelia,Evans,13:40,04:54,0:31:51.0
65,359,Anne,McIntosh,13:40,04:54,0:31:51.0
66,12,Josie,Aitken,13:50,04:52,0:31:38.0
67,22,Ross,Douglas,13:50,04:52,0:31:38.0
68,330,Kate,Hadkins,13:50,04:52,0:31:38.0
69,296,Ashlee,Diston,14:00,04:50,0:31:25.0
70,307,Philip,Shambrook,14:00,04:50,0:31:25.0
71,13,Gavin,Fiedler,14:20,04:48,0:31:12.0
72,39,Melissa,Douglas,14:20,04:47,0:31:05.5
73,107,Hayden,Brook,14:20,04:47,0:31:05.5
74,90,Rory,Weightman,14:40,04:45,0:30:52.5
75,241,Andrea,Smith,14:40,04:45,0:30:52.5
76,29,Alison,Cartner,14:40,04:44,0:30:46.0
77,236,Harry,Seaward,14:40,04:44,0:30:46.0
78,3,Alan,Buchanan,15:00,04:42,0:30:33.0
79,165,Jake,Power,15:00,04:41,0:30:26.5
80,116,Roy,Preece,15:10,04:40,0:30:20.0
81,18,Georgie,Lanyon,15:20,04:38,0:30:07.0
82,386,Danny,Burgess,15:20,04:38,0:30:07.0
83,14,Lisa,Wilkinson,15:30,04:37,0:30:00.5
84,38,Cameron,Turnbull,15:40,04:36,0:29:54.0
85,9,Trinity,Sanderson,15:40,04:35,0:29:47.5
86,117,Ingrid,Douglass,15:40,04:35,0:29:47.5
87,350,David,Cripps,15:40,04:35,0:29:47.5
88,65,Ben,McDermid,16:00,04:33,0:29:34.5
89,93,Erica,Wilkinson,16:00,04:33,0:29:34.5
90,299,Jay,Sanderson,16:00,04:33,0:29:34.5
91,60,Greg,McBain,16:10,04:31,0:29:21.5
92,78,Mark,Saxon,16:10,04:31,0:29:21.5
93,203,Tullie,Rowe,16:20,04:30,0:29:15.0
94,17,Karl,Lanyon,16:20,04:29,0:29:08.5
95,55,Justin,Lee,16:20,04:29,0:29:08.5
96,308,Chris,Giffin,16:20,04:29,0:29:08.5
97,346,Paul,Vickery,16:20,04:29,0:29:08.5
98,26,Ryan,Brook,16:30,04:28,0:29:02.0
99,34,Matthew,Creer,16:30,04:28,0:29:02.0
100,231,Paul,Seaward,16:50,04:25,0:28:42.5
101,109,Tim,Lovell,16:50,04:24,0:28:36.0
102,351,Matt,Holmes,16:50,04:24,0:28:36.0
103,384,Andrew,Wilkie,17:10,04:22,0:28:23.0
104,49,David,Heislers,17:10,04:21,0:28:16.5
105,70,Els,Viester,17:10,04:21,0:28:16.5
106,31,Charles,Chambers,17:20,04:20,0:28:10.0
107,80,Bridie,Blake-Burrows,17:20,04:20,0:28:10.0
108,96,Steve,Brereton,17:30,04:19,0:28:03.5
109,352,Amy,Holmes,17:30,04:19,0:28:03.5
110,94,David,Lonsdale,17:30,04:18,0:27:57.0
111,75,David,Sebastian,17:40,04:17,0:27:50.5
112,167,Jack,Meade,17:50,04:15,0:27:37.5
113,317,John,Flood,17:50,04:15,0:27:37.5
114,15,Rebecca,Wilkinson,18:00,04:14,0:27:31.0
115,85,Joanne,Russell,18:10,04:12,0:27:18.0
116,163,Shai,O'Brien,18:10,04:12,0:27:18.0
117,143,Maxine,Paholek,18:20,04:11,0:27:11.5
118,137,Anton,Paholek,18:40,04:08,0:26:52.0
119,10,Lee,Bray,18:40,04:07,0:26:45.5
120,61,Chris,McCormack,18:40,04:07,0:26:45.5
121,118,Tim,Lauder,18:40,04:07,0:26:45.5
122,125,Sarah,Jalim,19:10,04:03,0:26:19.5
123,343,Todd,Cody,19:20,04:02,0:26:13.0
124,336,Brock,Prime,19:40,03:59,0:25:53.5
125,95,Jason,Sim,19:40,03:58,0:25:47.0
126,42,Craig,Feuerherdt,20:00,03:55,0:25:27.5
127,121,Russell,Jenkins,20:30,03:51,0:25:01.5
128,63,John,Robinson,20:40,03:49,0:24:48.5
129,88,Brian,Watson,20:40,03:49,0:24:48.5
130,399,Darren,Hartland,20:40,03:49,0:24:48.5
131,8,Rik,McCaig,20:50,03:48,0:24:42.0
132,84,Craig,Green,20:50,03:47,0:24:35.5
133,62,Lee,McCullagh,21:10,03:45,0:24:22.5
134,247,Ross,McPhee,21:10,03:45,0:24:22.5
135,23,Michael,Bieleny,21:20,03:43,0:24:09.5
136,51,Andrew,Hosking,21:20,03:43,0:24:09.5
137,33,Andrew,Creer,21:40,03:40,0:23:50.0
138,97,Adam,Fleming,21:50,03:38,0:23:37.0
139,285,Luke,Crameri,21:50,03:38,0:23:37.0
140,166,David,Meade,22:10,03:35,0:23:17.5
141,115,Alexander,Evans,22:20,03:34,0:23:11.0
142,86,Fraser,Walsh,22:40,03:30,0:22:45.0
143,120,Tom,Barkmeyer,22:40,03:30,0:22:45.0
144,48,Matthew,Heislers,23:00,03:27,0:22:25.5
145,144,Nathan,Meade,23:10,03:26,0:22:19.0
146,46,Richard,Gleisner,23:20,03:25,0:22:12.5
147,27,Andrew,Buchanan,24:50,03:11,0:20:41.5
