place,first,last,club,net Time,pace
1,Andrew,Hosking,BUAC,1:23:19.9,03:58.1
2,Craig,Feuerherdt,BUAC,1:26:46.6,04:07.9
3,Justin,Lee,BUAC,1:40:42.1,04:47.7
4,Ben,McDermid,BUAC,1:42:06.7,04:51.7
5,Ross,Douglas,BUAC,1:52:44.3,05:22.1
6,Neil,Bowe,SOUTH,1:55:08.2,05:29.0