Place,First,Last,NET Time,Pace,Diff
1,Will,deVries,0:05:10.1,05:10.1,-00:34.9
2,Sebastian,Boromeo,0:05:02.3,05:02.3,-00:16.7
3,Jonty,McDermid,0:05:22.1,05:22.1,-00:03.9
4,Olivia,Douglas,0:05:25.7,05:25.7,-00:04.3
5,William,Robinson,0:04:15.8,04:15.8,-00:00.2
6,Avery,McDermid,0:04:27.5,04:27.5,-00:03.5
7,Joshua,Feuerherdt,0:04:37.6,04:37.6,-00:01.4
8,Lewis,Lonsdale,0:04:18.5,04:18.5,+00:00.5
9,Luke,Feuerherdt,0:04:20.4,04:20.4,+00:04.4
10,Lachlan,Feuerherdt,0:04:01.1,04:01.1,+00:02.1
11,Abbey,Cartner,0:04:21.2,04:21.2,+00:08.2
