Place,First,Last,NET Time,Pace,Diff
1,Tim,Creer,0:13:18.3,04:26.1,-00:32.7
2,Melanie,Makris,0:16:49.5,05:36.5,-00:28.5
3,Harry,Seaward,0:12:54.1,04:18.0,-00:23.9
4,Wil,McCaig,0:11:17.4,03:45.8,-00:15.6
5,Nathan,Jones,0:15:33.8,05:11.3,-00:11.2
6,Tyler,Wilkie,0:15:38.3,05:12.8,+00:02.3
7,Toby,McCaig,0:12:06.8,04:02.3,+00:06.8
8,Carrisa,Brook,0:13:38.9,04:33.0,+00:05.9
9,Bridie,Blake-Burrows,0:11:52.5,03:57.5,+00:07.5
10,Max,Rowe,0:13:55.7,04:38.6,+00:25.7
11,Matthew,Heislers,0:10:20.6,03:26.9,+00:59.6
12,Phoebe,Lonsdale,0:14:53.8,04:57.9,+00:59.8
13,Melissa,Douglas,0:14:43.1,04:54.4,+01:37.1
14,Beatrice,Lonsdale,0:15:43.3,05:14.4,+01:58.3
NEW,Hanako,Aono,0:15:50.1,05:16.7
NEW,Ryan,Arscott,0:16:29.8,05:29.9
