PLACE,NAME,TIME,PACE,CLUB,GENDER,AGE
1,Wil McCaig,0:11:51.4,03:57.1,UNI,M,14
2,Bridie Blake-Burrows,0:12:13.5,04:04.5,UNI,F,15
3,Floyd Cartner,0:12:52.0,04:17.3,UNI,M,11
4,Oliver Sanderson,0:13:00.5,04:20.2,UNI,M,12
5,Connon Bedson,0:13:37.4,04:32.5,UNI,M,10
6,Shelley Tuohey,0:14:48.7,04:56.2,UNI,F,21
7,Max Rowe,0:15:11.0,05:03.7,UNI,M,10
8,Nathan Jones,0:15:21.8,05:07.3,UNI,M,13
9,Josephine Robinson,0:16:38.3,05:32.8,UNI,F,45
10,Aida Escall,0:17:50.2,05:56.7,UNI,F,47
11,Renelle McManus,0:20:37.7,06:52.6,UNI,F,43
