PLACE,FIRST,LAST,TIME,PACE,CLUB
1,Jason,Sim,1:19:33.8,03:47.3,UNI
2,Andrew,Creer,1:26:54.2,04:08.3,UNI
3,Ben,McDermid,1:27:37.1,04:10.3,UNI
4,David,Lonsdale,1:34:24.8,04:29.8,UNI
5,David,Cripps,1:36:23.7,04:35.4,UNI
6,Danny,Burgess,1:37:26.4,04:38.4,UNI
7,Justin,Lee,1:47:40.2,05:07.6,UNI
8,Neil,Bowe,1:52:50.7,05:22.4,SOUTH BENDIGO
9,Jay,Sanderson,1:54:49.5,05:28.1,UNI
10,Kevin,deVries,2:01:13.8,05:46.4,UNI
11,Darren,Rowe,2:08:07.9,06:06.1,UNI
