place,first,last,net Time,diff
1,Jack,Wright,7:14,- 0:41
2,Emerson,Sim,6:23,- 0:42
3,Livinia,Douglass,5:59,- 0:31
4,James,Kealy,4:36,- 0:24
5,Jayden,Padgham,5:18,- 0:20
6,Emily,Heislers,4:40,- 0:20
7,Vincent,Weatherhead,5:41,- 0:17
8,Owen,Brasher,6:05,- 0:30
9,Will,Crane,4:57,- 0:09
10,Ebony,Butcher,5:18,- 0:12
11,Amber,Lyons,5:10,- 0:10
12,Brayden,Roberts,4:22,- 0:08
13,Noah,Walsh,4:23,- 0:07
14,Nellie,Rose,6:14,- 0:06
15,Steffany,Roberts,4:25,- 0:10
16,Beatrice,Lonsdale,5:05,- 0:03
17,Floyd,Cartner,4:58,- 0:07
18,Luke,Padgham,4:11,+ 0:18
19,Riley,Walsh,5:03,+ 0:47
20,Janine,Butcher,6:21,+ 0:51