first,last,start,pace,est Time
Tara,Anderson,0:00,6:23,6:23
Eloise,Arthur,0:00,7:42,7:42
Owen,Brasher,0:00,6:40,6:40
Carissa,Brook,0:00,5:8,5:08
Janine,Butcher,0:00,6:21,6:21
Ebony,Butcher,0:00,5:18,5:18
Liam,Carroll,0:00,5:52,5:52
Tara,Carroll,0:00,5:0,5:00
Floyd,Cartner,0:00,5:0,5:00
Eliza,Christie,0:00,5:30,5:30
Neve,Coleman,0:00,6:52,6:52
Maire,Coleman,0:00,6:25,6:25
Tom,Coleman,0:00,5:23,5:23
Hannah,Crane,0:00,5:50,5:50
Will,Crane,0:00,5:4,5:04
Imogen,Douglass,0:00,6:12,6:12
Livinia,Douglass,0:00,5:58,5:58
Morgan,Dunn,0:00,5:44,5:44
Dylan,Evans,0:00,5:3,5:03
Bailey,Evans,0:00,3:45,3:45
Ruby,Fletcher,0:00,5:50,5:50
Aedan,Hamilton,0:00,6:45,6:45
Rachael,Hamilton,0:00,5:40,5:40
Brodie,Hartland,0:00,4:24,4:24
Madelaine,Hearn,0:00,5:41,5:41
Rhiannon,Hearne,0:00,5:30,5:30
Madlen,Hearne,0:00,5:30,5:30
Emily,Heislers,0:00,4:40,4:40
Matthew,Heislers,0:00,3:52,3:52
Maeve,Hogan,0:00,5:45,5:45
Lucy,Hogan,0:00,5:10,5:10
Will,Hogan,0:00,3:52,3:52
Olivia,Houlden,0:00,4:55,4:55
Blaze,Houlden,0:00,4:20,4:20
Victoria,Jeffery,0:00,7:50,7:50
Olivia,Kealy,0:00,7:50,7:50
James,Kealy,0:00,4:56,4:56
William,Kenny,0:00,5:5,5:05
Holly,Lockhart,0:00,5:36,5:36
Hamish,Lockhart,0:00,5:35,5:35
Pheobe,Lonsdale,0:00,6:30,6:30
Beatrice,Lonsdale,0:00,5:0,5:00
Amber,Lyons,0:00,5:15,5:15
Jake,Lyons,0:00,4:40,4:40
Nicholas,Meharry,0:00,6:13,6:13
Michaela,Meharry,0:00,4:36,4:36
Tanner,Nally,0:00,5:28,5:28
Megan,Neilson,0:00,5:25,5:25
William,Neilson,0:00,4:38,4:38
Ciaran,Nobel,0:00,7:9,7:09
Connor,O'Farrell,0:00,5:44,5:44
Nick,Oke,0:00,6:0,6:00
Lillian,Oke,0:00,5:10,5:10
Jayden,Padgham,0:00,5:50,5:50
Leila,Padgham,0:00,4:35,4:35
Luke,Padgham,0:00,4:0,4:00
Connar,Pearson,0:00,6:57,6:57
Tyson,Peautagitama,0:00,4:0,4:00
Jude,Perez,0:00,5:9,5:09
Ava,Perez,0:00,4:54,4:54
Steffany,Roberts,0:00,4:30,4:30
Brayden,Roberts,0:00,4:10,4:10
Nellie,Rose,0:00,5:50,5:50
Ollie,Sexton,0:00,4:20,4:20
Emerson,Sim,0:00,6:30,6:30
Mathilda,Stewart,0:00,5:31,5:31
Oscar,Terry,0:00,7:0,7:00
Lucinda,Terry,0:00,6:0,6:00
Imogen,Thompson,0:00,5:50,5:50
Oliver,Turnbull,0:00,7:30,7:30
Lachlan,Walsh,0:00,5:50,5:50
Zac,Walsh,0:00,5:18,5:18
Bronte,Walsh,0:00,4:40,4:40
Riley,Walsh,0:00,4:40,4:40
Noah,Walsh,0:00,4:26,4:26
Jayden,Walsh,0:00,4:19,4:19
Vincent,Weatherhead,0:00,5:45,5:45
Jack,Wright,0:00,7:14,7:14
Harry,Wright,0:00,4:18,4:18