place,first,last,net Time,diff
1,Blaze,Houlden,18:05,- 2:03
2,Fraser,Symons,18:08,- 1:52
3,Morgan,Dunn,23:06,- 0:54
4,Steffany,Roberts,19:23,- 0:45
5,Joanne,Weatherhead,21:45,- 0:15
6,Riley,Walsh,19:48,+ 0:28
7,Bronte,Walsh,22:53,+ 1:01
8,Amber,Lyons,23:36,+ 1:36
9,Imogen,Douglass,30:46,+ 4:46