place,first,last,start,pace,est Time
1,Eric,Aardvark,00:00,7:0,52:30
2,Pam,Holland,00:00,7:0,52:30
3,Ali,Musk,01:20,6:49,51:07
4,Julie,Hogan,05:20,6:18,47:15
5,Verity,Perez,05:40,6:15,46:53
6,Natalie,Watson,06:00,6:12,46:30
7,Marianne,Richardson,06:20,6:10,46:15
8,Alan,East,07:00,6:4,45:30
9,Tracie,Gleisner,07:30,6:0,45:00
10,Michael,Turner,07:30,6:0,45:00
11,John,Doering,07:40,5:59,44:52
12,Jodie,Scoble,07:40,5:59,44:52
13,Catherine,Pethybridge,07:50,5:57,44:37
14,John,Taylor,08:50,5:49,43:37
15,Julia,Perez,08:50,5:50,43:45
16,Joanne,Weatherhead,09:00,5:48,43:30
17,Maree,Reid,09:50,5:42,42:45
18,Lisa,McDermid,10:00,5:40,42:30
19,Melissa,Douglass,10:00,5:40,42:30
20,Maree,Platt,10:20,5:38,42:15
21,Sheridan,Hail,11:40,5:27,40:52
22,Andrew,Boshcetti,11:50,5:25,40:37
23,Wayne,Forbes,11:50,5:26,40:45
24,Harry,Terry,11:50,5:26,40:45
25,Gabby,Walsh,11:50,5:25,40:37
26,Shann,Anderson,12:00,5:24,40:30
27,Noah,Walsh,12:00,5:24,40:30
28,Frances,Walsh,12:20,5:21,40:07
29,Kylie,Cheal,12:20,5:21,40:07
30,Angela,Slattery,12:50,5:17,39:37
31,Helen,WeeHee,13:00,5:16,39:30
32,Emma,Burke,13:00,5:16,39:30
33,Alison,McCullagh,13:10,5:15,39:22
34,Jackie,Tremayne,13:10,5:15,39:22
35,Brian,Brasher,13:30,5:12,39:00
36,Peter,Noble,13:30,5:12,39:00
37,Nicole,Richardson,13:30,5:12,39:00
38,Laura,Reynolds,13:30,5:12,39:00
39,John,Brewin,14:20,5:6,38:15
40,Kevin,Perez,14:20,5:5,38:07
41,Scott,Roberts,14:30,5:4,38:00
42,Laura,Terry,14:50,5:1,37:37
43,Penny,Spencer,15:00,5:0,37:30
44,Andrew,Evely,15:10,4:59,37:22
45,David,Perris,15:20,4:57,37:07
46,Brad,Russell,15:20,4:58,37:15
47,Sam,Brewin,15:20,4:58,37:15
48,Genevieve,Green,15:40,4:55,36:52
49,Jennifer,Lee,15:40,4:55,36:52
50,Kim,Townrow,15:50,4:53,36:37
51,Matt,Constable,16:00,4:52,36:30
52,Liz,Foster,16:00,4:52,36:30
53,Scott,Padgham,16:10,4:51,36:22
54,Janet,Hodnett,16:20,4:49,36:07
55,Tina,McBain,16:20,4:49,36:07
56,Nick,Walsh,16:20,4:49,36:07
57,Justin,O'Brien,16:20,4:49,36:07
58,Hayden,Brook,16:30,4:48,36:00
59,Shayne,Rushan,17:00,4:44,35:30
60,Conor,Cunningham,17:10,4:43,35:22
61,Alison,Cartner,17:50,4:37,34:38
62,Roy,Preece,17:50,4:38,34:45
63,Maria,Slater,17:50,4:38,34:45
64,Steve,Corrie,18:00,4:36,34:30
65,Brett,Houlden,18:00,4:36,34:30
66,Dan,Holland,18:00,4:36,34:30
67,Holly,Randall,18:00,4:36,34:30
68,Mark,Saxon,18:10,4:35,34:22
69,Jenny,Buchanan,18:20,4:34,34:15
70,Gary,Crouch,18:20,4:33,34:07
71,Justin,Lee,18:20,4:34,34:15
72,Maddy,Evely,18:20,4:34,34:15
73,Owen,Davies,18:40,4:31,33:52
74,David,Heislers,18:50,4:30,33:45
75,Emma,Moylan,18:50,4:30,33:45
76,Ingrid,Douglass,19:20,4:26,33:15
77,Todd,Foster,19:20,4:25,33:08
78,Greg,McBain,19:20,4:26,33:15
79,John,McCullagh,19:30,4:24,33:00
80,Michael,Hogan,19:50,4:21,32:37
81,Erica,Wilkinson,19:50,4:21,32:37
82,Gavin,Fiedler,20:00,4:20,32:30
83,Ryan,Brook,20:10,4:19,32:22
84,Aaron,Anderson,20:20,4:18,32:15
85,Alan,Buchanan,20:20,4:18,32:15
86,Georgie,Lanyon,20:20,4:18,32:15
87,Steve,Brereton,20:40,4:15,31:52
88,Max,Pearse,20:40,4:15,31:52
89,Leon,Hamond,20:50,4:14,31:45
90,Josh,Hunter,20:50,4:14,31:45
91,Chris,McCormack,21:00,4:12,31:30
92,Daniel,Vains,21:00,4:12,31:30
93,Scott,Alterater,21:10,4:11,31:22
94,Matthew,Heislers,21:20,4:9,31:08
95,Russell,Tremayne,21:50,4:5,30:37
96,Tracy,Wilson,21:50,4:5,30:37
97,Jeff,Pethybridge,22:20,4:2,30:15
98,Brock,Prime,22:30,4:0,30:00
99,Charles,Chambers,22:30,4:0,30:00
100,Andrew,Creer,22:50,3:57,29:37
101,Jim,Russell,22:50,3:57,29:37
102,Brian,Watson,22:50,3:58,29:45
103,Craig,Feuerherdt,23:00,3:56,29:30
104,Luke,Gregory,23:00,3:56,29:30
105,David,Tarrant,23:00,3:56,29:30
106,Fraser,Walsh,23:10,3:55,29:22
107,Ben,McDermid,23:20,3:53,29:07
108,Rebecca,Tweed,23:20,3:53,29:07
109,Russell,Jenkins,23:30,3:52,29:00
110,Jason,Sim,23:50,3:50,28:45
111,Troy,Cartner,23:50,3:49,28:37
112,Jason,Fletcher,24:00,3:48,28:30
113,Lee,McCullagh,24:00,3:48,28:30
114,Simon,Austin,24:20,3:45,28:07
115,Patrick,Kenny,24:20,3:46,28:15
116,Michael,Bieleny,25:10,3:39,27:22
117,Bryan,Keely,26:50,3:25,25:37
118,Richard,Gleisner,27:00,3:24,25:30
119,Andrew,Buchanan,27:40,3:19,24:52