place,first,last,net Time,diff
1,Kaidyn,Tucker,5:06,- 0:58
2,Lulu,Hamond,5:04,- 0:26
3,Albert,Cordell,6:02,- 0:18
4,Lachlan,Feuerherdt,5:14,- 0:16
5,Melana,Cordell,5:45,- 0:13
6,Nellie,Rose,5:08,- 0:15
7,Tim,Creer,5:22,- 0:08
8,Manny,Rose,6:59,+ 0:09
9,Max,Rowe,5:40,+ 0:11
10,Henry,Cordell,5:18,+ 0:13
11,Floyd,Cartner,5:01,+ 0:31
12,Bweka Tu,Hamond,6:48,+ 0:33
13,Luke,Creer,6:28,+ 0:58
14,Luke,Feuerherdt,8:31,+ 1:35
15,Tara,Anderson,7:26,+ 1:34