place,first,last,club,net Time
1,Ben,Connor,BUAC,15.08
2,Craig,Green,BYM,15.3
3,Michael,Kautes,BYM,16.18
4,Peter,Hayes,Sth BGO,22.09
5,Allan,Hammer,BYM,23.32
6,Ken,Bruechert,BYM,24.23
7,Eddie,Rowan,BYM,31.37
8,John,Watson,BYM,31.38
9,Callum,Bruechert,BYM,45.29