place,first,last,club,net Time
1,Trevor,Kelly,BYM,28:25
2,John,Rose,BUAC,32:18
3,Phil,Brown,BYM,33:45
4,Greg,McBain,BUAC,34:01
5,John,McCullagh,BUAC,34:07
6,Owen,Davies,BUAC,35:50
7,David,Grimes,BYM,36:06
8,Hunter,Gill,BYM,36:35
9,Brian,Cornell,EGWK,36:53
10,Shayne,Rushan,BUAC,37:53
11,Tony,Fahy,BYM,39:17
12,Garnet,Rodda,BYM,40:05
13,George,Flack,EGWK,42:14