place,first,last,net Time,diff
1,Justine,Rowe,38:29:00,-3:46
2,Leah,Cripps,33:40:00,-3:10
3,Janet,Hodnet,32:40:00,-2:00
4,Justin,Lee,28:15:00,-1:52
5,Alison,Cartner,30:10:00,-1:41
6,Tom,Barkmeyer,22:56,-1:26
7,Maree,Platt,34:27:00,-1:24
8,Gavin,Fiedler,28:55:00,-1:19
9,David,Heislers,27:36:00,-1:13
10,David,Meade,22:00,-1:04
11,Els,Viester,27:07:00,-0:56
12,Tim,Lauder,25:38:00,-0:55
13,Tina,McBain,32:12:00,-0:50
14,Greg,McBain,28:13:00,-0:49
15,Lauren,Hancock,32:36:00,-0:46
16,Andrew,Buchanan,20:07,-0:41
17,Andrew,Creer,24:33:00,-0:22
18,Sarah,Jalim,26:47:00,-0:18
19,Lee,McCullagh,23:23,-0:14
20,Matthew,Heislers,22:59,-0:05
21,David,Sebastian,28:05:00,0:04
22,Lisa,Wilkinson,29:25:00,0:04
23,Shayne,Rushan,34:30:00,0:09
24,Brian,Watson,24:55:00,0:13
25,Ross,Douglas,30:39:00,0:26
26,Rik,McCaig,24:31:00,0:28
27,Craig,Feuerherdt,26:09:00,0:42
28,Jennifer,Lee,37:18:00,1:33