Place,Member,First,Last,Start,Pace,Est Time
1,1098,Hannah,Niblett,00:00,07:59,0:29:17.9
2,3782,Owen,Draper,00:00,07:59,0:29:17.9
3,1093,Kale,Beesley,00:30,07:53,0:28:55.9
4,3748,Amelia,Mitchell,04:10,06:53,0:25:15.7
5,3757,Tanae,Bull,04:30,06:46,0:24:50.0
6,79,Liz,Stewart,04:40,06:45,0:24:46.3
7,1039,Melinda,Marwood,04:50,06:42,0:24:35.3
8,237,Lou,Bray,05:00,06:37,0:24:17.0
9,3776,Kathleen,Pleasants,05:40,06:28,0:23:44.0
10,3759,Lyn,Sebire,06:00,06:23,0:23:25.6
11,1001,Kate,Byrne,06:00,06:21,0:23:18.3
12,40,Aida,Escall,06:10,06:20,0:23:14.6
13,1028,Mel,Debnam-Smith,06:10,06:18,0:23:07.3
14,159,Renelle,McManus,06:30,06:15,0:22:56.2
15,1075,Louise,Firli,06:30,06:15,0:22:56.2
16,356,Lynley,McDonald,06:30,06:14,0:22:52.6
17,322,Thom,Hosking,06:40,06:12,0:22:45.2
18,1049,Georgie,Gibbons,06:50,06:09,0:22:34.2
19,100,Justine,Rowe,06:50,06:07,0:22:26.9
20,3781,Hamish,Draper,06:50,06:07,0:22:26.9
21,246,Poppy,Wainwright,07:00,06:06,0:22:23.2
22,3720,Bec,Woodward,07:00,06:06,0:22:23.2
23,3750,Genevieve,Draper,07:00,06:05,0:22:19.5
24,1019,Christopher,Epworth,07:10,06:02,0:22:08.5
25,3729,Fiona,Preston,07:20,06:01,0:22:04.9
26,66,Megan,McDonald,07:20,06:00,0:22:01.2
27,3741,Kim,Carter,07:20,06:00,0:22:01.2
28,225,Lesley,Fabian,07:40,05:55,0:21:42.8
29,98,Tanya,Fleming,07:40,05:54,0:21:39.2
30,1011,Harry,Byrne,07:50,05:53,0:21:35.5
31,3749,Isabella,Draper,07:50,05:51,0:21:28.2
32,250,Tully,Cripps,08:00,05:50,0:21:24.5
33,149,Janelle,Giffin,08:10,05:47,0:21:13.5
34,157,Bec,Lacy,08:20,05:45,0:21:06.1
35,282,Anna,de Vries,08:30,05:42,0:20:55.1
36,1002,Tammy,Fear,08:30,05:42,0:20:55.1
37,209,Olivia,Douglas,08:30,05:40,0:20:47.8
38,1026,Eiliyah,Daneen,08:40,05:37,0:20:36.8
39,1063,Will,Trewick,08:40,05:37,0:20:36.8
40,257,Fin,Bray,08:50,05:36,0:20:33.1
41,3783,Zacch,Martin,09:00,05:34,0:20:25.8
42,1033,Sal,Ekanayake,09:00,05:32,0:20:18.4
43,1085,Michelle,Scott,09:10,05:31,0:20:14.8
44,44,Geoffrey,Robinson,09:10,05:30,0:20:11.1
45,50,Harry,Cripps,09:10,05:30,0:20:11.1
46,52,Leah,Cripps,09:10,05:30,0:20:11.1
47,54,Kevin,de Vries,09:10,05:29,0:20:07.4
48,3753,Logan,Beesley,09:10,05:29,0:20:07.4
49,43,Josephine,Robinson,09:30,05:25,0:19:52.8
50,220,Ella,Meharry,09:30,05:25,0:19:52.8
51,381,April,Wainwright,09:30,05:25,0:19:52.8
52,1017,Scott,Broad,09:30,05:25,0:19:52.8
53,391,Sebastian,Boromeo,09:30,05:24,0:19:49.1
54,1015,Miller,Armstrong,09:30,05:24,0:19:49.1
55,142,Zach,Condon,09:40,05:22,0:19:41.7
56,1077,Dean,Trew,09:40,05:22,0:19:41.7
57,16,Jennifer,Lee,09:40,05:21,0:19:38.1
58,283,Lily,Sanderson,10:00,05:17,0:19:23.4
59,1066,Jodie,McLeod,10:00,05:17,0:19:23.4
60,145,Joshua,Condon,10:00,05:16,0:19:19.7
61,1076,Sarah,Trew,10:00,05:16,0:19:19.7
62,1047,Harry,Scott,10:10,05:15,0:19:16.0
63,1078,Leigh,Draper,10:10,05:14,0:19:12.4
64,252,Jasmine,Murphy,10:20,05:11,0:19:01.4
65,1016,Noah,Armstrong,10:20,05:11,0:19:01.4
66,1030,Ella,Smith,10:20,05:10,0:18:57.7
67,1058,Tyler,Swann,10:30,05:09,0:18:54.0
68,360,Phoebe,Martin,10:30,05:07,0:18:46.7
69,3715,Chloe,Green,10:30,05:07,0:18:46.7
70,1012,Danny,Breen,10:40,05:06,0:18:43.0
71,3795,Janelle,Willits,10:40,05:05,0:18:39.3
72,1095,Zac,Firli,10:50,05:04,0:18:35.7
73,22,Ross,Douglas,10:50,05:03,0:18:32.0
74,1038,Xavier,Marwood,10:50,05:02,0:18:28.3
75,3754,Elijah,Willits,11:00,05:01,0:18:24.7
76,13,Gavin,Fiedler,11:00,04:59,0:18:17.3
77,270,Tyler,Wilkie,11:10,04:58,0:18:13.7
78,195,Luke,Creer,11:20,04:56,0:18:06.3
79,400,Darren,Rowe,11:20,04:54,0:17:59.0
80,333,Jon,McIntosh,11:30,04:53,0:17:55.3
81,358,Lewis,McIntosh,11:30,04:52,0:17:51.6
82,284,Imogen,Stewart,11:40,04:50,0:17:44.3
83,29,Alison,Cartner,11:40,04:49,0:17:40.6
84,281,Will,de Vries,11:40,04:49,0:17:40.6
85,1067,Scott,McLeod,11:40,04:49,0:17:40.6
86,3735,Travis,Edwards,11:40,04:48,0:17:37.0
87,3765,Michelle,Vanzuyden,11:40,04:48,0:17:37.0
88,39,Melissa,Douglas,11:50,04:47,0:17:33.3
89,3737,Ebony,Woodward,11:50,04:46,0:17:29.6
90,292,Jye,Ekanayake,12:00,04:45,0:17:26.0
91,1071,Freya,Nicoletti,12:00,04:45,0:17:26.0
92,3713,Jazlin,Fear,12:00,04:45,0:17:26.0
93,3769,Charley,Collins,12:00,04:44,0:17:22.3
94,276,Joshua,Feuerherdt,12:10,04:42,0:17:14.9
95,305,Jonty,McDermid,12:10,04:42,0:17:14.9
96,1065,Sonya,Walker,12:10,04:42,0:17:14.9
97,1100,Cooper,Firli,12:10,04:42,0:17:14.9
98,3766,Anthony,Byrne,12:10,04:42,0:17:14.9
99,1037,Ethan,Marwood,12:10,04:40,0:17:07.6
100,14,Lisa,Wilkinson,12:20,04:38,0:17:00.3
101,253,Charlotte,Murphy,12:20,04:38,0:17:00.3
102,3755,Noah,Willits,12:20,04:37,0:16:56.6
103,1013,Jonte,Breen,12:30,04:36,0:16:52.9
104,241,Andrea,Smith,12:40,04:33,0:16:41.9
105,266,Lewis,Lonsdale,12:40,04:32,0:16:38.2
106,1020,Mumtaz,Hussain,12:40,04:32,0:16:38.2
107,55,Justin,Lee,12:50,04:31,0:16:34.6
108,274,Avery,McDermid,12:50,04:31,0:16:34.6
109,244,Jaron,Ekanayake,12:50,04:30,0:16:30.9
110,1086,Jimi,Read,12:50,04:30,0:16:30.9
111,201,Beatrice,Lonsdale,12:50,04:29,0:16:27.2
112,277,Luke,Feuerherdt,12:50,04:29,0:16:27.2
113,272,Abbey,Cartner,13:00,04:27,0:16:19.9
114,3717,Lachlan,Edwards,13:00,04:27,0:16:19.9
115,254,William,Robinson,13:20,04:22,0:16:01.5
116,1083,Rebecca,Kirkby,13:20,04:21,0:15:57.9
117,3714,Tanner,Fear,13:20,04:21,0:15:57.9
118,65,Ben,McDermid,13:30,04:18,0:15:46.9
119,1051,Kane,Safstrom,13:30,04:18,0:15:46.9
120,105,Toby,McCaig,13:40,04:17,0:15:43.2
121,147,Lachlan,Feuerherdt,13:40,04:17,0:15:43.2
122,350,David,Cripps,13:40,04:17,0:15:43.2
123,1099,Kelvin,Niblett,13:40,04:16,0:15:39.5
124,3730,Greg,Carter,13:50,04:13,0:15:28.5
125,1060,William,Trew,14:00,04:11,0:15:21.2
126,1029,James,Trew,14:00,04:10,0:15:17.5
127,63,John,Robinson,14:10,04:09,0:15:13.8
128,191,Phoebe,Lonsdale,14:10,04:09,0:15:13.8
129,3738,Mason,Woodward,14:30,04:03,0:14:51.8
130,275,Max,Rowe,14:40,04:01,0:14:44.5
131,203,Tullie,Rowe,14:40,03:59,0:14:37.1
132,308,Chris,Giffin,14:40,03:59,0:14:37.1
133,33,Andrew,Creer,15:00,03:56,0:14:26.1
134,1036,Harry,Wright,15:00,03:55,0:14:22.4
135,189,Tim,Creer,15:00,03:54,0:14:18.8
136,1023,Matthew,Schepisi,15:10,03:52,0:14:11.4
137,171,Oliver,Sanderson,15:10,03:51,0:14:07.8
138,1031,Jack,Milligan,15:20,03:50,0:14:04.1
139,1061,Tarli,Bird,15:20,03:48,0:13:56.8
140,169,Floyd,Cartner,15:40,03:43,0:13:38.4
