Place,First,Last,NET Time,Pace,Diff
1,Harry,Byrne,0:18:39.1,05:05,-02:56.4
2,Leigh,Draper,0:18:32.2,05:03,-00:40.2
3,Kate,Byrne,0:22:50.0,06:13,-00:28.3
4,Lily,Sanderson,0:19:32.8,05:20,+00:09.4
5,Anthony,Byrne,0:17:29.6,04:46,+00:14.7
6,Freya,Nicoletti,0:17:43.7,04:50,+00:17.7
7,Joshua,Feuerherdt,0:17:34.1,04:47,+00:19.2
8,Max,Rowe,0:15:16.2,04:10,+00:31.7
9,Beatrice,Lonsdale,0:17:02.1,04:39,+00:34.9
10,Kane,Safstrom,0:16:21.8,04:28,+00:34.9
11,Rebecca,Kirkby,0:16:37.6,04:32,+00:39.7
12,Phoebe,Lonsdale,0:15:54.4,04:20,+00:40.6
13,Abbey,Cartner,0:17:02.3,04:39,+00:42.4
14,Mason,Woodward,0:15:35.4,04:15,+00:43.6
15,Floyd,Cartner,0:14:23.4,03:55,+00:45.0
16,Luke,Feuerherdt,0:17:13.6,04:42,+00:46.4
17,Lachlan,Feuerherdt,0:16:34.2,04:31,+00:51.0
18,David,Cripps,0:16:35.7,04:31,+00:52.5
19,Andrea,Smith,0:17:35.9,04:48,+00:54.0
20,Tammy,Fear,0:21:52.1,05:58,+00:57.0
21,Avery,McDermid,0:17:32.1,04:47,+00:57.5
22,Dean,Trew,0:20:42.4,05:39,+01:00.7
23,Tim,Creer,0:15:21.9,04:11,+01:03.1
24,Scott,McLeod,0:18:47.0,05:07,+01:06.4
25,Melinda,Marwood,0:25:43.2,07:00,+01:07.9
26,Tullie,Rowe,0:15:48.6,04:18,+01:11.5
27,Josephine,Robinson,0:21:11.6,05:46,+01:18.8
28,Mumtaz,Hussain,0:18:10.5,04:57,+01:32.3
29,Harry,Scott,0:20:48.9,05:40,+01:32.9
30,Jodie,McLeod,0:21:00.6,05:44,+01:37.2
31,Noah,Willits,0:18:36.9,05:04,+01:40.3
32,Sonya,Walker,0:18:55.1,05:09,+01:40.2
33,Jazlin,Fear,0:19:09.5,05:13,+01:43.5
34,Ben,McDermid,0:17:31.5,04:47,+01:44.6
35,Justin,Lee,0:18:20.0,05:00,+01:45.4
36,Luke,Creer,0:20:04.9,05:28,+01:58.6
37,Elijah,Willits,0:20:29.5,05:35,+02:04.8
38,Xavier,Marwood,0:20:38.7,05:38,+02:10.4
39,Lewis,Lonsdale,0:19:01.9,05:11,+02:23.7
40,Ethan,Marwood,0:19:31.8,05:19,+02:24.2
41,William,Trew,0:17:50.6,04:52,+02:29.4
42,Ebony,Woodward,0:20:24.2,05:34,+02:54.6
43,Tanner,Fear,0:19:00.6,05:11,+03:02.7
44,Megan,McDonald,0:25:08.0,06:51,+03:06.8
45,Michelle,Scott,0:23:29.4,06:24,+03:14.6
46,Aida,Escall,0:26:30.1,07:13,+03:15.5
47,Lesley,Fabian,0:25:00.4,06:49,+03:17.6
48,Bec,Woodward,0:25:43.5,07:01,+03:20.3
49,Eiliyah,Daneen,0:25:36.3,06:59,+04:59.5
50,Harry,Cripps,0:25:54.5,07:04,+05:43.4
51,Will,de Vries,0:24:28.8,06:40,+06:48.2
52,Tully,Cripps,0:28:46.6,07:50,+07:22.1
53,Leah,Cripps,0:28:42.1,07:49,+08:31.0
NEW,Ally,Collett,0:20:49.7,05:41
NEW,Dylan,Thompson,0:19:39.7,05:21
NEW,Skylar,Woodward,0:24:35.0,06:42
NEW,Karl,Stoltz,0:19:40.3,05:22
