PLACE,FIRST,LAST,RACES,POINTS
1,Chris,Giffin,8,271
2,Mumtaz,Hussain,7,248
3,Liz,Foster,7,240
4,Darren,Rowe,7,232
5,David,Cripps,6,218
6,Michael,Farr,7,216
7,Alison,Cartner,8,215
8,Jack,Milligan,6,214
9,Brad,Russell,7,210
10,Janelle,Giffin,6,207
11,Scott,McLeod,7,207
12,David,Lonsdale,8,200
13,Craig,Green,6,196
14,Trinity,Sanderson,5,195
15,Greg,Carter,7,192
16,Kelvin,Niblett,7,190
17,William,Robinson,6,185
18,Lisa,Wilkinson,5,181
19,Jodie,McLeod,7,179
20,Sue,Taylor,8,174
21,Deanna,Marshall,5,173
22,Mel,Debnam-Smith,5,171
23,Nick,O'Meara,7,171
24,Sarah,Jalim,5,156
25,Sue,Anderton,7,153
26,Kevin,de Vries,5,149
27,Erin,Williams,5,147
28,Andrew,Hosking,5,143
29,Ross,Douglas,7,141
30,Anne,McIntosh,4,139
31,Damien,Roberts,7,138
32,Justine,Rowe,7,134
33,Jason,Anderton,5,132
34,Ben,McDermid,6,127
35,Brian,Watson,4,127
36,Jon,McIntosh,4,125
37,Garry,Marwood,3,125
38,Leah,Cripps,6,123
39,David,Heislers,5,120
40,Janis,Bull,5,120
41,Maree,Platt,6,119
42,Janet,Hodnett,3,109
43,Tammy,Fear,3,105
44,David,Burrow,3,104
45,Andrew,Creer,4,99
46,Renelle,McManus,5,92
47,Tanner,Fear,2,89
48,Melissa,Wilkie,3,87
49,Andrea,Smith,3,86
50,Rik,McCaig,2,84
51,Rhianna,Wik-Gamble,2,83
52,Todd,Foster,5,81
53,James,Trew,5,81
54,John,Robinson,6,80
55,Alan,East,5,79
56,Rebecca,Wilkinson,3,74
57,Jay,Sanderson,3,72
58,Karl,Stoltz,4,69
59,Adrian,McMahon,3,64
60,Shayne,Rushan,5,62
61,Melissa,Douglas,1,60
62,Stephen,McConnell,2,60
63,Alan,Buchanan,4,55
64,Molly,Butler,2,55
65,Jennifer,Lee,4,53
66,Charles,Chambers,2,51
67,Jeremy,Draper,5,50
68,Kathleen,Pleasants,4,48
69,Brett,Dobbin,3,46
70,Matthew,Schubert,2,46
71,Justin,Lee,4,43
72,Leigh,Draper,2,43
73,Jayson,Carter,2,42
74,Greg,McBain,1,38
75,Michael,Bieleny,2,35
76,Gavin,Fiedler,1,34
77,Danny,Burgess,3,34
78,Stephen,van Rees,1,33
79,Joanne,Russell,2,32
80,Laura,Reynolds,2,30
81,Josh,Kent,2,29
82,Nicholas,Cherry,1,26
83,Travis,Edwards,1,25
84,Tim,Lauder,1,23
85,Nigel,Preston,1,14
86,Alistair,Stewart,1,12
87,Aida,Escall,1,0
88,Floyd,Cartner,1,0
89,Amy,McCormick,1,0
90,Nathan,Dunn,1,0
