1;AAAA-1010;0000-00-00;00:00:11.726;;50;-48;393e8b
2;AACT-308;0000-00-00;00:00:11.803;;36;-46;af771e
3;AACT-350;0000-00-00;00:00:12.114;;32;-50;f020e7
4;AAAA-1031;0000-00-00;00:00:12.226;;45;-49;9cb200
5;AAAA-1099;0000-00-00;00:00:12.543;;44;-51;f3da4d
6;84;0000-00-00;00:00:12.624;11573;24;-48;98f7fe
7;AAAA-1020;0000-00-00;00:00:12.886;;34;-45;78b0dd
8;14;0000-00-00;00:00:12.886;11573;22;-43;fe8b87
9;125;0000-00-00;00:00:12.887;11573;36;-38;921b77
10;AABM-3730;0000-00-00;00:00:13.064;;33;-38;94f103
11;254;0000-00-00;00:00:13.306;11573;32;-36;bd1314
12;63;0000-00-00;00:00:13.823;11573;50;-40;0f12e5
13;AAAA-1029;0000-00-00;00:00:13.905;;46;-44;b96208
14;AAAA-1040;0000-00-00;00:00:13.966;;22;-47;62c882
15;77;0000-00-00;00:00:14.027;11573;66;-33;8b6b53
16;AACT-394;0000-00-00;00:00:14.439;;31;-44;09fa08
17;AACT-386;0000-00-00;00:00:14.703;;22;-48;285424
18;AAAA-1067;0000-00-00;00:00:14.816;;64;-41;c13228
19;94;0000-00-00;00:00:15.324;11573;18;-41;fd1d9b
20;9;0000-00-00;00:00:15.388;11573;45;-43;ad4b24
21;AACT-359;0000-00-00;00:00:15.546;;53;-44;017952
22;AABM-3763;0000-00-00;00:00:15.844;;42;-49;11c099
23;29;0000-00-00;00:00:15.925;11573;32;-38;9daabb
24;AABM-3786;0000-00-00;00:00:16.064;;22;-54;afceb5
25;AABM-3797;0000-00-00;00:00:16.188;;27;-45;1f9ad5
26;49;0000-00-00;00:00:16.703;11573;56;-37;24dfdc
27;AAAA-1066;0000-00-00;00:00:16.780;;29;-44;530f79
28;AAAA-1025;0000-00-00;00:00:16.905;;64;-50;905b22
29;AABM-3758;0000-00-00;00:00:17.006;;38;-47;4c352f
30;149;0000-00-00;00:00:17.304;11573;50;-32;bedcfd
31;74;0000-00-00;00:00:17.345;11573;60;-34;7918ab
32;91;0000-00-00;00:00:17.488;11573;54;-37;2c97fe
33;AABM-3712;0000-00-00;00:00:18.071;;76;-46;3bb347
34;197;0000-00-00;00:00:18.098;11573;50;-32;7295b1
35;AAAA-1087;0000-00-00;00:00:18.211;;42;-35;10d850
36;52;0000-00-00;00:00:18.453;11573;30;-34;b2f5b9
37;183;0000-00-00;00:00:18.974;11573;54;-38;4acda0
38;AAAA-1072;0000-00-00;00:00:19.633;;56;-45;5e1f2c
39;16;0000-00-00;00:00:20.210;11573;48;-37;bbb614
40;233;0000-00-00;00:00:20.278;11573;52;-37;c3735f
41;AABM-3760;0000-00-00;00:00:20.335;;90;-53;09d836
42;54;0000-00-00;00:00:21.245;11573;102;-43;266fbe
43;100;0000-00-00;00:00:21.824;11573;132;-39;592d9c
44;22;0000-00-00;00:00:22.662;11573;141;-38;45e55c
45;AAAA-1079;0000-00-00;00:00:24.404;;80;-44;0d4247
46;AACT-400;0000-00-00;00:00:24.797;;90;-45;67b5fa
47;65;0000-00-00;00:00:34.667;11573;78;-29;533722
48;AAAA-1031;0000-00-00;00:32:15.191;;126;-46;b59665
49;AACT-308;0000-00-00;00:32:38.283;;76;-41;1bb0d0
50;125;0000-00-00;00:33:50.716;11573;106;-37;dad9bc
51;AAAA-1010;0000-00-00;00:34:21.467;;108;-40;a04633
52;84;0000-00-00;00:34:29.880;11573;100;-40;d055fd
53;AACT-350;0000-00-00;00:34:58.493;;86;-47;0914b1
54;AABM-3730;0000-00-00;00:35:05.062;;47;-37;8dfa18
55;94;0000-00-00;00:35:19.151;11573;100;-33;c3c8ae
56;49;0000-00-00;00:36:32.487;11573;94;-37;7f8dc2
57;65;0000-00-00;00:37:00.307;11573;132;-37;89e0d3
58;AACT-394;0000-00-00;00:37:16.938;;62;-49;a994d9
59;AAAA-1020;0000-00-00;00:37:26.221;;110;-41;4131ef
60;14;0000-00-00;00:37:51.196;11573;80;-40;609ec0
61;254;0000-00-00;00:37:59.862;11573;99;-28;1cbf4d
62;63;0000-00-00;00:38:00.663;11573;74;-41;0513d0
63;AABM-3763;0000-00-00;00:38:06.895;;118;-43;205aad
64;AABM-3797;0000-00-00;00:38:10.412;;78;-45;373cf8
65;AAAA-1040;0000-00-00;00:38:41.043;;35;-49;74aeae
66;AACT-359;0000-00-00;00:39:23.429;;88;-45;16d663
67;AAAA-1072;0000-00-00;00:39:26.021;;94;-43;a53448
68;AACT-400;0000-00-00;00:39:41.927;;78;-49;a4641f
69;9;0000-00-00;00:39:45.468;11573;130;-38;d458c9
70;AACT-386;0000-00-00;00:40:21.982;;70;-53;bdd0e4
71;AABM-3786;0000-00-00;00:40:38.721;;91;-45;68733c
72;AAAA-1099;0000-00-00;00:40:40.991;;78;-48;b05974
73;AABM-3760;0000-00-00;00:40:45.382;;112;-48;0c7627
74;AAAA-1029;0000-00-00;00:40:58.784;;104;-42;53fd91
75;29;0000-00-00;00:41:00.375;11573;98;-37;d180d8
76;77;0000-00-00;00:41:41.653;11573;92;-38;48c8df
77;AAAA-1067;0000-00-00;00:41:49.336;;78;-43;7b10b5
78;183;0000-00-00;00:42:15.098;11573;95;-34;6af0ef
79;AAAA-1025;0000-00-00;00:43:14.139;;133;-42;281628
80;22;0000-00-00;00:43:21.793;11573;118;-38;37d775
81;AAAA-1087;0000-00-00;00:43:27.191;;80;-36;79ce24
82;AABM-3758;0000-00-00;00:44:49.666;;105;-46;84004c
83;AAAA-1079;0000-00-00;00:44:49.987;;45;-47;8d41c3
84;74;0000-00-00;00:45:17.480;11573;124;-37;084a3d
85;AAAA-1066;0000-00-00;00:45:26.641;;64;-50;26d267
86;91;0000-00-00;00:45:44.502;11573;160;-43;0d33e3
87;149;0000-00-00;00:46:47.175;11573;90;-24;f182f2
88;52;0000-00-00;00:47:22.515;11573;101;-33;4b28ff
89;54;0000-00-00;00:48:17.971;11573;102;-46;6948a5
90;197;0000-00-00;00:48:50.993;11573;98;-38;a561a1
91;16;0000-00-00;00:49:39.633;11573;146;-40;dcf37a
92;233;0000-00-00;00:49:52.367;11573;92;-41;a03d6e
93;100;0000-00-00;00:51:24.113;11573;120;-35;d1307f
94;AABM-3712;0000-00-00;00:55:13.177;;142;-36;826a34
