Place,First,Last,NET Time,Pace,Diff
1,Toby,McCaig,0:03:48.1,03:48.1,-01:03.9
2,Geoffrey,Robinson,0:05:41.2,05:41.2,-00:13.8
3,Lacey,Wilkie,0:05:15.4,05:15.4,+00:00.4
4,Harry,Cripps,0:05:22.4,05:22.4,+00:04.4
5,William,Robinson,0:04:27.7,04:27.7,+00:12.7
6,Lachlan,Feuerherdt,0:04:09.7,04:09.7,+00:10.7
7,Joshua,Feuerherdt,0:04:51.8,04:51.8,+00:14.8
8,Lewis,Lonsdale,0:04:34.4,04:34.4,+00:16.4
9,Luke,Feuerherdt,0:04:35.4,04:35.4,+00:19.4
10,Avery,McDermid,0:04:47.3,04:47.3,+00:20.3
11,Nikolas,Makris,0:04:37.6,04:37.6,+00:17.6
12,Abbey,Cartner,0:04:30.0,04:30.0,+00:17.0
13,Isabella,Makris,0:06:07.7,06:07.7,+00:29.7
14,Tully,Cripps,0:06:13.8,06:13.8,+00:38.8
15,Sebastian,Boromeo,0:05:27.1,05:27.1,+00:38.1
16,Elliot,Lavery,0:06:08.6,06:08.6,+00:36.6
17,Jonty,McDermid,0:06:12.6,06:12.6,+00:52.6
18,Poppy,Wainwright,0:06:11.3,06:11.3,+00:58.3
19,Spencer,Lavery,0:06:04.4,06:04.4,+01:13.4
20,Olivia,Douglas,0:06:45.4,06:45.4,+01:19.4
21,Genevieve,Robinson,0:09:22.1,09:22.1,+01:23.1
NEW,Campbell,Truscott,0:05:41.6,05:41.6
NEW,Eddie,Wallis,0:04:24.3,04:24.3
