Place,First,Last,NET Time,Pace,Diff
1,Sebastian,Stewart,0:05:32.6,05:33,+00:04.6
2,Ebony,Woodward,0:05:22.6,05:23,+00:14.6
3,Poppy,Wainwright,0:05:45.8,05:46,+00:20.8
4,William,Robinson,0:04:20.5,04:20,+00:26.5
5,Mason,Woodward,0:04:40.5,04:40,+00:29.5
6,Lewis,Lonsdale,0:04:33.5,04:33,+00:37.5
7,April,Wainwright,0:06:09.9,06:10,+00:40.9
8,Harry,Cripps,0:05:38.4,05:38,+00:42.4
9,Eden,Howes,0:05:42.5,05:42,+00:42.5
10,Phoebe,Lonsdale,0:04:47.0,04:47,+00:47.0
11,Genevieve,Robinson,0:08:08.5,08:08,+00:48.5
12,Geoffrey,Robinson,0:06:14.2,06:14,+00:49.2
13,Owen,Draper,0:08:57.0,08:57,+00:57.0
14,Tully,Cripps,0:06:50.3,06:50,+01:29.3
15,Belle,Howes,0:07:30.4,07:30,+01:43.4
NEW,Charlotte,Murphy,0:04:27.7,04:28
NEW,Ellie,Beasley,0:08:51.4,08:51
NEW,Chloe,Beasley,0:07:34.5,07:34
NEW,Logan,Beasley,0:05:36.7,05:37
