PLACE,FIRST,LAST,TIME,PACE,CLUB
1,Harrison,Boyd,0:12:04.4,03:57.5,HARRIERS
2,Logan,Tickell,0:12:05.3,03:57.8,SOUTH BENDIGO
3,Jackson,Eadon,0:12:16.5,04:01.5,HARRIERS
4,Dylan,Ferguson,0:12:20.3,04:02.7,EAGLEHAWK
5,Floyd,Cartner,0:12:22.4,04:03.4,UNI
6,Ben,McDermid,0:12:37.4,04:08.3,UNI
7,James,Trew,0:12:40.1,04:09.2,UNI
8,Matthew,Johnston,0:12:40.2,04:09.2,HARRIERS
9,Harry,Wright,0:12:41.5,04:09.7,UNI
10,Kade,McCay,0:12:46.1,04:11.2,HARRIERS
11,Tanner,Fear,0:12:53.3,04:13.5,UNI
12,Tim,Creer,0:13:07.2,04:18.1,UNI
13,Lachlan,Feuerherdt,0:13:53.9,04:33.4,UNI
14,Lewis,Lonsdale,0:14:05.2,04:37.1,UNI
15,Ross,Douglas,0:14:10.3,04:38.8,UNI
16,Avery,McDermid,0:14:17.9,04:41.3,UNI
17,Luke,Feuerherdt,0:14:22.8,04:42.9,UNI
18,Connor,Griffiths,0:14:35.0,04:46.9,HARRIERS
19,Geoff,Jordan,0:14:37.1,04:47.6,HARRIERS
20,Lachlan,Edwards,0:14:50.3,04:51.9,UNI
21,Mason,Woodward,0:15:05.1,04:56.8,UNI
22,Mark,Boyd,0:15:10.3,04:58.5,HARRIERS
23,Antony,Langdon,0:15:10.7,04:58.6,EAGLEHAWK
24,Peter,Hayes,0:18:07.3,05:56.5,SOUTH BENDIGO
25,Tony,Fahy,0:19:30.3,06:23.7,HARRIERS
26,Gary,Mahon,0:21:03.1,06:54.1,SOUTH BENDIGO
27,Peter,Savage,0:23:12.5,07:36.6,EAGLEHAWK
28,Hamish,Draper,0:23:12.6,07:36.6,UNI
