place,first,last,net Time,diff
1,William,Robinson,5:10.0,- 0:05.0
2,Luke,Feuerherdt,5:00.4,- 0:05.4
3,Floyd,Cartner,3:59.0,+ 0:07.0
4,Toby,McCaig,4:20.2,+ 0:09.8
5,Tim,Creer,4:39.7,+ 0:10.3
6,Lewis,Lonsdale,5:12.8,- 0:12.8
7,Avery,McDermid,5:34.3,- 0:19.3
8,Joshua,Feuerherdt,5:27.3,+ 0:32.7
9,Jessie,Delves,3:56.0,+ 0:34.0
10,Luke,Creer,4:56.4,+ 0:39.6
11,Jesse,Brook,7:07.1,- 0:45.1
12,Olivia,Douglas,7:28.2,- 1:08.2