place,first,last,start,pace,est Time
1,Eric,Aardvark,0:00,8:0,8:00
2,Mathew,Creer,0:30,7:30,7:30
3,Neve,Coleman,1:00,7:1,7:01
4,Sarah,Cunningham,1:10,6:55,6:55
5,Luke,Feuerherdt,1:10,6:51,6:51
6,Owen,Brasher,1:30,6:30,6:30
7,Aedan,Hamilton,1:30,6:30,6:30
8,Ciaran,Nobel,1:30,6:30,6:30
9,Livinia,Douglass,1:40,6:19,6:19
10,Olivia,Kealy,1:40,6:20,6:20
11,Jordan,Spencer,1:40,6:20,6:20
12,Wilham,Gleisner,1:40,6:25,6:25
13,Finn,Cunningham,1:50,6:15,6:15
14,Raph,Musk,1:50,6:10,6:10
15,Oscar,Terry,2:00,6:4,6:04
16,Tara,Anderson,2:10,5:52,5:52
17,Hannah,Crane,2:10,5:50,5:50
18,Rachael,Hamilton,2:10,5:49,5:49
19,Emerson,Sim,2:10,5:48,5:48
20,Lucinda,Terry,2:10,5:55,5:55
21,Lachlan,Walsh,2:10,5:51,5:51
22,Melana,Cordell,2:10,5:54,5:54
23,Eliza,Christie,2:20,5:42,5:42
24,Nick,Oke,2:20,5:40,5:40
25,Vincent,Weatherhead,2:20,5:45,5:45
26,Ruby,Fletcher,2:30,5:30,5:30
27,Ella,Fisher,2:30,5:35,5:35
28,Charlie,Lourie,2:30,5:31,5:31
29,Luke,Creer,2:30,5:30,5:30
30,Pheobe,Lonsdale,2:40,5:21,5:21
31,Nellie,Rose,2:40,5:23,5:23
32,Mathilda,Stewart,2:40,5:20,5:20
33,Henry,Cordell,2:40,5:25,5:25
34,McKinley,Musk,2:40,5:17,5:17
35,Madlen,Hearne,2:50,5:15,5:15
36,Zac,Walsh,2:50,5:10,5:10
37,Aoife,Cunningham,2:50,5:10,5:10
38,Max,Rowe,2:50,5:7,5:07
39,Henry,Spencer,2:50,5:6,5:06
40,Sol,Musk,2:50,5:15,5:15
41,Carissa,Brook,3:00,5:4,5:04
42,Amber,Lyons,3:00,5:0,5:00
43,Lillian,Oke,3:00,5:5,5:05
44,Nina,Lenard,3:00,4:57,4:57
45,Lachlan,Feuerherdt,3:00,5:2,5:02
46,Tim,Creer,3:00,5:1,5:01
47,Will,Crane,3:10,4:48,4:48
48,Jayden,Padgham,3:10,4:55,4:55
49,Jude,Perez,3:10,4:50,4:50
50,Riley,Walsh,3:10,4:50,4:50
51,Tanner,Nally,3:10,4:47,4:47
52,James,Kealy,3:20,4:45,4:45
53,Bronte,Walsh,3:20,4:45,4:45
54,Emily,Heislers,3:20,4:39,4:39
55,Declan,McMahon,3:20,4:36,4:36
56,Floyd,Cartner,3:30,4:26,4:26
57,Olivia,Houlden,3:30,4:30,4:30
58,Beatrice,Lonsdale,3:30,4:32,4:32
59,Brodie,Hartland,3:40,4:21,4:21
60,Leila,Padgham,3:40,4:25,4:25
61,Matisse,Perez,3:40,4:25,4:25
62,Noah,Walsh,3:40,4:22,4:22
63,Tullie,Rowe,3:40,4:17,4:17
64,Steffany,Roberts,3:50,4:10,4:10
65,Jake,Lyons,4:00,4:0,4:00
66,Brayden,Roberts,4:00,4:1,4:01
67,Luke,Padgham,4:10,3:50,3:50
68,Matthew,Heislers,4:20,3:40,3:40