PLACE,FIRST,LAST,TIME,PACE,CLUB
1,Janet,Hodnett,0:36:17.1,05:11.0,UNI
2,Sonya,Walker,0:36:31.3,05:13.0,UNI
3,Ev,van Den Broeke,0:38:15.6,05:27.9,OTHER
4,Sheridan,Hall,0:38:25.6,05:29.4,OTHER
5,Sarah,Trew,0:39:58.4,05:42.6,UNI
6,Tammy,Fear,0:43:28.6,06:12.7,UNI
7,Catherine,Fisher,1:15:47.9,10:49.7,OTHER
