member,first,last,start,pace,est Time
64,Lisa,McDermid,00:00,7:0,48:18
110,Rebecca,Davis,00:00,7:0,48:18
82,Natalie,Thomas,00:10,6:58,48:04
37,John,Doering,02:50,6:35,45:26
69,Jarrah,O'Shea,04:20,6:23,44:03
21,Michelle,Bieleny,04:30,6:21,43:49
50,Janet,Hodnett,05:50,6:10,42:33
111,Troy,Davis,06:20,6:5,41:59
2,Alan,East,06:40,6:2,41:38
100,Justine,Rowe,06:50,6:0,41:24
196,Kathryne,Charnas,07:20,5:56,40:56
40,Aida,Escall,07:30,5:55,40:50
119,Craig,Marshall,07:30,5:55,40:50
84,Michael,Turner,07:40,5:53,40:36
79,Carol,Sing,08:00,5:51,40:22
66,Megan,McDonald,08:00,5:50,40:15
89,Natalie,Watson,08:10,5:49,40:08
56,Stacey,Lonsdale,08:20,5:48,40:01
11,Jane,McCaig,08:40,5:45,39:41
54,Kevin,deVries,08:40,5:45,39:41
24,Lisa,Bortolotto,08:40,5:44,39:34
72,Catherine,Pethybridge,09:10,5:40,39:06
98,Tanya,Fleming,09:50,5:35,38:31
123,Harry,Terry,09:50,5:34,38:25
74,Maree,Platt,10:20,5:30,37:57
28,Paul,Buncle,10:30,5:29,37:50
284,Greg,Dundas,10:30,5:28,37:43
16,Jennifer,Lee,11:00,5:25,37:23
103,Jaqueline,Kelly,11:00,5:25,37:23
80,Angela,Slattery,11:20,5:22,37:02
32,Kylie,Cheal,11:20,5:21,36:55
45,Jodie,Giles,11:50,5:17,36:27
68,Justin,O'Brien,11:50,5:17,36:27
117,Gabrielle,Marshall,11:50,5:17,36:27
17,Karl,Lanyon,12:00,5:15,36:14
75,Nicole,Richardson,12:00,5:15,36:14
77,Brad,Russell,12:00,5:15,36:14
99,Oscar,Terry,12:00,5:15,36:14
106,Suellen,Bambrick,12:00,5:15,36:14
132,Tracie,Gleisner,12:20,5:13,36:00
105,Toby,McCaig,12:30,5:11,35:46
76,Cara,Smith,12:50,5:9,35:32
87,Frances,Walsh,12:50,5:8,35:25
57,Fraser,Lourie,13:00,5:7,35:18
81,Laura,Terry,13:00,5:7,35:18
104,Jodie,Scoble,13:10,5:5,35:05
39,Melissa,Douglas,13:30,5:3,34:51
47,Genevieve,Green,13:30,5:2,34:44
91,Melissa,Wilkie,13:30,5:2,34:44
217,Freya,Berenyl,13:30,5:2,34:44
67,Leeza,Meharry,13:50,5:0,34:30
101,Paula,Saxon,13:50,5:0,34:30
108,Eric,Hocking,13:50,5:0,34:30
113,Sam,Walker,13:50,5:0,34:30
114,Bridie,Blake-Burrows,13:50,5:0,34:30
6,Shayne,Rushan,13:50,4:59,34:23
127,Alison,McCullagh,13:50,4:59,34:23
5,Jenny,Buchanan,14:00,4:58,34:16
35,Conor,Cunningham,14:00,4:58,34:16
41,Maddy,Evely,14:20,4:55,33:56
107,Hayden,Brook,14:20,4:55,33:56
9,Trinity,Sanderson,14:40,4:52,33:35
126,Tom,Russell,14:40,4:52,33:35
43,Jason,Finch,14:50,4:51,33:28
85,Rebecca,Tweed,14:50,4:51,33:28
12,George,Thomas,15:20,4:47,33:00
59,Tina,McBain,15:20,4:46,32:53
94,David,Lonsdale,15:20,4:46,32:53
124,Darren,Burgess,15:20,4:46,32:53
125,Sarah,Jalim,15:40,4:44,32:40
22,Ross,Douglas,16:10,4:40,32:12
116,Roy,Preece,16:10,4:40,32:12
78,Mark,Saxon,16:20,4:38,31:58
34,Matthew,Creer,16:30,4:36,31:44
15,Rebecca,Wilkinson,16:40,4:35,31:37
29,Alison,Cartner,16:50,4:34,31:31
38,Ingrid,Douglas,16:50,4:34,31:31
90,Rory,Weightman,16:50,4:34,31:31
93,Erica,Wilkinson,16:50,4:33,31:24
55,Justin,Lee,17:00,4:32,31:17
4,Gary,Crouch,17:20,4:30,31:03
13,Gavin,Fiedler,17:20,4:29,30:56
109,Tim,Lovell,17:20,4:29,30:56
128,Ben,McBain,17:20,4:29,30:56
14,Lisa,Wilkinson,17:30,4:28,30:49
52,Rick,Jackel,17:40,4:27,30:42
20,John,McCullagh,17:50,4:25,30:29
25,Lee,Bray,18:00,4:23,30:15
58,Andrew,Mason,18:00,4:23,30:15
49,David,Heislers,18:10,4:22,30:08
96,Steve,Brereton,18:20,4:21,30:01
53,Travis,Kelly,18:20,4:20,29:54
60,Greg,McBain,18:20,4:20,29:54
18,Georgie,Lanyon,18:30,4:19,29:47
287,Michael,Gillies Smith,18:40,4:18,29:40
19,Troy,Cartner,19:00,4:15,29:20
3,Alan,Buchanan,19:10,4:14,29:13
26,Ryan,Brook,19:10,4:14,29:13
61,Chris,McCormack,19:10,4:14,29:13
71,Max,Pearse,19:40,4:9,28:38
83,Russell,Tremayne,19:40,4:9,28:38
112,Iian,Livingston,19:50,4:7,28:24
92,Tracey,Wilson,20:10,4:5,28:11
122,Stewart,Scoble,20:10,4:5,28:11
8,Rick,McCaig,20:30,4:2,27:50
118,Tim,Lauder,20:40,4:1,27:43
102,Simon,Austin,20:40,4:0,27:36
10,Ross,Evans,20:50,3:59,27:29
70,Harrison,Pearse,20:50,3:59,27:29
73,Jeff,Pethybridge,20:50,3:59,27:29
65,Ben,McDermid,21:00,3:58,27:22
63,John,Robinson,21:20,3:55,27:02
95,Jason,Sim,21:20,3:55,27:02
30,Keith,Cassilles-Southgate,21:20,3:54,26:55
31,Charles,Chambers,21:20,3:54,26:55
121,Russell,Jenkins,21:20,3:54,26:55
44,Jason,Fletcher,21:30,3:53,26:48
42,Craig,Feuerherdt,21:40,3:52,26:41
51,Andrew,Hosking,22:00,3:48,26:13
33,Andrew,Creer,22:30,3:45,25:52
88,Brian,Watson,22:40,3:43,25:39
286,Chris,Xu,22:50,3:41,25:25
97,Adam,Fleming,23:00,3:40,25:18
48,Matthew,Heislers,23:10,3:39,25:11
7,Luke,Hutchins,23:10,3:38,25:04
285,Luke,Crameri,23:10,3:38,25:04
23,Michael,Bieleny,23:50,3:33,24:30
62,Lee,McCullagh,24:00,3:31,24:16
46,Richard,Gleisner,24:30,3:27,23:48
86,Fraser,Walsh,24:30,3:27,23:48
120,Tom,Bergmeyer,24:50,3:24,23:28
27,Andrew,Buchanan,26:50,3:7,21:30