PLACE,FIRST,LAST,RACES,POINTS
1,April,Wainwright,9,206
2,William,Robinson,9,181
3,Genevieve,Robinson,9,174
4,Lewis,Lonsdale,8,168
5,Harry,Cripps,9,164
6,Tully,Cripps,9,148
7,Jonty,McDermid,8,140
8,Joshua,Feuerherdt,6,136
9,Avery,McDermid,8,134
10,Geoffrey,Robinson,8,114
11,Sebastian,Stewart,5,111
12,Poppy,Wainwright,5,106
13,Will,deVries,6,105
14,Mason,Woodward,5,98
15,Ebony,Woodward,4,98
16,Liam,Carter,4,95
17,Luke,Feuerherdt,5,94
18,Eden,Howes,5,91
19,Skylar,Woodward,4,73
20,Isabelle,Draper,3,70
21,Olivia,Douglas,5,66
22,Belle,Howes,4,66
23,Owen,Draper,4,64
24,Jemma,Carter,4,64
25,Jasmine,Murphy,4,62
26,Ruby,Douglas,5,61
27,Alice,McIntosh,3,59
28,Kayla,McManus,3,59
29,Phoebe,Martin,3,59
30,Sebastian,Boromeo,3,57
31,Elliot,Lavery,2,55
32,Lewis,McIntosh,3,51
33,Lucy,McCaig,2,50
34,Ivy,Bray,3,47
35,Lacey,Wilkie,2,43
36,Phoebe,Lonsdale,2,40
37,Sam,Hancock,1,40
38,Annabel,Hancock,2,33
39,Callen,Bayliss,3,30
40,Kim,Carter,2,26
41,Jake,Wight,2,24
42,Millie,McIntosh,1,24
43,Samuel,Preston,2,23
44,Anna,deVries,3,21
45,Abbey,Cartner,1,19
46,Declan,Lavery,1,14
47,Lenny,Hancock,1,13
48,Zacch,Martin,2,9
49,Sienna,Bayliss,2,8
50,Olivia,Christen,1,0
51,Madeline,Gibbons,1,0
52,Craig,Feuerherdt,1,0
53,Eryn,McManus,1,0
54,Dylan,Sim,1,0
55,Charli,Green,1,0
56,Gus,Edwards,1,0
57,Scott,Butcher,1,0
58,Lachlan,Edwards,1,0
59,Amelia ,Christen,1,0
60,Finn,Cunningham,1,0
61,Charlotte,Murphy,1,0
62,Hamish,Draper,1,0
63,Ebony,Butcher,1,0
64,Janine,Butcher,1,0
