PLACE,FIRST,LAST,RACES,POINTS
1,Tullie,Rowe,9,133
2,Bridie,Blake-Burrows,7,123
3,Floyd,Cartner,8,121
4,Max,Rowe,8,98
5,Connor,Bedson,6,88
6,Charlotte,Murphy,6,81
7,Tanner,Fear,5,72
8,Toby,McCaig,4,69
9,John,Robinson,6,67
10,Lachlan,Feuerherdt,6,63
11,Melissa,Douglas,5,63
12,Phoebe,Lonsdale,6,57
13,Abbey,Cartner,7,57
14,Tim,Creer,4,54
15,Beatrice,Lonsdale,9,50
16,Jazlin,Fear,5,47
17,Wil,McCaig,2,40
18,Ben,McDermid,2,38
19,Oliver,Sanderson,2,34
20,Danny,Burgess,4,30
21,Tyler,Wilkie,4,26
22,Craig,Feuerherdt,1,20
23,Mark,Saxon,3,19
24,David,Cripps,3,18
25,James,Toomey,1,17
26,Finn,MacGregor,1,17
27,Kyle,Butcher,1,17
28,Matthew,Saxon,2,17
29,Stephen,Wainwright,1,15
30,Gus,MacGregor,1,15
31,Anna,Christen,2,14
32,Kayla,McManus,1,12
33,Bec,Lacy,6,11
34,Philip,Shambrook,7,10
35,Emerson,Sim,2,10
36,Trent,Bayliss,3,10
37,Harry,Seaward,1,9
38,Phoebe,Martin,3,9
39,Lewis,Lonsdale,1,9
40,Luke,Creer,4,9
41,Will,deVries,3,8
42,Ebony,Butcher,3,8
43,William,Robinson,2,8
44,Anne,McIntosh,1,8
45,Jason,Sim,1,7
46,Beth,Lavery,1,7
47,Gabrielle,Dean,2,7
48,Kevin,deVries,1,6
49,Bec,Woodward,5,6
50,Gavin,Fiedler,1,6
51,Lachlan,Edwards,2,5
52,Travis,Edwards,3,4
53,Avery,McDermid,2,4
54,Chloe,Green,3,4
55,Gus,Edwards,2,4
56,Amy,Sim,1,4
57,Aida,Escall,3,3
58,Matthew,Creer,1,3
59,Renelle,McManus,5,3
60,Justin,Lee,1,3
61,Alistair,Stewart,1,2
62,Lou,Bray,1,2
63,Tanya,Fleming,5,2
64,Mathilda,Stewart,5,1
65,Craig,Green,1,1
66,Lesley,Fabian,4,1
67,Rebecca,Ashman,3,1
68,Megan,McDonald,2,0
69,Kathleen,Pleasants,1,0
70,Natasha,Dean,1,0
71,Jonty,McDermid,1,0
72,Scott,Butcher,2,0
73,Angus,McPherson,1,0
74,Trinity,Sanderson,1,0
75,Amelia,Mitchell,4,0
76,Louise,Toomey,2,0
77,Genevieve,Draper,4,0
78,Fiona,Dangerfield,1,0
79,Greg,Toomey,3,0
80,Lynley,McDonald,5,0
81,Leah,Cripps,3,0
82,Janine,Butcher,3,0
83,Will,Murphy,1,0
84,Kim,Carter,2,0
85,Harry,Cripps,1,0
86,Hamish,Draper,3,0
87,Isabelle,Draper,3,0
