Place,First,Last,NET Time,Pace,Diff
1,Frances,Walsh,0:43:39.7,06:22,-02:00.3
2,Darren,Rowe,0:37:58.5,05:33,-01:31.6
3,Greg,Carter,0:30:27.4,04:27,-00:35.8
4,Simon,Hunt,0:30:49.7,04:30,-00:34.1
5,Ben,McDermid,0:28:19.9,04:08,-00:26.3
6,Michael,Bieleny,0:26:44.1,03:54,-00:05.7
7,Kevin,deVries,0:36:48.5,05:22,-00:04.0
8,Chris,Giffin,0:30:13.8,04:25,+00:05.4
9,Craig,Green,0:26:56.2,03:56,+00:06.4
10,Travis,Edwards,0:33:53.9,04:57,+00:20.0
11,Alan,Buchanan,0:32:54.4,04:48,+00:22.2
12,Karl,Lanyon,0:30:46.7,04:30,+00:31.5
13,Charles,Chambers,0:31:22.6,04:35,+00:33.1
14,Josephine,Robinson,0:42:26.6,06:12,+00:39.5
15,Angus,McPherson,0:38:39.3,05:39,+00:45.1
16,Philip,Shambrook,0:34:17.1,05:00,+00:50.1
17,David,Lonsdale,0:30:45.7,04:29,+00:51.0
18,Paul,Lomax,0:37:32.7,05:29,+01:00.7
19,Sue,Taylor,0:42:31.5,06:12,+01:11.8
20,Alison,Cartner,0:34:52.9,05:06,+01:12.1
21,Tim,Lauder,0:28:57.0,04:14,+01:12.5
22,Ross,Douglas,0:35:20.0,05:09,+01:11.8
23,Beth,Lavery,0:37:45.2,05:31,+01:13.2
24,Maree,Platt,0:39:01.5,05:42,+01:21.0
25,Shayne,Rushan,0:40:36.0,05:56,+01:26.5
26,Clare,Montgomery,0:36:35.1,05:20,+01:32.2
27,David,Cripps,0:32:22.5,04:44,+01:33.0
28,Sarah,Jalim,0:28:29.5,04:10,+01:39.7
29,Danny,Burgess,0:32:30.1,04:45,+01:54.3
30,Troy,Davis,0:38:48.0,05:40,+02:16.0
31,Trinity,Sanderson,0:34:01.3,04:58,+02:44.4
32,Stephen,Wainwright,0:36:32.9,05:20,+03:12.7
33,Georgie,Lanyon,0:34:17.2,05:00,+03:41.4
34,Jenny,Buchanan,0:37:14.3,05:26,+04:07.8
35,Andrea,Smith,0:42:45.3,06:14,+09:25.1
NEW,Mark,Logan,0:38:59.8,05:42
NEW,Stephen,Van Rees,0:26:59.9,03:56
NEW,Finn,MacGregor,0:30:56.5,04:31
