PLACE,FIRST,LAST,RACES,POINTS
1,William,Robinson,4,78
2,Lewis,Lonsdale,4,74
3,Avery,McDermid,4,56
4,Luke,Feuerherdt,3,50
5,Jasmine,Murphy,3,43
6,Joshua,Feuerherdt,3,38
7,Will,deVries,3,32
8,Lucy,McCaig,2,32
9,Jonty,McDermid,4,26
10,Harry,Cripps,4,24
11,Craig,Feuerherdt,1,20
12,Elliot,Lavery,2,20
13,Kayla,McManus,2,19
14,Lacey,Wilkie,2,17
15,Ebony,Butcher,1,16
16,Phoebe,Lonsdale,1,16
17,Phoebe,Martin,1,15
18,Mason,Woodward,1,15
19,Lachlan,Edwards,1,14
20,Geoffrey,Robinson,3,13
21,Dylan,Sim,1,13
22,Sam,Hancock,1,13
23,Declan,Lavery,1,12
24,Poppy,Wainwright,3,12
25,Annabel,Hancock,2,11
26,Tully,Cripps,4,10
27,Olivia,Douglas,4,10
28,Anna,deVries,1,10
29,Charli,Green,1,9
30,Ivy,Bray,2,8
31,Scott,Butcher,1,8
32,Skylar,Woodward,1,7
33,April,Wainwright,4,7
34,Finn,Cunningham,1,6
35,Eryn,McManus,1,6
36,Gus,Edwards,1,4
37,Ebony,Woodward,1,4
38,Callen,Bayliss,2,4
39,Ruby,Douglas,4,2
40,Samuel,Preston,2,1
41,Sebastian,Stewart,1,1
42,Lenny,Hancock,1,1
43,Janine,Butcher,1,0
44,Belle,Howes,1,0
45,Sienna,Bayliss,1,0
46,Kim,Carter,1,0
47,Liam,Carter,1,0
48,Genevieve,Robinson,4,0
49,Eden,Howes,1,0
50,Jemma,Carter,1,0
