Place,First,Last,NET Time,Pace,Diff
1,Genevieve,Robinson,0:07:31.9,07:32,-00:08.1
2,Elliot,Lavery,0:05:24.6,05:25,-00:07.4
3,Lewis,Lonsdale,0:04:17.2,04:17,-00:00.8
4,Harry,Cripps,0:05:23.5,05:24,+00:05.5
5,Tully,Cripps,0:05:41.5,05:42,+00:06.5
6,William,Robinson,0:04:18.3,04:18,+00:07.3
7,Poppy,Wainwright,0:05:32.7,05:33,+00:07.7
8,Luke,Feuerherdt,0:04:24.7,04:25,+00:08.7
9,Geoffrey,Robinson,0:05:25.6,05:26,+00:10.6
10,Lacey,Wilkie,0:05:28.8,05:29,+00:16.8
11,Joshua,Feuerherdt,0:04:55.6,04:56,+00:18.6
12,Ruby,Douglas,0:06:45.7,06:46,+00:20.7
13,Avery,McDermid,0:04:48.3,04:48,+00:21.3
14,Jonty,McDermid,0:05:42.1,05:42,+00:27.1
15,Annabel,Hancock,0:06:12.5,06:12,+00:29.5
16,Callen,Bayliss,0:06:20.2,06:20,+00:38.2
17,Lenny,Hancock,0:07:06.0,07:06,+00:51.0
18,Olivia,Douglas,0:06:35.9,06:36,+01:09.9
19,April,Wainwright,0:07:41.3,07:41,+01:57.3
NEW,Finn,Cunningham,0:05:57.9,05:58
NEW,Jasmine,Murphy,0:04:48.4,04:48
NEW,Dylan,Sim,0:05:24.0,05:24
NEW,Sienna,Bayliss,0:10:23.6,10:24
NEW,Samuel,Preston,0:07:09.1,07:09
