Place,First,Last,NET Time,Pace,Diff
1,Tim,Lovell,0:31:34.2,04:35,-02:07.5
2,Josephine,Robinson,0:42:39.1,06:11,-01:51.2
3,Darren,Rowe,0:39:49.5,05:46,-01:48.3
4,Justin,O'Brien,0:39:49.5,05:46,-01:34.5
5,Vicki,Bayliss,0:35:31.8,05:09,-01:30.0
6,Michael,Bieleny,0:26:29.6,03:50,-00:59.5
7,Fraser,Walsh,0:22:52.4,03:19,-00:42.1
8,Stephen,Wainwright,0:33:48.1,04:54,-00:21.2
9,David,Cripps,0:31:03.8,04:30,-00:13.0
10,Simon,Hunt,0:31:39.4,04:35,-00:11.9
11,Chris,Giffin,0:30:24.7,04:24,-00:10.7
12,Ben,McDermid,0:29:27.5,04:16,-00:05.8
13,Andrew,Creer,0:26:30.4,03:50,+00:03.4
14,Jenny,Buchanan,0:33:51.2,04:54,+00:30.2
15,Sue,Taylor,0:41:35.6,06:02,+00:32.3
16,Shayne,Rushan,0:39:40.1,05:45,+00:34.1
17,David,Heislers,0:30:52.3,04:28,+00:37.6
18,Lauren,Hancock,0:35:54.5,05:12,+00:43.1
19,Craig,Green,0:26:58.8,03:55,+00:45.6
20,Sarah,Jalim,0:27:48.6,04:02,+00:47.1
21,Melissa,Wilkie,0:37:35.3,05:27,+01:08.0
22,Justin,Lee,0:32:59.4,04:47,+01:21.9
23,David,Lonsdale,0:31:01.8,04:30,+01:21.6
24,Rebecca,Wilkinson,0:30:28.4,04:25,+01:29.6
25,Ross,Douglas,0:35:22.9,05:08,+01:41.2
26,Alan,Buchanan,0:33:58.2,04:55,+02:00.0
27,Jon,McIntosh,0:37:47.8,05:29,+02:08.8
28,Charles,Chambers,0:32:03.1,04:39,+02:09.1
29,Alison,Cartner,0:34:37.1,05:01,+02:11.3
30,Beth,Lavery,0:38:02.5,05:31,+02:23.5
31,Taylor,Lovell,0:45:18.8,06:34,+02:59.6
32,Maree,Platt,0:39:23.0,05:42,+03:09.5
33,James,Toomey,0:36:41.9,05:19,+03:20.9
34,Paul,Lomax,0:37:48.3,05:29,+03:52.8
35,Darren,Hartland,0:30:55.9,04:29,+03:54.4
NEW,Conor,Cunningham,0:40:56.7,05:56
NEW,Frances,Walsh,0:45:34.0,06:36
NEW,Lukas,Jara,0:29:25.0,04:16
NEW,Clare,Montgomery,0:35:22.1,05:08
