Place,Member,First,Last,Start,Pace,Est Time
1,43,Josephine,Robinson,03:50,06:27,0:44:30.3
2,145,Joshua,Condon,04:00,06:25,0:44:16.5
3,364,David,Howes,05:00,06:17,0:43:21.3
4,149,Janelle,Giffin,05:10,06:15,0:43:07.5
5,2,Alan,East,05:20,06:13,0:42:53.7
6,397,Taylor,Lovell,06:00,06:08,0:42:19.2
7,37,John,Doering,06:10,06:06,0:42:05.4
8,400,Darren,Rowe,06:40,06:02,0:41:37.8
9,68,Justin,O'Brien,06:50,06:00,0:41:24.0
10,197,Sue,Taylor,07:10,05:57,0:41:03.3
11,57,Adam,Henderson,07:30,05:55,0:40:49.5
12,77,Brad,Russell,07:30,05:55,0:40:49.5
13,398,Angus,McPherson,08:10,05:49,0:40:08.1
14,233,Sue,Condon,08:20,05:48,0:40:01.2
15,6,Shayne,Rushan,09:10,05:40,0:39:06.0
16,186,Jason,Anderton,09:10,05:40,0:39:06.0
17,40,Aida,Escall,10:20,05:30,0:37:57.0
18,299,Jay,Sanderson,10:30,05:29,0:37:50.1
19,16,Jennifer,Lee,10:30,05:28,0:37:43.2
20,81,Laura,Terry,10:40,05:27,0:37:36.3
21,210,Fiona,Dangerfield,10:50,05:26,0:37:29.4
22,321,Brett,Houlden,11:00,05:25,0:37:22.5
23,331,Scott,Roberts,11:00,05:24,0:37:15.6
24,54,Kevin,deVries,11:10,05:23,0:37:08.7
25,3702,Nicki,Bayliss,11:20,05:22,0:37:01.8
26,111,Troy,Davis,11:30,05:20,0:36:48.0
27,52,Leah,Cripps,11:40,05:18,0:36:34.2
28,91,Melissa,Wilkie,11:50,05:17,0:36:27.3
29,74,Maree,Platt,12:00,05:15,0:36:13.5
30,370,James,Deacon,12:10,05:14,0:36:06.6
31,333,Jon,McIntosh,12:40,05:10,0:35:39.0
32,251,Beth,Lavery,12:40,05:10,0:35:39.0
33,180,Lauren,Hancock,13:10,05:06,0:35:11.4
34,296,Ashlee,Diston,14:10,04:57,0:34:09.3
35,369,Stephen,Wainwright,14:10,04:57,0:34:09.3
36,363,Philippa,Morris,14:20,04:56,0:34:02.4
37,13,Gavin,Fiedler,14:20,04:55,0:33:55.5
38,315,Paul,Lomax,14:20,04:55,0:33:55.5
39,359,Anne,McIntosh,14:30,04:54,0:33:48.6
40,59,Tina,McBain,14:40,04:53,0:33:41.7
41,307,Philip,Shambrook,14:40,04:53,0:33:41.7
42,22,Ross,Douglas,14:40,04:53,0:33:41.7
43,109,Tim,Lovell,14:40,04:53,0:33:41.7
44,5,Jenny,Buchanan,15:00,04:50,0:33:21.0
45,330,Kate,Hadkins,15:00,04:50,0:33:21.0
46,339,James,Toomey,15:00,04:50,0:33:21.0
47,241,Andrea,Smith,15:10,04:48,0:33:07.2
48,90,Rory,Weightman,15:30,04:45,0:32:46.5
49,29,Alison,Cartner,15:50,04:42,0:32:25.8
50,394,Rhianna,Wik-Gamble,15:50,04:42,0:32:25.8
51,3,Alan,Buchanan,16:20,04:38,0:31:58.2
52,396,Simon,Hunt,16:30,04:37,0:31:51.3
53,14,Lisa,Wilkinson,16:30,04:37,0:31:51.3
54,117,Ingrid,Douglass,16:40,04:35,0:31:37.5
55,55,Justin,Lee,16:40,04:35,0:31:37.5
56,60,Greg,McBain,16:40,04:35,0:31:37.5
57,9,Trinity,Sanderson,16:50,04:34,0:31:30.6
58,350,David,Cripps,17:00,04:32,0:31:16.8
59,39,Melissa,Douglas,17:20,04:30,0:31:03.0
60,203,Tullie,Rowe,17:20,04:30,0:31:03.0
61,346,Paul,Vickery,17:20,04:29,0:30:56.1
62,386,Danny,Burgess,17:30,04:28,0:30:49.2
63,18,Georgie,Lanyon,17:30,04:28,0:30:49.2
64,308,Chris,Giffin,17:40,04:26,0:30:35.4
65,231,Paul,Seaward,17:50,04:25,0:30:28.5
66,17,Karl,Lanyon,17:50,04:25,0:30:28.5
67,70,Els,Viester,17:50,04:25,0:30:28.5
68,384,Andrew,Wilkie,17:50,04:25,0:30:28.5
69,49,David,Heislers,18:00,04:23,0:30:14.7
70,31,Charles,Chambers,18:20,04:20,0:29:54.0
71,352,Amy,Holmes,18:30,04:19,0:29:47.1
72,94,David,Lonsdale,18:40,04:18,0:29:40.2
73,65,Ben,McDermid,18:40,04:17,0:29:33.3
74,317,John,Flood,19:00,04:15,0:29:19.5
75,167,Jack,Meade,19:00,04:15,0:29:19.5
76,15,Rebecca,Wilkinson,19:20,04:12,0:28:58.8
77,10,Lee,Bray,19:20,04:12,0:28:58.8
78,351,Matt,Holmes,20:10,04:05,0:28:10.5
79,118,Tim,Lauder,20:10,04:05,0:28:10.5
80,61,Chris,McCormack,20:10,04:05,0:28:10.5
81,23,Michael,Bieleny,20:50,03:59,0:27:29.1
82,336,Brock,Prime,20:50,03:59,0:27:29.1
83,125,Sarah,Jalim,21:20,03:55,0:27:01.5
84,399,Darren,Hartland,21:20,03:55,0:27:01.5
85,88,Brian,Watson,21:40,03:52,0:26:40.8
86,33,Andrew,Creer,21:50,03:50,0:26:27.0
87,42,Craig,Feuerherdt,22:00,03:48,0:26:13.2
88,84,Craig,Green,22:00,03:48,0:26:13.2
89,62,Lee,McCullagh,22:00,03:48,0:26:13.2
90,8,Rik,McCaig,22:00,03:48,0:26:13.2
91,63,John,Robinson,22:30,03:45,0:25:52.5
92,166,David,Meade,23:30,03:35,0:24:43.5
93,3701,Nigel,Preston,24:00,03:31,0:24:15.9
94,48,Matthew,Heislers,24:10,03:30,0:24:09.0
95,86,Fraser,Walsh,24:40,03:25,0:23:34.5
96,27,Andrew,Buchanan,26:20,03:11,0:21:57.9
