Place,Member,First,Last,Start,Pace,Est Time
1,1005,Ann-Marie,Wangdi,00:10,07:59,1:15:55.3
2,3748,Amelia,Mitchell,00:10,07:59,1:15:55.3
3,3750,Genevieve,Draper,00:10,07:59,1:15:55.3
4,3781,Hamish,Draper,00:10,07:59,1:15:55.3
5,40,Aida,Escall,01:30,07:51,1:14:39.2
6,3776,Kathleen,Pleasants,08:40,07:05,1:07:21.8
7,3796,Nathan,Dunn,09:30,07:00,1:06:34.2
8,2,Alan,East,10:20,06:55,1:05:46.7
9,1069,Julie,Marr,11:50,06:45,1:04:11.5
10,1070,Thomas,Lee,12:10,06:43,1:03:52.5
11,3741,Kim,Carter,12:50,06:39,1:03:14.5
12,201,Beatrice,Lonsdale,13:00,06:38,1:03:05.0
13,1068,Nick,O'Meara,13:30,06:35,1:02:36.4
14,270,Tyler,Wilkie,15:40,06:21,1:00:23.3
15,190,Michaela,Meharry,15:50,06:20,1:00:13.8
16,1028,Mel,Debnam-Smith,16:00,06:19,1:00:04.3
17,100,Justine,Rowe,16:40,06:15,0:59:26.2
18,159,Renelle,McManus,16:40,06:15,0:59:26.2
19,43,Josephine,Robinson,17:20,06:11,0:58:48.2
20,191,Phoebe,Lonsdale,17:20,06:11,0:58:48.2
21,66,Megan,McDonald,17:30,06:10,0:58:38.7
22,186,Jason,Anderton,17:30,06:10,0:58:38.7
23,1002,Tammy,Fear,18:10,06:05,0:57:51.2
24,157,Bec,Lacy,18:50,06:01,0:57:13.1
25,6,Shayne,Rushan,19:10,05:59,0:56:54.1
26,16,Jennifer,Lee,19:30,05:57,0:56:35.1
27,197,Sue,Taylor,19:40,05:56,0:56:25.6
28,233,Sue,Anderton,20:40,05:50,0:55:28.5
29,149,Janelle,Giffin,20:50,05:49,0:55:19.0
30,3732,Emma,Gibbons,21:00,05:47,0:54:60.0
31,54,Kevin,de Vries,21:20,05:45,0:54:40.9
32,87,Frances,Walsh,21:30,05:44,0:54:31.4
33,210,Fiona,Dangerfield,21:30,05:44,0:54:31.4
34,3747,Jeremy,Draper,22:10,05:40,0:53:53.4
35,251,Beth,Lavery,22:40,05:37,0:53:24.9
36,111,Troy,Davis,23:00,05:35,0:53:05.8
37,364,David,Howes,23:20,05:33,0:52:46.8
38,1066,Jodie,McLeod,23:50,05:30,0:52:18.3
39,1079,Josh,Kent,23:50,05:30,0:52:18.3
40,13,Gavin,Fiedler,24:00,05:29,0:52:08.8
41,91,Melissa,Wilkie,24:00,05:29,0:52:08.8
42,3758,Janis,Bull,24:00,05:29,0:52:08.8
43,1087,Deanna,Marshall,24:10,05:28,0:51:59.3
44,3777,Alistair,Stewart,24:10,05:28,0:51:59.3
45,67,Leeza,Meharry,24:20,05:26,0:51:40.3
46,22,Ross,Douglas,24:30,05:25,0:51:30.8
47,52,Leah,Cripps,24:30,05:25,0:51:30.8
48,3740,Vicki,Lane,24:30,05:25,0:51:30.8
49,74,Maree,Platt,24:40,05:24,0:51:21.2
50,1058,Tyler,Swann,25:30,05:19,0:50:33.7
51,1041,Lachlan,Cherry,25:50,05:17,0:50:14.7
52,1025,Liz,Foster,26:20,05:14,0:49:46.1
53,59,Tina,McBain,26:30,05:13,0:49:36.6
54,1024,Todd,Foster,26:40,05:12,0:49:27.1
55,307,Philip,Shambrook,26:50,05:11,0:49:17.6
56,1067,Scott,McLeod,26:50,05:11,0:49:17.6
57,77,Brad,Russell,27:20,05:08,0:48:49.1
58,183,Janet,Hodnett,27:20,05:08,0:48:49.1
59,253,Charlotte,Murphy,27:20,05:08,0:48:49.1
60,3,Alan,Buchanan,27:30,05:06,0:48:30.1
61,299,Jay,Sanderson,27:40,05:05,0:48:20.5
62,29,Alison,Cartner,28:00,05:03,0:48:01.5
63,3786,Stephen,McConnell,28:20,05:01,0:47:42.5
64,1078,Leigh,Draper,28:40,04:59,0:47:23.5
65,1088,Molly,Butler,28:40,04:59,0:47:23.5
66,333,Jon,McIntosh,29:20,04:55,0:46:45.4
67,400,Darren,Rowe,29:30,04:54,0:46:35.9
68,1074,David,Burrow,29:30,04:54,0:46:35.9
69,55,Justin,Lee,29:40,04:53,0:46:26.4
70,34,Mathew,Creer,30:00,04:51,0:46:07.4
71,5,Jenny,Buchanan,30:10,04:50,0:45:57.9
72,9,Trinity,Sanderson,30:10,04:50,0:45:57.9
73,254,William,Robinson,30:10,04:50,0:45:57.9
74,1091,Adrian,McMahon,30:10,04:50,0:45:57.9
75,1099,Kelvin,Niblett,30:20,04:49,0:45:48.4
76,3760,Karl,Stoltz,30:20,04:49,0:45:48.4
77,39,Melissa,Douglas,30:30,04:48,0:45:38.9
78,60,Greg,McBain,30:30,04:48,0:45:38.9
79,3726,Clare,Montgomery,30:30,04:48,0:45:38.9
80,3735,Travis,Edwards,30:30,04:48,0:45:38.9
81,1003,Damien,Roberts,30:40,04:47,0:45:29.4
82,14,Lisa,Wilkinson,30:40,04:46,0:45:19.9
83,241,Andrea,Smith,30:40,04:46,0:45:19.9
84,278,James,Russell,30:50,04:45,0:45:10.3
85,359,Anne,McIntosh,30:50,04:45,0:45:10.3
86,1040,Erin,Williams,30:50,04:45,0:45:10.3
87,1072,Michael,Farr,31:10,04:43,0:44:51.3
88,384,Andrew,Wilkie,31:40,04:40,0:44:22.8
89,3788,Matthew,Schubert,31:40,04:40,0:44:22.8
90,3797,Laura,Reynolds,31:40,04:40,0:44:22.8
91,1029,James,Trew,32:00,04:38,0:44:03.8
92,1036,Harry,Wright,32:00,04:38,0:44:03.8
93,31,Charles,Chambers,32:10,04:37,0:43:54.3
94,394,Rhianna,Wik-Gamble,32:10,04:37,0:43:54.3
95,386,Danny,Burgess,32:20,04:36,0:43:44.8
96,85,Joanne,Russell,32:30,04:35,0:43:35.2
97,1020,Mumtaz,Hussain,32:30,04:35,0:43:35.2
98,3763,Brett,Dobbin,33:00,04:32,0:43:06.7
99,65,Ben,McDermid,33:20,04:30,0:42:47.7
100,3714,Tanner,Fear,33:40,04:28,0:42:28.7
101,1057,Wes,Jenkyn,33:50,04:27,0:42:19.2
102,94,David,Lonsdale,34:40,04:21,0:41:22.1
103,49,David,Heislers,34:50,04:20,0:41:12.6
104,3730,Greg,Carter,35:00,04:19,0:41:03.1
105,350,David,Cripps,35:20,04:17,0:40:44.1
106,1009,Nicholas,Cherry,35:40,04:15,0:40:25.0
107,15,Rebecca,Wilkinson,35:50,04:14,0:40:15.5
108,1027,Andrew,Van Agtmaal,36:20,04:11,0:39:47.0
109,63,John,Robinson,36:40,04:09,0:39:28.0
110,169,Floyd,Cartner,36:40,04:09,0:39:28.0
111,3787,Amy,McCormick,37:10,04:06,0:38:59.5
112,118,Tim,Lauder,37:30,04:03,0:38:30.9
113,1043,Michael,Gibbons,37:40,04:02,0:38:21.4
114,51,Andrew,Hosking,37:50,04:01,0:38:11.9
115,84,Craig,Green,37:50,04:01,0:38:11.9
116,33,Andrew,Creer,38:00,04:00,0:38:02.4
117,1080,Jayson,Carter,38:10,03:59,0:37:52.9
118,62,Lee,McCullagh,38:20,03:58,0:37:43.4
119,125,Sarah,Jalim,38:20,03:58,0:37:43.4
120,308,Chris,Giffin,38:20,03:58,0:37:43.4
121,8,Rik,McCaig,38:30,03:57,0:37:33.9
122,1031,Jack,Milligan,38:30,03:57,0:37:33.9
123,88,Brian,Watson,39:00,03:54,0:37:05.3
124,901,Lachlan,Van Schaik,39:00,03:54,0:37:05.3
125,48,Matthew,Heislers,39:10,03:53,0:36:55.8
126,1023,Matthew,Schepisi,39:20,03:52,0:36:46.3
127,42,Craig,Feuerherdt,39:50,03:49,0:36:17.8
128,23,Michael,Bieleny,40:00,03:48,0:36:08.3
129,219,Wil,McCaig,40:00,03:48,0:36:08.3
130,1061,Tarli,Bird,40:00,03:48,0:36:08.3
131,1022,Ben,Stolz,40:20,03:46,0:35:49.3
132,1034,Garry,Marwood,40:50,03:42,0:35:11.2
133,1056,Kye,Jenkyn,42:00,03:35,0:34:04.6
134,3739,Stephen,van Rees,43:10,03:28,0:32:58.1
135,3701,Nigel,Preston,43:20,03:27,0:32:48.6
136,27,Andrew,Buchanan,46:00,03:10,0:30:06.9
