place,first,last,club,net Time,pace
1,Jasmine,Santley,BUAC,14:04.0,04:41.3
2,Tullie,Rowe,BUAC,14:04.1,04:41.4
3,Beatrice,Lonsdale,BUAC,14:59.7,04:59.9
4,Josephine,Robinson,BUAC,18:07.6,06:02.5
5,Jasmine,Rielley,BUAC,21:23.7,07:07.9
6,Paula,Rielley,BUAC,21:24.7,07:08.2