PLACE,FIRST,LAST,TIME,PACE,CLUB
1,David,Morrissey,0:03:11.6,03:11.6,HARRIERS
2,Craig,Green,0:03:21.9,03:21.9,UNI
3,Dave,Chisholm,0:03:30.3,03:30.3,EAGLEHAWK
4,Aaron,Norton,0:03:41.1,03:41.1,SOUTH BENDIGO
5,Antony,Langdon,0:03:49.1,03:49.1,EAGLEHAWK
6,Kai,Pearce,0:03:56.8,03:56.8,SOUTH BENDIGO
7,Mason,Woodward,0:04:03.2,04:03.2,UNI
8,Lewis,Lonsdale,0:04:03.4,04:03.4,UNI
9,Avery,McDermid,0:04:12.2,04:12.2,UNI
10,Jake,Wight,0:04:12.2,04:12.2,UNI
11,Jordan,Mathews,0:04:14.1,04:14.1,HARRIERS
12,Geoff,Lee,0:04:15.6,04:15.6,EAGLEHAWK
13,Luke,Feuerherdt,0:04:24.9,04:24.9,UNI
14,Joshua,Feuerherdt,0:04:25.3,04:25.3,UNI
15,Sebastian,Boromeo,0:04:34.6,04:34.6,UNI
16,Jonty,McDermid,0:04:42.4,04:42.4,UNI
17,Cale,Hinton,0:04:46.8,04:46.8,EAGLEHAWK
18,Kai,Norton,0:04:48.8,04:48.8,SOUTH BENDIGO
19,Harry,Cripps,0:04:56.7,04:56.7,UNI
20,Logan,Beesley,0:05:00.7,05:00.7,UNI
21,Zacch,Martin,0:05:06.2,05:06.2,UNI
22,Jordan,Macdonald,0:05:16.9,05:16.9,HARRIERS
23,Peter,Savage,0:05:23.2,05:23.2,EAGLEHAWK
24,Liam,Carter,0:06:18.6,06:18.6,UNI
25,Samuel,Preston,0:06:23.5,06:23.5,UNI
26,Hamish,Draper,0:06:35.4,06:35.4,UNI
27,Owen,Draper,0:08:05.1,08:05.1,UNI
