member,first,last,start,pace,est Time
64,Lisa,McDermid,00:00,7:0,57:24
173,Melanie,Cuzzillo,00:50,6:54,56:35
37,John,Doering,03:20,6:35,53:59
110,Rebecca,Davis,04:10,6:30,53:18
69,Jarrah,O'Shea,05:00,6:23,52:21
21,Michelle,Bieleny,05:20,6:21,52:04
2,Alan,East,06:50,6:10,50:34
297,Sue,Taylor,07:10,6:7,50:09
111,Troy,Davis,07:30,6:5,49:53
100,Justine,Rowe,08:10,6:0,49:12
54,Kevin,deVries,08:40,5:56,48:39
40,Aida,Escall,08:50,5:55,48:31
119,Craig,Marshall,08:50,5:55,48:31
66,Megan,McDonald,09:30,5:50,47:50
56,Stacey,Lonsdale,09:50,5:48,47:34
199,Shann,Anderson,10:10,5:45,47:09
196,Kathryne,Charnas,10:30,5:43,46:53
72,Catherine,Pethybridge,11:00,5:40,46:28
89,Natalie,Watson,11:00,5:40,46:28
11,Jane,McCaig,11:10,5:38,46:12
74,Maree,Platt,11:40,5:35,45:47
123,Harry,Terry,11:50,5:34,45:39
16,Jennifer,Lee,12:20,5:30,45:06
77,Brad,Russell,12:20,5:30,45:06
284,Greg,Dundas,12:30,5:28,44:50
98,Tanya,Fleming,13:00,5:25,44:25
103,Jaqueline,Kelly,13:00,5:25,44:25
68,Justin,O'Brien,14:00,5:17,43:19
117,Gabrielle,Marshall,14:00,5:17,43:19
81,Laura,Terry,14:10,5:16,43:11
76,Cara,Smith,14:20,5:15,43:03
130,David,Pitson,14:20,5:15,43:03
132,Tracie,Gleisner,14:40,5:13,42:47
87,Frances,Walsh,14:50,5:12,42:38
91,Melissa,Wilkie,15:00,5:10,42:22
104,Jodie,Scoble,15:40,5:5,41:41
6,Shayne,Rushan,16:00,5:3,41:25
47,Genevieve,Green,16:10,5:2,41:16
217,Freya,Berenyl,16:10,5:2,41:16
67,Leeza,Meharry,16:20,5:0,41:00
113,Sam,Walker,16:20,5:0,41:00
127,Alison,McCullagh,16:30,4:59,40:52
5,Jenny,Buchanan,16:40,4:58,40:44
41,Maddy,Evely,17:00,4:55,40:19
107,Hayden,Brook,17:00,4:55,40:19
299,Jay,Sanderson,17:00,4:55,40:19
22,Ross,Douglas,17:30,4:52,39:54
85,Rebecca,Tweed,17:40,4:51,39:46
9,Trinity,Sanderson,18:00,4:48,39:22
12,George,Thomas,18:10,4:47,39:13
59,Tina,McBain,18:20,4:46,39:05
94,David,Lonsdale,18:20,4:46,39:05
124,Darren,Burgess,18:20,4:46,39:05
29,Alison,Cartner,18:30,4:45,38:57
108,Eric,Hocking,18:40,4:43,38:41
78,Mark,Saxon,19:00,4:41,38:24
116,Roy,Preece,19:10,4:40,38:16
15,Rebecca,Wilkinson,19:20,4:39,38:08
34,Matthew,Creer,19:40,4:36,37:43
126,Tom,Russell,19:50,4:35,37:35
90,Rory,Weightman,20:00,4:34,37:27
93,Erica,Wilkinson,20:10,4:33,37:19
4,Gary,Crouch,20:10,4:32,37:10
55,Justin,Lee,20:10,4:32,37:10
3,Alan,Buchanan,20:30,4:30,36:54
13,Gavin,Fiedler,20:30,4:30,36:54
18,Georgie,Lanyon,20:30,4:30,36:54
129,Ben,McBain,20:40,4:29,36:46
14,Lisa,Wilkinson,20:50,4:28,36:38
49,David,Heislers,21:00,4:26,36:21
109,Tim,Lovell,21:10,4:25,36:13
287,Michael,Gillies Smith,21:20,4:24,36:05
298,Jim,Russell,21:30,4:23,35:57
96,Steve,Brereton,21:40,4:21,35:40
60,Greg,McBain,21:50,4:20,35:32
61,Chris,McCormack,22:20,4:17,35:07
115,Aaron,Anderson,22:20,4:16,34:59
26,Ryan,Brook,22:40,4:14,34:43
118,Tim,Lauder,23:10,4:10,34:10
65,Ben,McDermid,23:20,4:9,34:02
112,Iian,Livingston,23:40,4:7,33:45
71,Max,Pearse,23:50,4:5,33:29
92,Tracey,Wilson,23:50,4:5,33:29
125,Sarah,Jalim,24:00,4:4,33:21
122,Stewart,Scoble,24:20,4:2,33:04
102,Simon,Austin,24:40,4:0,32:48
10,Ross,Evans,24:40,3:59,32:40
73,Jeff,Pethybridge,24:40,3:59,32:40
95,Jason,Sim,24:40,3:59,32:40
8,Rick,McCaig,25:00,3:57,32:23
48,Matthew,Heislers,25:20,3:55,32:07
63,John,Robinson,25:20,3:55,32:07
31,Charles,Chambers,25:30,3:54,31:59
121,Russell,Jenkins,25:30,3:54,31:59
33,Andrew,Creer,25:40,3:52,31:42
42,Craig,Feuerherdt,25:40,3:52,31:42
51,Andrew,Hosking,26:00,3:50,31:26
97,Adam,Fleming,26:50,3:44,30:37
88,Brian,Watson,27:00,3:43,30:29
286,Chris,Xu,27:10,3:41,30:12
7,Luke,Hutchins,27:30,3:39,29:56
120,Tom,Barkmeyer,27:40,3:38,29:48
285,Luke,Crameri,27:40,3:38,29:48
23,Michael,Bieleny,28:00,3:35,29:23
166,David,Meade,28:20,3:33,29:07
62,Lee,McCullagh,28:30,3:31,28:50
46,Richard,Gleisner,29:00,3:28,28:26
86,Fraser,Walsh,29:10,3:27,28:17
27,Andrew,Buchanan,31:10,3:12,26:14