place,first,last,net Time,diff
1,Ned,Slater,29:59,- 4:38
2,Melissa,Douglas,40:25,- 2:47
3,Shann,Anderson,36:55,- 2:00
4,Jenny,Buchanan,32:55,- 1:56
5,Leeza,Meharry,30:48,- 1:43
6,Shayne,Rushan,35:18,- 1:24
7,Liz,Foster,34:12,- 1:21
8,John,Brewin,33:24,- 1:27
9,Madeleine,Evely,30:57,- 1:13
10,Aaron,Anderson,30:26,- 0:56
11,Chris,McCormack,28:16,- 0:46
12,David,Tarrant,27:20,- 0:46
13,Tracy,Wilson,28:42,- 0:48
14,Andrew,Buchanan,23:03,- 0:46
15,Ingrid,Douglass,30:08,- 1:42
16,Angela,Slattery,36:09,- 0:33
17,Erica,Wilkinson,29:56,- 0:30
18,Patrick,Kenny,24:54,- 0:25
19,Gavin,Fiedler,29:05,- 0:18
20,David,Ottrey,28:20,- 0:21
21,Justin,Lee,30:45,- 0:16
22,Alison,Cartner,32:47,- 0:12
23,Michael,Hogan,29:58,- 0:14
24,Michael,Bieleny,26:53,- 0:04
25,Maria,Slater,32:24,- 0:07
26,Steve,Brereton,29:04,+ 0:09
27,Scott,Roberts,34:31,+ 0:15
28,Simon,Austin,26:20,+ 0:33
29,Gary,Crouch,30:35,+ 0:37
30,Alan,East,43:31,+ 0:46
31,Brad,Russell,34:49,+ 0:54
32,Jo-Anne,Keely,30:01,+ 1:20
33,Steve,Durkin,32:18,+ 1:31
34,Patrick,Hartney,33:27,+ 1:51
35,John,Doering,41:57,+ 2:55