place,member,first,last,start,Pace,est Time
1,34,Matthew,Creer,0:00,7:59,7:59
2,154,Sean,Hughan,0:10,7:51,7:51
3,244,Jaron,Ekanayake,0:10,7:50,7:50
4,204,Kane,Charnas,0:40,7:20,7:20
5,128,George,Pitson,1:00,6:56,6:56
6,205,Amelia,Charnas,1:00,6:59,6:59
7,44,Geoffrey,Robinson,1:10,6:55,6:55
8,178,Annabel,Hancock,1:20,6:45,6:45
9,220,Ella,Meharry,1:30,6:31,6:31
10,211,Jesse,Brook,1:40,6:24,6:24
11,246,Poppy,Wainwright,1:40,6:25,6:25
12,250,Tully,Cripps,1:40,6:25,6:25
13,264,Katelyn,Kelly,1:40,6:18,6:18
14,28,Mitchell,Bray,1:50,6:12,6:12
15,207,Lewis,Kallour,1:50,6:15,6:15
16,216,Ava,Terry,1:50,6:13,6:13
17,258,Ivy,Bray,1:50,6:12,6:12
18,271,Will,Smith,1:50,6:15,6:15
19,293,Spencer,Lavery,1:50,6:12,6:12
20,25,Maddi,Bray,2:00,5:56,5:56
21,209,Olivia,Douglas,2:00,5:57,5:57
22,50,Harry,Cripps,2:10,5:50,5:50
23,234,Finn,Cunningham,2:10,5:55,5:55
24,292,Jye,Ekanayake,2:10,5:55,5:55
25,58,Archie,Ross,2:20,5:40,5:40
26,239,Paula,a'Beckett,2:20,5:39,5:39
27,245,Lacey,Wilkie,2:20,5:39,5:39
28,255,Dylan,Sim,2:20,5:43,5:43
29,260,Thomas,Henderson,2:20,5:43,5:43
30,281,Will,deVries,2:20,5:45,5:45
31,298,Elliot,Lavery,2:20,5:43,5:43
32,36,Henry,Turnbull,2:30,5:34,5:34
33,153,Tadhg,Hughan,2:30,5:32,5:32
34,172,Eloise,Wilby,2:30,5:32,5:32
35,175,Matilda,Wilby,2:30,5:30,5:30
36,223,Jack,Meharry,2:30,5:31,5:31
37,232,Jack,Gleisner,2:30,5:31,5:31
38,235,Aoife,Cunningham,2:30,5:35,5:35
39,280,Paige,a'Beckett,2:30,5:31,5:31
40,282,Anna,deVries,2:30,5:30,5:30
41,252,Jasmine,Murphy,2:40,5:25,5:25
42,261,Charlotte,Crane,2:40,5:20,5:20
43,265,Joshua,Kelly,2:40,5:19,5:19
44,274,Avery,McDermid,2:40,5:17,5:17
45,284,Imogen,Stewart,2:40,5:25,5:25
46,99,Oscar,Terry,2:50,5:15,5:15
47,249,Will,Gleisner,2:50,5:11,5:11
48,276,Joshua,Feuerherdt,2:50,5:07,5:07
49,195,Luke,Creer,3:00,4:59,4:59
50,229,Harrison,Pitson,3:00,4:56,4:56
51,290,Sabine,Stewart,3:00,5:04,5:04
52,300,Lucinda,Terry,3:00,4:59,4:59
53,191,Phoebe,Lonsdale,3:10,4:50,4:50
54,269,Cooper,Charnas,3:10,4:50,4:50
55,279,Lucy,McCaig,3:10,4:54,4:54
56,295,Jeremy,Carlson,3:10,4:53,4:53
57,189,Tim,Creer,3:20,4:43,4:43
58,215,Emerson,Sim,3:20,4:43,4:43
59,228,Sam,Pitson,3:20,4:45,4:45
60,238,Alex,Parry,3:20,4:36,4:36
61,277,Luke,Feuerherdt,3:20,4:36,4:36
62,283,Lily,Sanderson,3:20,4:44,4:44
63,291,Sarah,Wilkes,3:20,4:45,4:45
64,83,Sam,Stewart,3:30,4:30,4:30
65,139,Leila,Padgham,3:30,4:35,4:35
66,267,Kayla,McManus,3:30,4:34,4:34
67,272,Abbey,Cartner,3:30,4:30,4:30
68,273,Harrison,Kelly,3:30,4:33,4:33
69,147,Lachlan,Feuerherdt,3:40,4:25,4:25
70,221,Billy,Meade,3:40,4:17,4:17
71,254,William,Robinson,3:40,4:23,4:23
72,266,Lewis,Lonsdale,3:40,4:25,4:25
73,289,Josh,Smith,3:40,4:18,4:18
74,105,Toby,McCaig,3:50,4:10,4:10
75,112,Jett,Grundy,3:50,4:12,4:12
76,19,Troy,Cartner,4:00,4:00,4:00
77,169,Floyd,Cartner,4:00,4:05,4:05
78,171,Oliver,Sanderson,4:00,4:03,4:03
79,176,Kaidyn,Tucker,4:00,4:05,4:05
80,256,Jesse,Delves,4:00,4:02,4:02