Place,Member,First,Last,Start,Pace,Est Time
1,3781,Hamish,Draper,00:10,07:59,1:03:13.7
2,3750,Genevieve,Draper,00:10,07:59,1:03:13.7
3,3748,Amelia,Mitchell,00:10,07:59,1:03:13.7
4,1005,Ann-Marie,Wangdi,00:10,07:59,1:03:13.7
5,2,Alan,East,08:50,06:53,0:54:31.0
6,66,Megan,McDonald,09:10,06:50,0:54:07.2
7,100,Justine,Rowe,09:40,06:47,0:53:43.4
8,201,Beatrice,Lonsdale,10:50,06:38,0:52:32.2
9,3776,Kathleen,Pleasants,11:10,06:35,0:52:08.4
10,3715,Chloe,Green,11:10,06:35,0:52:08.4
11,270,Tyler,Wilkie,13:00,06:21,0:50:17.5
12,190,Michaela,Meharry,13:10,06:20,0:50:09.6
13,159,Renelle,McManus,13:50,06:15,0:49:30.0
14,191,Phoebe,Lonsdale,14:20,06:11,0:48:58.3
15,397,Taylor,Lovell,14:50,06:08,0:48:34.6
16,3740,Vicki,Lane,15:00,06:07,0:48:26.6
17,87,Frances,Walsh,15:30,06:03,0:47:55.0
18,197,Sue,Taylor,16:10,05:58,0:47:15.4
19,1025,Liz,Foster,16:10,05:57,0:47:07.4
20,35,Conor,Cunningham,16:20,05:56,0:46:59.5
21,149,Janelle,Giffin,16:40,05:54,0:46:43.7
22,43,Josephine,Robinson,17:00,05:51,0:46:19.9
23,157,Bec,Lacy,17:00,05:51,0:46:19.9
24,3732,Emma,Gibbons,17:10,05:50,0:46:12.0
25,334,Alex,Trantor,17:30,05:48,0:45:56.2
26,68,Justin,O'Brien,17:40,05:46,0:45:40.3
27,392,Mark,Logan,18:10,05:42,0:45:08.6
28,111,Troy,Davis,18:30,05:40,0:44:52.8
29,3777,Alistair,Stewart,19:10,05:35,0:44:13.2
30,251,Beth,Lavery,19:40,05:31,0:43:41.5
31,398,Angus,McPherson,19:50,05:30,0:43:33.6
32,359,Anne,McIntosh,20:00,05:28,0:43:17.8
33,6,Shayne,Rushan,20:00,05:28,0:43:17.8
34,91,Melissa,Wilkie,20:10,05:27,0:43:09.8
35,74,Maree,Platt,20:10,05:27,0:43:09.8
36,67,Leeza,Meharry,20:20,05:26,0:43:01.9
37,52,Leah,Cripps,20:40,05:24,0:42:46.1
38,299,Jay,Sanderson,20:40,05:24,0:42:46.1
39,77,Brad,Russell,20:40,05:23,0:42:38.2
40,339,James,Toomey,21:20,05:19,0:42:06.5
41,1024,Todd,Foster,21:20,05:19,0:42:06.5
42,54,Kevin,de Vries,21:40,05:16,0:41:42.7
43,364,David,Howes,21:50,05:15,0:41:34.8
44,400,Darren,Rowe,21:50,05:15,0:41:34.8
45,3747,Jeremy,Draper,21:50,05:14,0:41:26.9
46,59,Tina,McBain,22:00,05:13,0:41:19.0
47,180,Lauren,Hancock,22:10,05:12,0:41:11.0
48,13,Gavin,Fiedler,22:30,05:09,0:40:47.3
49,253,Charlotte,Murphy,22:40,05:08,0:40:39.4
50,22,Ross,Douglas,23:10,05:04,0:40:07.7
51,9,Trinity,Sanderson,23:20,05:03,0:39:59.8
52,333,Jon,McIntosh,23:40,05:01,0:39:43.9
53,315,Paul,Lomax,23:50,04:59,0:39:28.1
54,3702,Vicki,Bayliss,23:50,04:59,0:39:28.1
55,241,Andrea,Smith,24:00,04:58,0:39:20.2
56,3726,Clare,Montgomery,24:00,04:58,0:39:20.2
57,34,Mathew,Creer,24:10,04:57,0:39:12.2
58,29,Alison,Cartner,24:20,04:56,0:39:04.3
59,307,Philip,Shambrook,24:30,04:55,0:38:56.4
60,369,Stephen,Wainwright,24:30,04:54,0:38:48.5
61,3714,Tanner,Fear,24:40,04:53,0:38:40.6
62,296,Ashlee,Diston,24:40,04:53,0:38:40.6
63,18,Georgie,Lanyon,25:00,04:51,0:38:24.7
64,14,Lisa,Wilkinson,25:10,04:49,0:38:08.9
65,5,Jenny,Buchanan,25:30,04:47,0:37:53.0
66,278,James,Russell,25:40,04:45,0:37:37.2
67,3735,Travis,Edwards,25:40,04:45,0:37:37.2
68,60,Greg,McBain,26:00,04:43,0:37:21.4
69,55,Justin,Lee,26:00,04:43,0:37:21.4
70,3,Alan,Buchanan,26:50,04:37,0:36:33.8
71,1003,Damien,Roberts,27:00,04:36,0:36:25.9
72,31,Charles,Chambers,27:00,04:35,0:36:18.0
73,384,Andrew,Wilkie,27:20,04:33,0:36:02.2
74,109,Tim,Lovell,27:20,04:33,0:36:02.2
75,3744,Finn,MacGregor,27:40,04:31,0:35:46.3
76,386,Danny,Burgess,27:40,04:30,0:35:38.4
77,396,Simon,Hunt,27:40,04:30,0:35:38.4
78,350,David,Cripps,28:20,04:25,0:34:58.8
79,17,Karl,Lanyon,28:50,04:21,0:34:27.1
80,3734,Lukas,Jara,29:20,04:18,0:34:03.4
81,49,David,Heislers,29:30,04:17,0:33:55.4
82,308,Chris,Giffin,29:30,04:17,0:33:55.4
83,94,David,Lonsdale,29:30,04:17,0:33:55.4
84,3730,Greg,Carter,29:30,04:16,0:33:47.5
85,1009,Nicholas,Cherry,30:00,04:13,0:33:23.8
86,15,Rebecca,Wilkinson,30:00,04:13,0:33:23.8
87,63,John,Robinson,30:00,04:13,0:33:23.8
88,399,Darren,Hartland,30:50,04:07,0:32:36.2
89,1023,Matthew,Schepisi,31:10,04:04,0:32:12.5
90,118,Tim,Lauder,31:20,04:03,0:32:04.6
91,301,Jarrod,Eps,31:40,04:00,0:31:40.8
92,3746,Peter,King,31:40,04:00,0:31:40.8
93,65,Ben,McDermid,31:50,03:59,0:31:32.9
94,84,Craig,Green,31:50,03:59,0:31:32.9
95,125,Sarah,Jalim,31:50,03:59,0:31:32.9
96,62,Lee,McCullagh,32:00,03:58,0:31:25.0
97,8,Rik,McCaig,32:30,03:54,0:30:53.3
98,88,Brian,Watson,32:30,03:54,0:30:53.3
99,33,Andrew,Creer,33:00,03:50,0:30:21.6
100,42,Craig,Feuerherdt,33:10,03:49,0:30:13.7
101,219,Wil,McCaig,33:20,03:48,0:30:05.8
102,23,Michael,Bieleny,33:30,03:46,0:29:49.9
103,3739,Stephen,van Rees,34:50,03:36,0:28:30.7
104,3701,Nigel,Preston,35:30,03:31,0:27:51.1
105,86,Fraser,Walsh,37:10,03:19,0:26:16.1
