place,first,last,start,pace,est Time
1,Pam,Holland,00:00,7:0,53:12
2,Ali,Musk,02:10,6:43,51:03
3,Julie,Hogan,02:50,6:37,50:17
4,Julie,Everly,04:20,6:26,48:54
5,Michelle,Bieleny,05:00,6:20,48:08
6,Alan,East,05:30,6:17,47:45
7,Paul,Buncle,05:40,6:15,47:30
8,Marianne,Richardson,05:50,6:14,47:22
9,John,Doering,07:00,6:5,46:14
10,Michael,Turner,07:10,6:4,46:06
11,Megan,McDonald,07:10,6:3,45:59
12,Lisa,McDermid,07:40,6:0,45:36
13,Catherine,Pethybridge,07:40,6:0,45:36
14,Jodie,Scoble,07:40,6:0,45:36
15,Briana,Cowan,07:40,6:0,45:36
16,Stacey,Lonsdale,07:40,6:0,45:36
17,Millie,Lourie,07:50,5:58,45:21
18,Tracie,Gleisner,08:10,5:56,45:06
19,Joanne,Weatherhead,08:40,5:52,44:35
20,Carol,Sing,08:40,5:51,44:28
21,Simone,Healy,08:50,5:50,44:20
22,Melissa,Wilkie,08:50,5:50,44:20
23,Biljana,Ansted,09:00,5:49,44:12
24,Julia,Perez,09:00,5:49,44:12
25,Natalie,Watson,09:10,5:47,43:57
26,Fraser,Lourie,10:10,5:40,43:04
27,Kylie,Cheal,10:50,5:34,42:18
28,Maree,Platt,11:30,5:29,41:40
29,Gabby,Walsh,11:30,5:29,41:40
30,Troy,Davis,11:30,5:29,41:40
31,Alison,McCullagh,11:50,5:26,41:18
32,Maree,Reid,11:50,5:26,41:18
33,Noah,Walsh,12:00,5:25,41:10
34,Callum,Tucker,12:00,5:25,41:10
35,Angela,Slattery,12:10,5:24,41:02
36,Shann,Anderson,12:20,5:22,40:47
37,Frances,Walsh,12:20,5:22,40:47
38,Nicole,Richardson,13:00,5:18,40:17
39,Emma,Burke,13:00,5:17,40:09
40,Brad,Russell,13:00,5:17,40:09
41,John,Brewin,13:10,5:16,40:02
42,Kylie,Buchanan,13:10,5:16,40:02
43,Stacy,Hunter,13:30,5:13,39:39
44,Jackie,Tremayne,13:30,5:13,39:39
45,Laura,Terry,13:40,5:12,39:31
46,Scott,Roberts,13:50,5:11,39:24
47,Sam,Brewin,14:20,5:7,38:53
48,Janet,Hodnett,14:30,5:5,38:38
49,Penny,Spencer,14:40,5:4,38:30
50,Andrew,Evely,15:00,5:2,38:15
51,Jennifer,Lee,15:00,5:2,38:15
52,Laura,Reynolds,15:00,5:1,38:08
53,Justin,O'Brien,15:30,4:58,37:45
54,Genevieve,Green,15:50,4:55,37:22
55,Kim,Townrow,15:50,4:55,37:22
56,Jaclyn,Munge,16:10,4:52,36:59
57,Tina,McBain,16:20,4:51,36:52
58,Nick,Walsh,16:20,4:51,36:52
59,Melissa,Douglas,16:30,4:50,36:44
60,Shayne,Rushan,16:30,4:50,36:44
61,Conor,Cunningham,16:40,4:49,36:36
62,Leeza,Meharry,16:40,4:49,36:36
63,Matthew,Creer,16:40,4:48,36:29
64,Alison,Cartner,17:30,4:42,35:43
65,David,Heislers,17:30,4:42,35:43
66,Gary,Crouch,17:40,4:41,35:36
67,Brett,Houlden,17:40,4:41,35:36
68,Todd,Foster,17:40,4:40,35:28
69,Jenny,Buchanan,18:00,4:38,35:13
70,Maddy,Evely,18:10,4:37,35:05
71,Dan,Holland,18:10,4:36,34:58
72,Justin,Lee,18:10,4:36,34:58
73,Roy,Preece,18:10,4:36,34:58
74,Holly,Randall,18:10,4:36,34:58
75,Lisa,Wilkinson,18:10,4:36,34:58
76,Jarrah,O'Shea,18:20,4:35,34:50
77,Ingrid,Douglass,18:30,4:34,34:42
78,Emma,Moylan,18:40,4:33,34:35
79,Owen,Davies,19:00,4:30,34:12
80,Michael,Hogan,19:10,4:29,34:04
81,Rick,Jackel,19:10,4:29,34:04
82,Max,Pearse,19:20,4:28,33:57
83,Gavin,Fiedler,19:40,4:25,33:34
84,Greg,McBain,19:40,4:25,33:34
85,Alan,Buchanan,20:00,4:22,33:11
86,John,McCullagh,20:10,4:21,33:04
87,Georgie,Lanyon,20:20,4:20,32:56
88,Erica,Wilkinson,20:20,4:20,32:56
89,Aaron,Anderson,20:20,4:19,32:48
90,Ryan,Brook,20:30,4:18,32:41
91,Leon,Hamond,20:30,4:18,32:41
92,Scott,Alterater,21:00,4:14,32:10
93,Michael,Gibbon,21:10,4:13,32:03
94,Matthew,Heislers,21:20,4:12,31:55
95,Russell,Tremayne,21:30,4:10,31:40
96,Jeff,Pethybridge,22:00,4:6,31:10
97,Andrew,Creer,22:20,4:4,30:54
98,Tracy,Wilson,22:20,4:4,30:54
99,Russell,Jenkins,22:30,4:3,30:47
100,Brock,Prime,22:30,4:2,30:39
101,Rebecca,Tweed,22:30,4:2,30:39
102,Craig,Feuerherdt,22:40,4:1,30:32
103,Brian,Watson,22:40,4:1,30:32
104,Chris,McCormack,22:50,4:0,30:24
105,Jason,Fletcher,23:20,3:56,29:54
106,Andrew,Hosking,23:20,3:56,29:54
107,Jason,Sim,23:30,3:55,29:46
108,Charles,Chambers,23:50,3:52,29:23
109,Ben,McDermid,24:00,3:51,29:16
110,David,Tarrant,24:00,3:50,29:08
111,Troy,Cartner,24:10,3:49,29:00
112,Simon,Austin,24:30,3:47,28:45
113,Fraser,Walsh,24:30,3:46,28:38
114,Patrick,Kenny,24:40,3:45,28:30
115,Lee,McCullagh,24:40,3:45,28:30
116,Leon,Keely,25:00,3:42,28:07
117,Michael,Bieleny,25:10,3:41,28:00
118,Ross,McPhee,25:40,3:37,27:29
119,Luke,Hutchins,25:50,3:36,27:22
120,Bryan,Keely,26:30,3:31,26:44
121,Richard,Gleisner,27:00,3:27,26:13
122,Andrew,Buchanan,27:10,3:26,26:06