Place,Member,First,Last,Start,Pace,Est Time
1,257,Fin,Bray,00:00,07:59,0:25:32.8
2,383,Sharon,Carlson,00:50,07:45,0:24:48.0
3,212,Michelle,Parry,01:50,07:25,0:23:44.0
4,250,Tully,Cripps,02:50,07:06,0:22:43.2
5,338,Kathryn,Toomey,03:00,07:04,0:22:36.8
6,378,Aidan,Deacon,03:10,07:00,0:22:24.0
7,52,Leah,Cripps,03:40,06:50,0:21:52.0
8,155,Jasmine,Rielley,04:00,06:45,0:21:36.0
9,179,Paula,Rielley,04:00,06:45,0:21:36.0
10,146,David,Ashman,04:10,06:42,0:21:26.4
11,388,Abbey,Seaward,04:10,06:41,0:21:23.2
12,79,Liz,Stewart,04:20,06:40,0:21:20.0
13,304,Stephanie,Carlson,04:20,06:38,0:21:13.6
14,30,Amanda,Turnbull,04:50,06:28,0:20:41.6
15,374,Liam,Deacon,04:50,06:28,0:20:41.6
16,277,Luke,Feuerherdt,05:30,06:16,0:20:03.2
17,344,Tim,Hughan,05:40,06:13,0:19:53.6
18,290,Sabine,Stewart,05:50,06:12,0:19:50.4
19,136,Livinia,Douglass,05:50,06:11,0:19:47.2
20,239,Paula,a'Beckett,06:00,06:09,0:19:40.8
21,225,Lesley,Fabian,06:00,06:06,0:19:31.2
22,356,Lynley,McDonald,06:10,06:03,0:19:21.6
23,229,Harrison,Pitson,06:20,06:02,0:19:18.4
24,282,Anna,deVries,06:20,06:01,0:19:15.2
25,40,Aida,Escall,06:20,06:00,0:19:12.0
26,101,Paula,Saxon,06:20,06:00,0:19:12.0
27,173,Melanie,Cuzzillo,06:20,06:00,0:19:12.0
28,195,Luke,Creer,06:20,06:00,0:19:12.0
29,292,Jye,Ekanayake,06:30,05:59,0:19:08.8
30,316,Isabella,Makris,06:30,05:59,0:19:08.8
31,151,Jo,Williams,06:30,05:58,0:19:05.6
32,142,Zach,Condon,06:40,05:55,0:18:56.0
33,341,Greg,Toomey,06:40,05:55,0:18:56.0
34,347,Louise,Toomey,06:40,05:55,0:18:56.0
35,376,Sarah,Hadkins,06:40,05:55,0:18:56.0
36,380,Matthew,Hadkins,06:40,05:55,0:18:56.0
37,145,Joshua,Condon,07:00,05:50,0:18:40.0
38,174,Sam,Hancock,07:00,05:50,0:18:40.0
39,274,Avery,McDermid,07:00,05:48,0:18:33.6
40,43,Josephine,Robinson,07:10,05:47,0:18:30.4
41,284,Imogen,Stewart,07:10,05:47,0:18:30.4
42,310,Melanie,Makris,07:10,05:46,0:18:27.2
43,366,Kirsten,Hale,07:10,05:46,0:18:27.2
44,24,Karina,Bray,07:10,05:45,0:18:24.0
45,66,Megan,McDonald,07:10,05:45,0:18:24.0
46,98,Tanya,Fleming,07:10,05:45,0:18:24.0
47,237,Lou,Bray,07:10,05:45,0:18:24.0
48,242,Halle,Blake-Burrows,07:10,05:45,0:18:24.0
49,377,Juliet,Deacon,07:20,05:44,0:18:20.8
50,28,Mitchell,Bray,07:20,05:41,0:18:11.2
51,243,Max,Bray,07:30,05:40,0:18:08.0
52,150,Rebecca,Ashman,07:30,05:38,0:18:01.6
53,214,Amy,Sim,07:40,05:37,0:17:58.4
54,210,Fiona,Dangerfield,07:40,05:36,0:17:55.2
55,99,Oscar,Terry,07:40,05:35,0:17:52.0
56,157,Bec,Murphy,07:40,05:35,0:17:52.0
57,263,Narelle,McPhee,07:50,05:34,0:17:48.8
58,133,Gemma,McPhee,08:00,05:30,0:17:36.0
59,233,Sue,Condon,08:00,05:30,0:17:36.0
60,249,Will,Gleisner,08:10,05:28,0:17:29.6
61,11,Jane,McCaig,08:10,05:27,0:17:26.4
62,252,Jasmine,Murphy,08:20,05:25,0:17:20.0
63,269,Cooper,Charnas,08:20,05:25,0:17:20.0
64,297,Declan,Lavery,08:20,05:25,0:17:20.0
65,360,Phoebe,Martin,08:30,05:22,0:17:10.4
66,182,Hanna,Crane,08:30,05:21,0:17:07.2
67,149,Janelle,Giffin,08:30,05:20,0:17:04.0
68,164,Imogen,Thompson,08:40,05:19,0:17:00.8
69,134,Millicent,Woods,08:40,05:18,0:16:57.6
70,288,Kate,McIntosh,08:40,05:18,0:16:57.6
71,132,Tracie,Gleisner,08:50,05:15,0:16:48.0
72,152,Alannah,Rielley,08:50,05:15,0:16:48.0
73,193,Emily,Heislers,08:50,05:15,0:16:48.0
74,332,Nathan,Jones,08:50,05:15,0:16:48.0
75,228,Sam,Pitson,08:50,05:14,0:16:44.8
76,270,Tyler,Wilkie,09:00,05:12,0:16:38.4
77,32,Oliver,Turnbull,09:00,05:10,0:16:32.0
78,331,Scott,Roberts,09:00,05:10,0:16:32.0
79,26,Ryan,Brook,09:10,05:08,0:16:25.6
80,83,Sam,Stewart,09:20,05:05,0:16:16.0
81,300,Lucinda,Terry,09:20,05:05,0:16:16.0
82,361,Loch,Hale,09:20,05:04,0:16:12.8
83,156,Will,Murphy,09:30,05:03,0:16:09.6
84,364,David,Howes,09:30,05:02,0:16:06.4
85,240,Jenelle,Seaward,09:40,05:00,0:16:00.0
86,110,Holly,McPhee,09:40,04:59,0:15:56.8
87,325,Tom,Flood,09:40,04:59,0:15:56.8
88,253,Charlotte,Murphy,09:40,04:58,0:15:53.6
89,241,Andrea,Smith,09:50,04:57,0:15:50.4
90,400,Darren,Rowe,09:50,04:57,0:15:50.4
91,158,Annalise,Murphy,09:50,04:55,0:15:44.0
92,349,Nathaniel,McMaster,10:00,04:54,0:15:40.8
93,357,Xavier,Holmes,10:00,04:54,0:15:40.8
94,213,Phoebe,a'Beckett,10:00,04:51,0:15:31.2
95,295,Jeremy,Carlson,10:10,04:50,0:15:28.0
96,82,Sophie,Adamson,10:20,04:45,0:15:12.0
97,337,Steff,Roberts,10:20,04:45,0:15:12.0
98,342,Sarah,Cody,10:30,04:44,0:15:08.8
99,373,Shelley,Tuohey,10:30,04:44,0:15:08.8
100,29,Alison,Cartner,10:30,04:42,0:15:02.4
101,180,Lauren,Hancock,10:30,04:42,0:15:02.4
102,369,Stephen,Wainwright,10:40,04:41,0:14:59.2
103,184,Will,Crane,10:40,04:40,0:14:56.0
104,191,Phoebe,Lonsdale,10:50,04:38,0:14:49.6
105,259,Jasmine,Santley,10:50,04:37,0:14:46.4
106,314,Aaron,Hamilton,10:50,04:36,0:14:43.2
107,112,Jett,Grundy,11:00,04:35,0:14:40.0
108,201,Beatrice,Lonsdale,11:00,04:35,0:14:40.0
109,189,Tim,Creer,11:00,04:33,0:14:33.6
110,198,Matthew,Saxon,11:00,04:33,0:14:33.6
111,39,Melissa,Douglas,11:10,04:32,0:14:30.4
112,147,Lachlan,Feuerherdt,11:10,04:32,0:14:30.4
113,131,Carrisa,Brook,11:10,04:31,0:14:27.2
114,387,Connor,Bedson,11:10,04:31,0:14:27.2
115,162,Natalie,Jacobson,11:20,04:28,0:14:17.6
116,171,Oliver,Sanderson,11:20,04:28,0:14:17.6
117,215,Emerson,Sim,11:30,04:25,0:14:08.0
118,94,David,Lonsdale,11:30,04:24,0:14:04.8
119,221,Billy,Meade,11:30,04:24,0:14:04.8
120,339,James,Toomey,11:30,04:23,0:14:01.6
121,12,Josie,Aitken,11:40,04:21,0:13:55.2
122,177,Ben,Wilby,11:40,04:20,0:13:52.0
123,275,Max,Rowe,11:50,04:17,0:13:42.4
124,236,Harry,Seaward,12:00,04:15,0:13:36.0
125,78,Mark,Saxon,12:10,04:13,0:13:29.6
126,105,Toby,McCaig,12:10,04:13,0:13:29.6
127,161,Amelia,Evans,12:10,04:11,0:13:23.2
128,63,John,Robinson,12:20,04:10,0:13:20.0
129,224,Cooper,Hale,12:20,04:08,0:13:13.6
130,202,Callum,Tucker,12:30,04:07,0:13:10.4
131,114,Spencer,Evans,12:40,04:03,0:12:57.6
132,80,Bridie,Blake-Burrows,12:50,03:58,0:12:41.6
133,167,Jack,Meade,13:00,03:55,0:12:32.0
134,203,Tullie,Rowe,13:00,03:55,0:12:32.0
135,219,Wil,McCaig,13:20,03:51,0:12:19.2
136,33,Andrew,Creer,14:10,03:35,0:11:28.0
137,312,Jack,Hickman,14:40,03:26,0:10:59.2
138,46,Richard,Gleisner,14:50,03:23,0:10:49.6
139,115,Alexander,Evans,15:10,03:16,0:10:27.2
140,97,Adam,Fleming,15:10,03:15,0:10:24.0
141,48,Matthew,Heislers,15:40,03:07,0:09:58.4
