place,first,last,start,pace,est Time
1,Eric,Aardvark,00:00,7:0,48:18
2,Pam,Holand,00:00,7:0,48:18
3,Ali,Musk,01:20,6:49,47:02
4,Julie,Hogan,04:30,6:21,43:49
5,Verity,Perez,05:10,6:15,43:07
6,Natalie,Watson,05:30,6:12,42:47
7,Marianne,Richardson,05:50,6:10,42:33
8,Joanne,Weatherhead,06:50,6:0,41:24
9,Alan,East,07:00,5:59,41:17
10,Jodie,Scoble,07:00,5:59,41:17
11,Catherine,Pethybridge,07:10,5:57,41:03
12,John,Doering,07:30,5:55,40:50
13,Julia,Perez,08:00,5:50,40:15
14,John,Taylor,08:10,5:49,40:08
15,Melissa,Douglas,08:40,5:45,39:41
16,Maree,Reid,09:00,5:42,39:20
17,Maree,Platt,09:50,5:35,38:31
18,Sheridan,Hail,10:40,5:27,37:36
19,Wayne,Forbes,10:50,5:26,37:29
20,Harry,Terry,10:50,5:26,37:29
21,Andrew,Boshcetti,11:00,5:25,37:23
22,Noah,Walsh,11:00,5:24,37:16
23,Kylie,Cheal,11:00,5:25,37:23
24,Frances,Walsh,11:20,5:21,36:55
25,Gabby,Walsh,11:30,5:20,36:48
26,Angela,Slattery,11:40,5:18,36:34
27,Shann,Anderson,11:50,5:17,36:27
28,Helen,WeeHee,12:00,5:16,36:20
29,Emma,Burke,12:00,5:16,36:20
30,Nicole,Richardson,12:10,5:14,36:07
31,Brian,Brasher,12:30,5:12,35:53
32,Alison,McCullagh,12:30,5:11,35:46
33,Peter,Noble,12:30,5:12,35:53
34,Kevin,Perez,13:10,5:5,35:05
35,Jennifer,Lee,13:30,5:3,34:51
36,Penny,Spencer,13:40,5:1,34:37
37,Janet,Hodnett,13:50,4:59,34:23
38,Scott,Roberts,13:50,5:0,34:30
39,Laura,Terry,13:50,4:59,34:23
40,Andrew,Evely,13:50,4:59,34:23
41,Brad,Russell,14:00,4:58,34:16
42,Tina,McBain,14:10,4:57,34:09
43,David,Perris,14:10,4:57,34:09
44,John,Brewin,14:20,4:55,33:56
45,Genevieve,Green,14:20,4:55,33:56
46,Shayne,Rushan,14:20,4:55,33:56
47,Matt,Constable,14:40,4:52,33:35
48,Liz,Foster,14:40,4:52,33:35
49,Kim,Townrow,14:40,4:53,33:42
50,Scott,Padgham,14:50,4:51,33:28
51,Hayden,Brook,15:10,4:48,33:07
52,Maddy,Evely,15:20,4:46,32:53
53,Justin,O'Brien,15:20,4:46,32:53
54,Nick,Walsh,15:30,4:45,32:46
55,Brett,Houlden,15:40,4:44,32:40
56,Conor,Cunningham,15:50,4:42,32:26
57,Alison,Cartner,16:00,4:41,32:19
58,Roy,Preece,16:20,4:38,31:58
59,Maria,Slater,16:20,4:38,31:58
60,Steve,Corrie,16:30,4:36,31:44
61,Max,Pearse,16:30,4:37,31:51
62,Mark,Saxon,16:40,4:35,31:37
63,David,Heislers,16:50,4:33,31:24
64,Justin,Lee,16:50,4:34,31:31
65,Gary,Crouch,17:00,4:32,31:17
66,Jenny,Buchanan,17:20,4:29,30:56
67,Owen,Davies,17:20,4:30,31:03
68,Gavin,Fiedler,17:20,4:30,31:03
69,Greg,McBain,17:20,4:29,30:56
70,Emma,Moylan,17:20,4:30,31:03
71,Holly,Randall,17:20,4:30,31:03
72,Ingrid,Douglass,17:40,4:27,30:42
73,Todd,Foster,17:50,4:25,30:29
74,John,McCullagh,17:50,4:25,30:29
75,Alan,Buchanan,18:10,4:22,30:08
76,Erica,Wilkinson,18:10,4:22,30:08
77,Ryan,Brook,18:20,4:21,30:01
78,Aaron,Anderson,18:30,4:19,29:47
79,Leon,Hamond,18:30,4:19,29:47
80,Georgie,Lanyon,18:30,4:19,29:47
81,Michael,Hogan,18:40,4:18,29:40
82,Steve,Brereton,19:00,4:15,29:20
83,Josh,Hunter,19:10,4:14,29:13
84,Daniel,Vains,19:20,4:12,28:59
85,Scott,Alterator,19:30,4:11,28:52
86,Matthew,Heislers,19:40,4:9,28:38
87,Chris,McCormack,19:50,4:8,28:31
88,Jeff,Pethybridge,20:00,4:6,28:17
89,Russell,Tremayne,20:10,4:5,28:11
90,Andrew,Creer,20:20,4:3,27:57
91,Tracy,Wilson,20:30,4:2,27:50
92,Craig,Fuerherdt,20:40,4:0,27:36
93,Brock,Prime,20:40,4:0,27:36
94,Jim,Russell,21:00,3:57,27:15
95,Brian,Watson,21:00,3:58,27:22
96,Luke,Gregory,21:10,3:56,27:08
97,David,Tarrant,21:10,3:56,27:08
98,Rebecca,Tweed,21:10,3:56,27:08
99,Russell,Jenkins,21:20,3:55,27:02
100,Fraser,Walsh,21:20,3:55,27:02
101,Ben,McDermid,21:40,3:52,26:41
102,Jason,Sim,21:50,3:50,26:27
103,Jason,Fletcher,22:00,3:49,26:20
104,Lee,McCullagh,22:00,3:48,26:13
105,Troy,Cartner,22:00,3:49,26:20
106,Simon,Austin,22:10,3:47,26:06
107,Patrick,Kenny,22:20,3:46,25:59
108,Michael,Bieleny,23:10,3:39,25:11
109,Bryan,Keely,24:40,3:25,23:34
110,Richard,Gleisner,24:50,3:24,23:28
111,Andrew,Buchanan,25:50,3:16,22:32