PLACE,FIRST,LAST,TIME,PACE,CLUB
1,Matilda,Moore,0:30:08.1,04:01.1,HARRIERS
2,Sarah,Jalim,0:30:26.5,04:03.5,UNI
3,Tullie,Rowe,0:32:45.1,04:22.0,UNI
4,Alice,Wilkinson,0:33:19.7,04:26.6,HARRIERS
5,Clare,Montgomery,0:36:31.5,04:52.2,UNI
6,Anna,Christen,0:40:10.6,05:21.4,UNI
7,Nadene,Macdonald,0:42:37.9,05:41.1,HARRIERS
8,Janelle,Giffin,0:46:17.7,06:10.4,UNI
