PLACE, FIRST, LAST, TIME, PACE, CLUB
1,Sarah,Jalim,0:31:33.7,04:09.2,UNI
2,Anne,McIntosh,0:36:07.6,04:45.2,UNI
3,Melissa,Douglas,0:36:51.3,04:51.0,UNI
4,Andrea,Smith,0:37:07.7,04:53.1,UNI
5,Alison,Cartner,0:38:15.6,05:02.1,UNI
6,Trinity,Sanderson,0:38:44.3,05:05.8,UNI
7,Deanna,Marshall,0:40:55.9,05:23.1,UNI
8,Liz,Foster,0:41:42.0,05:29.2,UNI
9,Maree,Platt,0:41:47.5,05:29.9,UNI
10,Leah,Cripps,0:43:04.8,05:40.1,UNI
