first,last,start,pace,est Time
Shann,Anderson,00:00,5:42,42:45
Aaron,Anderson,00:00,4:20,32:30
Simon,Austin,00:00,3:45,28:07
Carl,Bailey,00:00,5:39,42:22
Ian,Beckerleg,00:00,5:20,40:00
Michael,Bieleny,00:00,3:38,27:15
Damien,Bilsborrow,00:00,4:59,37:22
Mac,Biner,00:00,3:58,29:45
Gervase,Birt,00:00,4:36,34:30
Andrew,Boshcetti,00:00,5:30,41:15
Brian,Brasher,00:00,5:8,38:30
Steve,Brereton,00:00,4:15,31:52
John,Brewin,00:00,4:46,35:45
Sam,Brewin,00:00,4:54,36:45
Ryan,Brooke,00:00,4:23,32:52
Hayden,Brooke,00:00,4:48,36:00
Jenny,Buchanan,00:00,4:26,33:15
Alan,Buchanan,00:00,4:25,33:08
Andrew,Buchanan,00:00,3:16,24:30
Drew,Cahill,00:00,5:55,44:23
Lilly,Cahill,00:00,6:59,52:23
Alison,Cartner,00:00,4:45,35:37
Greg,Christy,00:00,5:30,41:15
Matt,Constable,00:00,4:50,36:15
Jamie,Cook,00:00,3:55,29:22
Steve,Corrie,00:00,4:28,33:30
Andrew,Creer,00:00,4:30,33:45
Gary,Crouch,00:00,4:36,34:30
Owen,Davies,00:00,4:30,33:45
Tony,DiPace,00:00,4:24,33:00
John,Doering,00:00,5:55,44:23
Melissa,Douglas,00:00,6:1,45:08
Ingrid,Douglass,00:00,4:40,35:00
Steve,Durkin,00:00,4:31,33:52
Alan,East,00:00,6:15,46:53
Jarrod,Epps,00:00,3:59,29:52
Madeleine,Evely,00:00,4:15,31:52
Josh,Evely,00:00,4:21,32:37
Gavin,Fiedler,00:00,4:16,32:00
Jason,Fletcher,00:00,3:50,28:45
Wayne,Forbes,00:00,5:24,40:30
Liz,Foster,00:00,4:50,36:15
Todd,Foster,00:00,4:25,33:08
Ian,Frost,00:00,4:35,34:22
Craig,Fruerherdt,00:00,4:10,31:15
Tony,Gellatly,00:00,5:1,37:37
Jodie,Giles,00:00,5:2,37:45
Richard,Gleisner,00:00,3:16,24:30
Genevieve,Green,00:00,4:54,36:45
Luke,Gregory,00:00,3:54,29:15
Sheridan,Hail,00:00,5:19,39:52
Leon,Hamond,00:00,4:19,32:22
Chris,Hamond,00:00,5:0,37:30
Loretta,Hanns,00:00,5:56,44:30
Trevor,Hanns,00:00,4:53,36:37
Patrick,Hartney,00:00,4:43,35:22
Joe,Hartney,00:00,4:36,34:30
Tyson,Hawke,00:00,5:5,38:07
David,Heislers,00:00,4:30,33:45
Janet,Hodnett,00:00,4:54,36:45
Julie,Hogan,00:00,6:43,50:22
Michael,Hogan,00:00,4:17,32:07
Brett,Houlden,00:00,4:40,35:00
Tom,Houlden,00:00,4:25,33:08
Rachel,Howe,00:00,5:10,38:45
Craig,Hunter,00:00,4:49,36:07
Catherine,Hunter,00:00,6:21,47:38
Josh,Hunter,00:00,4:8,31:00
Rick,Jackal,00:00,3:59,29:52
Russell,Jenkins,00:00,4:37,34:38
Jennifer,Jones,00:00,5:0,37:30
Jo-Anne,Keely,00:00,4:12,31:30
Bryan,Keely,00:00,3:25,25:37
Patrick,Kenny,00:00,3:46,28:15
Justin,Lee,00:00,4:30,33:45
Phil,Lloyd,00:00,5:8,38:30
Navec,Lorkin,00:00,4:54,36:45
Sam,MacLeod,00:00,5:56,44:30
Andrew,Mason,00:00,4:14,31:45
Greg,McBain,00:00,4:22,32:45
Tina,McBain,00:00,5:0,37:30
Angus,McCormack,00:00,5:31,41:22
Chris,McCormack,00:00,4:9,31:08
Lee,McCullagh,00:00,3:40,27:30
Alison,McCullagh,00:00,5:0,37:30
John,McCullagh,00:00,4:8,31:00
Ben,McDermid,00:00,4:4,30:30
Steve,McDougal,00:00,4:18,32:15
Paul,McMahon,00:00,4:31,33:52
Leeza,Meharry,00:00,4:39,34:53
Thomas,Mosley,00:00,4:31,33:52
Emma,Moylan,00:00,4:46,35:45
Jaclyn,Munge,00:00,4:33,34:07
Brendan,Munge,00:00,4:4,30:30
Len,Nally,00:00,5:4,38:00
Chris,Naunton,00:00,3:45,28:07
Mike,Neilson,00:00,4:4,30:30
Peter,Noble,00:00,5:6,38:15
David,Ottrey,00:00,4:16,32:00
Scott,Padgham,00:00,4:49,36:07
Danny,Padgham,00:00,5:24,40:30
Verity,Perez,00:00,6:2,45:15
Kevin,Perez,00:00,5:0,37:30
David,Perris,00:00,4:59,37:22
Jeff,Pethybridge,00:00,4:22,32:45
Roy,Preece,00:00,4:56,37:00
Scott,Roberts,00:00,4:42,35:15
John,Rose,00:00,4:14,31:45
Lucy,Ruck,00:00,5:2,37:45
Shayne,Rushan,00:00,5:8,38:30
Brad,Russell,00:00,5:12,39:00
Jim,Russell,00:00,3:52,29:00
Mark,Saxon,00:00,4:35,34:22
Jodie,Scoble,00:00,5:21,40:07
Aaron,Semmens,00:00,4:20,32:30
Jason,Sim,00:00,3:42,27:45
Maria,Slater,00:00,4:38,34:45
Ned,Slater,00:00,4:39,34:53
Harriette,Slater,00:00,5:0,37:30
Angela,Slattery,00:00,5:20,40:00
Peter,Sykes,00:00,4:39,34:53
David,Tarrant,00:00,4:0,30:00
John,Taylor,00:00,5:52,44:00
Harry,Terry,00:00,5:15,39:22
Laura,Terry,00:00,4:58,37:15
Jackie,Tremayne,00:00,5:11,38:53
Chris,Tremayne,00:00,4:57,37:07
Russell,Tremayne,00:00,4:0,30:00
Cameron,Turnbull,00:00,4:23,32:52
Rebecca,Tweed,00:00,4:2,30:15
Daniel,Vains,00:00,4:11,31:22
Gabby,Walsh,00:00,5:15,39:22
Frances,Walsh,00:00,4:57,37:07
Fraser,Walsh,00:00,3:53,29:07
Lilly,Walsh,00:00,5:19,39:52
Xavier,Walsh,00:00,4:23,32:52
Nick,Walsh,00:00,4:38,34:45
Natalie,Watson,00:00,5:58,44:45
Brian,Watson,00:00,4:0,30:00
Helen,WeeHee,00:00,5:15,39:22
Lisa,Wilkinson,00:00,4:38,34:45
Erica,Wilkinson,00:00,4:15,31:52
Jessey,Wilson,00:00,6:27,48:22
Tracy,Wilson,00:00,4:18,32:15
Mikhaela,Wilson,00:00,5:32,41:30
Ella,Wright,00:00,5:55,44:23