Place,First,Last,NET Time,Pace,Diff
1,Sam,Hancock,0:04:47.4,04:47,-00:48.6
2,Phoebe,Martin,0:04:27.2,04:27,-00:41.8
3,Jasmine,Murphy,0:04:18.5,04:18,-00:29.5
4,Lucy,McCaig,0:04:11.1,04:11,-00:21.9
5,Jonty,McDermid,0:04:54.5,04:54,-00:20.5
6,Harry,Cripps,0:04:58.5,04:59,-00:19.5
7,Samuel,Preston,0:06:50.1,06:50,-00:18.9
8,Lewis,Lonsdale,0:04:01.5,04:01,-00:16.5
9,William,Robinson,0:03:55.1,03:55,-00:15.9
10,Elliot,Lavery,0:05:18.1,05:18,-00:13.9
11,April,Wainwright,0:05:32.2,05:32,-00:11.8
12,Annabel,Hancock,0:05:31.9,05:32,-00:11.1
13,Avery,McDermid,0:04:17.0,04:17,-00:10.0
14,Olivia,Douglas,0:05:21.2,05:21,-00:04.8
15,Genevieve,Robinson,0:07:15.3,07:15,-00:04.7
16,Declan,Lavery,0:04:48.1,04:48,+00:04.1
17,Will,deVries,0:04:41.7,04:42,+00:06.7
18,Tully,Cripps,0:06:02.3,06:02,+00:27.3
19,Ruby,Douglas,0:06:52.8,06:53,+00:27.8
20,Poppy,Wainwright,0:05:53.9,05:54,+00:28.9
NEW,Anna,deVries,0:04:55.7,04:56
NEW,Gus,Edwards,0:05:37.6,05:38
