Place,First,Last,NET Time,Pace,Diff
1,Scott,Butcher,0:22:16.7,06:33,-04:55.3
2,Janine,Butcher,0:25:01.6,07:22,-02:10.4
3,Luke,Creer,0:18:52.7,05:33,-01:04.1
4,Wil,McCaig,0:12:01.0,03:32,-00:44.0
5,John,Robinson,0:13:57.5,04:06,-00:19.3
6,Renelle,McManus,0:20:24.3,06:00,-00:16.7
7,Floyd,Cartner,0:14:30.5,04:16,-00:03.3
8,Bec,Lacy,0:19:18.0,05:41,+00:02.0
9,Charlotte,Murphy,0:15:59.5,04:42,+00:07.5
10,Tullie,Rowe,0:13:48.5,04:04,+00:12.5
11,Toby,McCaig,0:14:08.4,04:10,+00:32.4
12,Ebony,Butcher,0:18:24.6,05:25,+00:37.0
13,Bridie,Blake-Burrows,0:14:13.4,04:11,+00:37.4
14,Tim,Creer,0:15:29.2,04:33,+00:45.2
15,Phoebe,Lonsdale,0:17:04.1,05:01,+01:18.9
16,Melissa,Douglas,0:15:43.2,04:37,+01:33.2
17,Phoebe,Martin,0:20:49.9,06:08,+02:01.1
18,Beatrice,Lonsdale,0:17:45.5,05:13,+02:10.5
19,Rebecca,Ashman,0:23:05.2,06:47,+02:34.4
20,Abbey,Cartner,0:21:55.1,06:27,+05:49.5
NEW,Kevin,deVries,0:19:04.6,05:37
NEW,Ben,McDermid,0:13:47.1,04:03
NEW,Lesley,Fabian,0:21:26.6,06:18
NEW,Avery,McDermid,0:20:12.2,05:57
