place,first,last,start,pace,est Time
1,Pam,Holland,00:00,7:0,56:00
2,Natalie,Thomas,00:20,6:57,55:36
3,Ali,Musk,02:20,6:43,53:44
4,Aida,Escall,02:30,6:41,53:28
5,Karlee,Thorpe,02:40,6:40,53:20
6,Julie,Hogan,03:00,6:37,52:56
7,Lisa,McDermid,03:30,6:34,52:32
8,Alan,East,04:30,6:26,51:28
9,Julie,Everly,05:20,6:20,50:40
10,Michelle,Bieleny,05:30,6:19,50:32
11,John,Doering,06:10,6:14,49:52
12,Marianne,Richardson,06:10,6:14,49:52
13,Megan,McDonald,07:30,6:4,48:32
14,Catherine,Pethybridge,07:40,6:3,48:24
15,Jodie,Scoble,08:00,6:0,48:00
16,Millie,Lourie,08:20,5:58,47:44
17,Tracie,Gleisner,08:30,5:56,47:28
18,Briana,Cowan,08:40,5:55,47:20
19,Mikaela,Wilson,08:40,5:55,47:20
20,Jessey,Wilson,08:40,5:55,47:20
21,Stacey,Lonsdale,08:50,5:54,47:12
22,Natalie,Watson,08:50,5:54,47:12
23,Carol,Sing,09:00,5:53,47:04
24,Joanne,Weatherhead,09:00,5:52,46:56
25,Simone,Healy,09:20,5:50,46:40
26,Ellie,Wilson,09:20,5:50,46:40
27,Biljana,Ansted,09:30,5:49,46:32
28,Julia,Perez,09:30,5:49,46:32
29,Lisa,Bortolotto,10:00,5:45,46:00
30,Michael,Turner,10:20,5:43,45:44
31,Troy,Davis,10:20,5:43,45:44
32,Janet,Hodnett,10:20,5:42,45:36
33,Lilly,Walsh,10:40,5:40,45:20
34,Frances,Walsh,11:00,5:38,45:04
35,Amy,Munro,12:00,5:30,44:00
36,Callum,Tucker,12:00,5:30,44:00
37,Jodie,Giles,12:00,5:30,44:00
38,Gabby,Walsh,12:10,5:29,43:52
39,Alison,McCullagh,12:30,5:26,43:28
40,Maree,Platt,12:30,5:26,43:28
41,Noah,Walsh,12:40,5:25,43:20
42,Angela,Slattery,13:00,5:22,42:56
43,Melissa,Wilkie,13:10,5:21,42:48
44,Shann,Anderson,13:20,5:20,42:40
45,John,Brewin,13:40,5:18,42:24
46,Emma,Burke,13:40,5:17,42:16
47,Laura,Terry,13:40,5:17,42:16
48,Kylie,Buchanan,13:50,5:16,42:08
49,Kylie,Cheal,13:50,5:16,42:08
50,Holly,Randall,14:00,5:15,42:00
51,Nicole,Richardson,14:00,5:15,42:00
52,Paul,Buncle,14:00,5:15,42:00
53,Jason,Finch,14:00,5:15,42:00
54,James,Everist,14:00,5:15,42:00
55,Harry,Everist,14:00,5:15,42:00
56,Stacy,Hunter,14:20,5:13,41:44
57,Jackie,Tremayne,14:20,5:13,41:44
58,Scott,Roberts,14:30,5:11,41:28
59,Justin,O'Brien,14:40,5:10,41:20
60,Maree,Reid,14:40,5:10,41:20
61,Brad,Russell,15:00,5:8,41:04
62,Sam,Brewin,15:00,5:7,40:56
63,Penny,Spencer,15:30,5:4,40:32
64,Andrew,Evely,15:40,5:2,40:16
65,Jennifer,Lee,15:40,5:2,40:16
66,Laura,Reynolds,15:50,5:1,40:08
67,Nick,Walsh,15:50,5:1,40:08
68,Conor,Cunningham,16:00,5:0,40:00
69,Fraser,Lourie,16:00,5:0,40:00
70,Tina,McBain,16:40,4:55,39:20
71,Kim,Townrow,16:40,4:55,39:20
72,Leeza,Meharry,16:40,4:55,39:20
73,Jaclyn,Munge,17:00,4:52,38:56
74,Shayne,Rushan,17:10,4:51,38:48
75,Melissa,Douglass,17:40,4:47,38:16
76,Alison,Cartner,18:10,4:44,37:52
77,Genevieve,Green,18:20,4:42,37:36
78,Brett,Houlden,18:30,4:41,37:28
79,Todd,Foster,18:40,4:40,37:20
80,Justin,Lee,18:40,4:40,37:20
81,David,Heislers,19:00,4:37,36:56
82,Ingrid,Douglass,19:10,4:36,36:48
83,Dan,Holland,19:10,4:36,36:48
84,Roy,Preece,19:10,4:36,36:48
85,Lisa,Wilkinson,19:10,4:36,36:48
86,Jenny,Buchanan,19:20,4:35,36:40
87,Matthew,Creer,19:20,4:35,36:40
88,Emma,Moylan,19:40,4:33,36:24
89,Gary,Crouch,19:40,4:32,36:16
90,Maddy,Evely,19:50,4:31,36:08
91,Gavin,Fiedler,19:50,4:31,36:08
92,Owen,Davies,20:00,4:30,36:00
93,John,McCullagh,20:00,4:30,36:00
94,Jarrah,O'Shea,20:00,4:30,36:00
95,Michael,Hogan,20:10,4:29,35:52
96,Greg,McBain,20:10,4:29,35:52
97,Georgie,Lanyon,20:40,4:25,35:20
98,Mark,Saxon,20:50,4:24,35:12
99,Alan,Buchanan,21:00,4:22,34:56
100,Leon,Hamond,21:00,4:22,34:56
101,Erica,Wilkinson,21:20,4:20,34:40
102,Rick,Jackel,21:20,4:20,34:40
103,Max,Pearse,21:40,4:18,34:24
104,Travis,Kelly,21:40,4:18,34:24
105,Ryan,Brook,21:50,4:16,34:08
106,Scott,Alterater,22:10,4:14,33:52
107,Michael,Gibbon,22:20,4:13,33:44
108,Aaron,Anderson,22:20,4:12,33:36
109,Jeff,Pethybridge,22:20,4:12,33:36
110,Rebecca,Tweed,22:20,4:12,33:36
111,Russell,Tremayne,23:00,4:8,33:04
112,Chris,McCormack,23:20,4:5,32:40
113,Jim,Russell,23:20,4:5,32:40
114,Russell,Jenkins,23:40,4:3,32:24
115,Craig,Feuerherdt,23:40,4:2,32:16
116,Brock,Prime,23:40,4:2,32:16
117,Brian,Watson,23:50,4:1,32:08
118,Tracy,Wilson,24:10,3:59,31:52
119,Ben,McDermid,24:20,3:58,31:44
120,Andrew,Creer,24:30,3:56,31:28
121,Jason,Fletcher,24:30,3:56,31:28
122,Matthew,Heislers,24:40,3:55,31:20
123,Jason,Sim,24:40,3:55,31:20
124,Andrew,Hosking,24:50,3:54,31:12
125,Charles,Chambers,25:00,3:53,31:04
126,Luke,Crameri,25:00,3:52,30:56
127,David,Tarrant,25:20,3:50,30:40
128,Troy,Cartner,25:30,3:49,30:32
129,Simon,Austin,25:40,3:47,30:16
130,Patrick,Kenny,26:00,3:45,30:00
131,Lee,McCullagh,26:10,3:44,29:52
132,Fraser,Walsh,26:20,3:42,29:36
133,Michael,Bieleny,26:30,3:41,29:28
134,Leon,Keely,26:40,3:40,29:20
135,Ross,McPhee,27:00,3:37,28:56
136,Luke,Hutchins,27:10,3:36,28:48
137,Bryan,Keely,28:00,3:30,28:00
138,Richard,Gleisner,28:20,3:28,27:44
139,Andrew,Buchanan,28:50,3:24,27:12