PLACE,NAME,PACE,TIME,GUESS,DIFF
1,Brian Watson,03:55,0:37:09.3,0:37:12.5,+00:03.2
2,Rick Ermel,04:44,0:44:54.0,0:44:48.5,-00:05.5
3,David Heislers,04:44,0:44:58.2,0:45:07.5,+00:09.3
4,Shayne Rushan,05:43,0:54:16.5,0:54:28.0,+00:11.5
5,Maree Platt,05:32,0:52:33.3,0:52:15.0,-00:18.3
6,Darren Rowe,06:02,0:57:19.3,0:57:00.0,-00:19.3
7,Aaron Norton,04:48,0:45:31.5,0:45:55.0,+00:23.5
8,Rebecca Wilkinson,04:33,0:43:09.6,0:42:45.0,-00:24.6
9,Wil McCaig,04:13,0:40:04.2,0:39:35.0,-00:29.2
10,Renelle McManus,06:26,1:01:10.7,1:01:45.0,+00:34.3
11,Janice Walker,06:26,1:01:10.6,1:01:45.0,+00:34.4
12,Craig Feuerherdt,04:15,0:40:20.0,0:41:00.5,+00:40.5
13,Josephine Robinson,05:53,0:55:55.7,0:55:06.0,-00:49.7
14,Chris Giffin,04:20,0:41:13.3,0:42:07.0,+00:53.7
15,David Lonsdale,04:21,0:41:18.9,0:42:16.5,+00:57.6
16,Gavin Fiedler,05:34,0:52:49.7,0:53:50.0,+01:00.3
17,Ross Douglas,05:08,0:48:42.3,0:47:39.5,-01:02.8
18,Andrea Smith,06:16,0:59:32.1,1:00:38.5,+01:06.4
19,Alison Cartner,04:59,0:47:16.0,0:48:27.0,+01:11.0
20,Kevin deVries,05:14,0:49:43.0,0:50:59.0,+01:16.0
21,Craig Green,04:05,0:38:48.2,0:37:31.5,-01:16.7
22,Janelle Giffin,06:03,0:57:32.1,0:55:44.0,-01:48.1
23,Darren Hartland,04:07,0:39:10.4,0:41:10.0,+01:59.6
24,Aida Escall,06:15,0:59:24.7,1:01:45.0,+02:20.3
25,Greg McBain,04:59,0:47:22.4,0:44:48.5,-02:33.9
26,Philip Shambrook,05:42,0:54:05.4,0:56:50.5,+02:45.1
27,Sue Taylor,06:18,0:59:51.5,1:03:20.0,+03:28.5
28,Charles Chambers,05:25,0:51:29.2,0:55:25.0,+03:55.8
29,Ben McDermid,04:34,0:43:20.3,0:47:30.0,+04:09.7
