PLACE,FIRST,LAST,RACES,POINTS
1,Darren,Rowe,12,438
2,Ben,McDermid,12,434
3,Josephine,Robinson,12,427
4,Chris,Giffin,12,415
5,Greg,Carter,11,395
6,Paul,Lomax,12,384
7,Michael,Bieleny,9,372
8,Alison,Cartner,13,356
9,David,Lonsdale,11,353
10,Shayne,Rushan,9,340
11,Kevin,deVries,10,333
12,Jon,McIntosh,9,323
13,David,Howes,8,316
14,Ross,Douglas,10,301
15,Justin,Lee,12,300
16,Alan,Buchanan,7,287
17,Philip,Shambrook,8,281
18,Sue,Taylor,8,279
19,Sarah,Jalim,8,275
20,David,Cripps,7,264
21,Tim,Lauder,7,258
22,Leah,Cripps,9,247
23,Maree,Platt,8,241
24,Janelle,Giffin,8,223
25,Andrea,Smith,8,218
26,Gavin,Fiedler,7,218
27,Clare,Montgomery,7,212
28,Danny,Burgess,7,210
29,Craig,Green,5,209
30,Jeremy,Draper,6,204
31,David,Heislers,6,187
32,Tim,Lovell,6,182
33,Stephen,Wainwright,6,181
34,Rebecca,Wilkinson,6,178
35,Jenny,Buchanan,6,170
36,Karl,Lanyon,4,169
37,Darren,Hartland,5,167
38,Frances,Walsh,5,159
39,Simon,Hunt,5,158
40,Brian,Watson,4,157
41,Trinity,Sanderson,6,157
42,Angus,McPherson,4,150
43,Rik,McCaig,4,142
44,Ashlee,Diston,4,133
45,Renelle,McManus,5,131
46,Greg,McBain,4,126
47,Travis,Edwards,4,101
48,Kathleen,Pleasants,3,100
49,Andrew,Creer,3,97
50,Vicki,Bayliss,3,91
51,Troy,Davis,3,91
52,Melissa,Wilkie,3,89
53,Craig,Feuerherdt,3,88
54,Charles,Chambers,3,85
55,Georgie,Lanyon,3,80
56,Beth,Lavery,3,74
57,Nigel,Preston,3,72
58,Lauren,Hancock,2,71
59,Alan,East,2,62
60,Megan,McDonald,3,55
61,Justin,O'Brien,2,46
62,Emma,Gibbons,2,43
63,Fraser,Walsh,2,43
64,Stephen,Van Rees,2,41
65,James,Toomey,2,39
66,Andrew,Wilkie,1,36
67,Finn,MacGregor,2,33
68,Anne,McIntosh,1,31
69,Tina,McBain,1,25
70,Taylor,Lovell,2,19
71,Alex,Trantor,1,0
72,Matthew,Creer,1,0
73,Jarrod,Eps,1,0
74,Lukas,Jara,1,0
75,Alistair,Stewart,1,0
76,Chloe,Green,1,0
77,Peter,King,1,0
78,Mark,Logan,1,0
79,Jay,Sanderson,1,0
80,Conor,Cunningham,1,0
