PLACE,FIRST,LAST,RACES,POINTS
1,Tullie,Rowe,13,137
2,Floyd,Cartner,11,126
3,Bridie,Blake-Burrows,7,123
4,Max,Rowe,12,119
5,Charlotte,Murphy,8,100
6,Ben,McDermid,5,97
7,Connor,Bedson,7,93
8,Melissa,Douglas,7,91
9,Abbey,Cartner,10,83
10,Tanner,Fear,6,83
11,Phoebe,Lonsdale,9,81
12,Beatrice,Lonsdale,13,80
13,Lachlan,Feuerherdt,7,79
14,Jazlin,Fear,7,74
15,Toby,McCaig,4,69
16,John,Robinson,6,67
17,Wil,McCaig,3,60
18,Tim,Creer,4,54
19,Oliver,Sanderson,3,51
20,Danny,Burgess,6,40
21,Justin,Lee,3,29
22,Avery,McDermid,6,29
23,David,Cripps,4,28
24,Tyler,Wilkie,4,26
25,Bec,Lacy,9,25
26,Bec,Woodward,9,25
27,Kevin,deVries,3,22
28,Phoebe,Martin,5,22
29,Lewis,Lonsdale,2,20
30,Craig,Feuerherdt,1,20
31,Mark,Saxon,3,19
32,Jonty,McDermid,4,18
33,James,Toomey,1,17
34,Finn,MacGregor,1,17
35,Anne,McIntosh,2,17
36,Kyle,Butcher,1,17
37,Matthew,Saxon,2,17
38,Ashlee,Diston,1,16
39,Stephen,Wainwright,1,15
40,Gus,MacGregor,1,15
41,Anna,Christen,2,14
42,Chloe,Green,4,14
43,Mason,Woodward,3,14
44,Jake,Wight,1,13
45,Kayla,McManus,1,12
46,Jaron,Ekanayake,1,12
47,Andrea,Smith,1,12
48,Emerson,Sim,2,10
49,Trent,Bayliss,3,10
50,Luke,Creer,4,9
51,Harry,Seaward,1,9
52,Will,deVries,3,9
53,Gabrielle,Dean,2,8
54,William,Robinson,2,8
55,Fiona,Preston,2,8
56,Ebony,Butcher,3,8
57,Beth,Lavery,1,7
58,Lesley,Fabian,6,7
59,Tanya,Fleming,7,7
60,Jason,Sim,1,7
61,Gavin,Fiedler,1,6
62,Lachlan,Edwards,2,5
63,Hamish,Draper,5,5
64,Travis,Edwards,3,4
65,Genevieve,Draper,6,4
66,Amy,Sim,1,4
67,Gus,Edwards,2,4
68,Aida,Escall,3,4
69,Ross,Douglas,1,4
70,Taylor,Lovell,1,3
71,Matthew,Creer,1,3
72,Renelle,McManus,5,3
73,Amelia,Mitchell,6,3
74,Justine,Rowe,1,3
75,Lou,Bray,1,2
76,Alan,East,1,2
77,Alistair,Stewart,1,2
78,Tim,Lovell,1,2
79,Mathilda,Stewart,5,2
80,Greg,Toomey,3,1
81,Craig,Green,1,1
82,Rebecca,Ashman,3,1
83,Scott,Butcher,2,0
84,Will,Murphy,1,0
85,Megan,McDonald,2,0
86,Leah,Cripps,3,0
87,Fiona,Dangerfield,1,0
88,Natasha,Dean,1,0
89,Kathleen,Pleasants,1,0
90,Trinity,Sanderson,1,0
91,Lynley,McDonald,5,0
92,Janine,Butcher,3,0
93,Kim,Carter,2,0
94,Louise,Toomey,2,0
95,Harry,Cripps,1,0
96,Isabelle,Draper,3,0
97,Angus,McPherson,1,0
