PLACE,FIRST,LAST,RACES,POINTS
1,Mason,Woodward,1,20
2,William,Trew,1,19
3,Floyd,Cartner,1,18
4,Lewis,Lonsdale,1,17
5,Luke,Feuerherdt,1,16
6,Avery,McDermid,1,15
7,Joshua,Feuerherdt,1,14
8,Jonty,McDermid,1,13
9,Ebony,Woodward,1,12
10,Abbey,Cartner,1,11
11,William,Robinson,1,9
12,Logan,Beesley,1,8
13,Zac Firli,Firli,1,7
14,April,Wainwright,1,6
15,Kayla,McManus,1,5
16,Skylar,Woodward,1,4
17,Eryn,McManus,1,3
18,Lily,Sanderson,1,2
19,Alice,McIntosh,1,0
20,Genevieve,Robinson,1,0
21,Ruby,Douglas,1,0
22,Tom,Roberts,1,0
23,Braxton,Safstrom,1,0
24,Xavier,Marwood,1,0
25,Savannah,Marwood,1,0
26,Louise,Firli,1,0
27,Miriam,Niblett,1,0
28,Jemma,Carter,1,0
29,Liam,Carter,1,0
30,Ellie,Beesley,1,0
31,Chloe,Beesley,1,0
32,Sebastian,Stewart,1,0
