PLACE,FIRST,LAST,RACES,POINTS
1,Tullie,Rowe,1,20
2,Phoebe,Lonsdale,1,19
3,Max,Rowe,1,18
4,Ben,McDermid,1,17
5,William,Robinson,1,16
6,David,Cripps,1,15
7,Mason,Woodward,1,14
8,Andrea,Smith,1,13
9,Avery,McDermid,1,10
10,William,Trew,1,9
11,Tanner,Fear,1,8
12,Charlotte,Murphy,1,7
13,Mumtaz,Hussain,1,6
14,Kane,Safstrom,1,5
15,Ebony,Woodward,1,4
16,Ethan,Marwood,1,3
17,Jonty,McDermid,1,2
18,Lisa,Wilkinson,1,1
19,Ross,Douglas,1,0
20,Geoffrey,Robinson,1,0
21,Harry,Cripps,1,0
22,Leah,Cripps,1,0
23,Liz,Stewart,1,0
24,Renelle,McManus,1,0
25,Lesley,Fabian,1,0
26,Poppy,Wainwright,1,0
27,Tully,Cripps,1,0
28,Jasmine,Murphy,1,0
29,Joshua,Feuerherdt,1,0
30,Luke,Feuerherdt,1,0
31,Will,de Vries,1,0
32,Anna,de Vries,1,0
33,Imogen,Stewart,1,0
34,Lynley,McDonald,1,0
35,Lewis,McIntosh,1,0
36,Melinda,Marwood,1,0
37,Jodie,McLeod,1,0
38,Scott ,McLeod,1,0
39,Sarah,Trew,1,0
40,Dean,Trew,1,0
41,Kale,Beesley,1,0
42,Hannah,Niblett,1,0
43,Jazlin,Fear,1,0
44,Bec,Woodward,1,0
45,Kim,Carter,1,0
46,Logan,Beesley,1,0
