PLACE,FIRST,LAST,TIME,PACE,CLUB
1,Chelsea,Tickell,0:04:30.8,04:30.8,SOUTH BENDIGO
2,Jasmine,Murphy,0:04:56.9,04:56.9,UNI
3,Poppy,Wainwright,0:05:21.1,05:21.1,UNI
4,Ebony,Woodward,0:05:46.8,05:46.8,UNI
5,Olivia,Douglas,0:07:25.7,07:25.7,UNI
