PLACE,FIRST,LAST,TIME,PACE,CLUB
1,Mason,Woodward,0:04:18.9,04:18.9,UNI
2,William,Robinson,0:04:20.2,04:20.2,UNI
3,Lewis,Lonsdale,0:04:20.8,04:20.8,UNI
4,Lachlan,Feuerherdt,0:04:30.5,04:30.5,UNI
5,Avery,McDermid,0:04:33.8,04:33.8,UNI
6,Asher,Bowe,0:04:36.0,04:36.0,SOUTH BENDIGO
7,Jaron,Ekanayake,0:04:38.9,04:38.9,UNI
8,Luke,Feuerherdt,0:04:38.9,04:38.9,UNI
9,Joshua,Feuerherdt,0:04:44.4,04:44.4,UNI
10,Levi,Bowe,0:04:54.9,04:54.9,SOUTH BENDIGO
11,Will,de Vries,0:05:11.9,05:11.9,UNI
12,Logan,Beesley,0:05:13.3,05:13.3,UNI
13,Jonty,McDermid,0:05:17.6,05:17.6,UNI
14,Harry,Cripps,0:05:46.4,05:46.4,UNI
15,Geoffrey,Robinson,0:06:41.0,06:41.0,UNI
16,Chole,Beesley,0:06:43.0,06:43.0,UNI
17,Nate,Oxlade,0:07:35.8,07:35.8,OTHER
18,Samuel,Preston,0:08:36.7,08:36.7,UNI
19,Toby,Preston,0:09:03.7,09:03.7,UNI
