Place,First,Last,NET Time,Pace,Diff
1,Harry,Cripps,0:05:00.1,05:00,+00:04.1
2,Jonty,McDermid,0:05:07.1,05:07,+00:13.1
3,Avery,McDermid,0:04:40.1,04:40,+00:23.1
4,Poppy,Wainwright,0:05:10.0,05:10,+00:25.0
5,April,Wainwright,0:05:55.2,05:55,+00:28.2
6,Liam,Carter,0:06:45.4,06:45,+00:34.4
7,Jasmine,Murphy,0:04:55.4,04:55,+00:37.4
8,Tully,Cripps,0:06:06.6,06:07,+00:45.6
9,Jemma,Carter,0:06:41.2,06:41,+01:01.2
10,Olivia,Douglas,0:06:39.3,06:39,+01:18.3
11,Ruby,Douglas,0:07:49.6,07:50,+01:30.6
