Place,Member,First,Last,Start,Pace,Est Time
1,3782,Owen,Draper,00:00,07:59,0:35:55.5
2,3748,Amelia,Mitchell,02:00,07:34,0:34:03.0
3,1038,Xavier,Marwood,02:40,07:24,0:33:18.0
4,3708,Janine,Butcher,02:50,07:22,0:33:09.0
5,44,Geoffrey,Robinson,03:10,07:17,0:32:46.5
6,3750,Genevieve,Draper,04:10,07:04,0:31:48.0
7,3781,Hamish,Draper,05:20,06:50,0:30:45.0
8,2,Alan,East,05:30,06:46,0:30:27.0
9,3749,Isabella,Draper,06:10,06:38,0:29:51.0
10,3709,Scott,Butcher,06:30,06:33,0:29:28.5
11,3720,Bec,Woodward,06:50,06:29,0:29:10.5
12,347,Louise,Toomey,07:00,06:26,0:28:57.0
13,3776,Kathleen,Pleasants,07:00,06:26,0:28:57.0
14,356,Lynley,McDonald,07:10,06:25,0:28:52.5
15,150,Rebecca,Ashman,07:50,06:15,0:28:07.5
16,1039,Melinda,Marwood,08:00,06:14,0:28:03.0
17,341,Greg,Toomey,08:10,06:12,0:27:54.0
18,1049,Georgie,Gibbons,08:20,06:09,0:27:40.5
19,100,Justine,Rowe,08:30,06:07,0:27:31.5
20,159,Renelle,McManus,08:40,06:05,0:27:22.5
21,3779,Mathilda,Stewart,08:40,06:05,0:27:22.5
22,210,Fiona,Dangerfield,09:00,06:01,0:27:04.5
23,1019,Christopher,Epworth,09:00,06:01,0:27:04.5
24,3729,Fiona,Preston,09:00,06:01,0:27:04.5
25,50,Harry,Cripps,09:10,05:57,0:26:46.5
26,237,Lou,Bray,09:20,05:55,0:26:37.5
27,3741,Kim,Carter,09:20,05:55,0:26:37.5
28,98,Tanya,Fleming,09:30,05:54,0:26:33.0
29,1060,William,Trew,09:30,05:54,0:26:33.0
30,149,Janelle,Giffin,09:40,05:51,0:26:19.5
31,225,Lesley,Fabian,09:40,05:50,0:26:15.0
32,277,Luke,Feuerherdt,09:50,05:49,0:26:10.5
33,43,Josephine,Robinson,10:00,05:47,0:26:01.5
34,397,Taylor,Lovell,10:00,05:47,0:26:01.5
35,157,Bec,Lacy,10:10,05:45,0:25:52.5
36,40,Aida,Escall,10:10,05:44,0:25:48.0
37,156,Will,Murphy,10:10,05:44,0:25:48.0
38,3716,Gus,Edwards,10:20,05:43,0:25:43.5
39,66,Megan,McDonald,10:30,05:39,0:25:25.5
40,3777,Alistair,Stewart,10:50,05:35,0:25:07.5
41,214,Amy,Sim,11:00,05:34,0:25:03.0
42,3783,Zacch,Martin,11:00,05:34,0:25:03.0
43,1002,Tammy,Fear,11:10,05:32,0:24:54.0
44,1033,Sal,Ekanayake,11:10,05:32,0:24:54.0
45,3722,Natasha,Dean,11:10,05:31,0:24:49.5
46,398,Angus,McPherson,11:20,05:30,0:24:45.0
47,3706,Ebony,Butcher,11:20,05:30,0:24:45.0
48,52,Leah,Cripps,11:20,05:28,0:24:36.0
49,3703,Trent,Bayliss,11:30,05:26,0:24:27.0
50,220,Ella,Meharry,11:40,05:25,0:24:22.5
51,1015,Miller,Armstrong,11:40,05:24,0:24:18.0
52,251,Beth,Lavery,11:50,05:23,0:24:13.5
53,1017,Scott,Broad,12:00,05:21,0:24:04.5
54,281,Will,de Vries,12:00,05:20,0:24:00.0
55,54,Kevin,de Vries,12:00,05:19,0:23:55.5
56,16,Jennifer,Lee,12:10,05:18,0:23:51.0
57,236,Harry,Seaward,12:10,05:18,0:23:51.0
58,359,Anne,McIntosh,12:10,05:18,0:23:51.0
59,3721,Gabrielle,Dean,12:40,05:12,0:23:24.0
60,78,Mark,Saxon,12:40,05:11,0:23:19.5
61,1016,Noah,Armstrong,12:40,05:11,0:23:19.5
62,29,Alison,Cartner,12:40,05:10,0:23:15.0
63,195,Luke,Creer,12:40,05:10,0:23:15.0
64,252,Jasmine,Murphy,12:40,05:10,0:23:15.0
65,305,Jonty,McDermid,12:40,05:10,0:23:15.0
66,1030,Ella,Smith,12:40,05:10,0:23:15.0
67,13,Gavin,Fiedler,12:50,05:09,0:23:10.5
68,95,Jason,Sim,12:50,05:08,0:23:06.0
69,215,Emerson,Sim,13:00,05:07,0:23:01.5
70,360,Phoebe,Martin,13:00,05:07,0:23:01.5
71,1012,Danny,Breen,13:00,05:06,0:22:57.0
72,400,Darren,Rowe,13:10,05:05,0:22:52.5
73,198,Matthew,Saxon,13:20,05:03,0:22:43.5
74,3715,Chloe,Green,13:20,05:02,0:22:39.0
75,3785,Jake,Wight,13:30,04:59,0:22:25.5
76,22,Ross,Douglas,13:40,04:58,0:22:21.0
77,270,Tyler,Wilkie,13:40,04:58,0:22:21.0
78,274,Avery,McDermid,13:40,04:58,0:22:21.0
79,3793,Anna,Christen,14:00,04:54,0:22:03.0
80,34,Mathew,Creer,14:10,04:51,0:21:49.5
81,267,Kayla,McManus,14:20,04:49,0:21:40.5
82,3735,Travis,Edwards,14:20,04:48,0:21:36.0
83,9,Trinity,Sanderson,14:30,04:46,0:21:27.0
84,296,Ashlee,Diston,14:30,04:46,0:21:27.0
85,1020,Mumtaz,Hussain,14:30,04:46,0:21:27.0
86,292,Jye,Ekanayake,14:40,04:45,0:21:22.5
87,1051,Kane,Safstrom,14:40,04:45,0:21:22.5
88,1037,Ethen,Marwood,14:40,04:44,0:21:18.0
89,266,Lewis,Lonsdale,15:00,04:41,0:21:04.5
90,272,Abbey,Cartner,15:00,04:41,0:21:04.5
91,1013,Jonte,Breen,15:20,04:36,0:20:42.0
92,241,Andrea,Smith,15:20,04:35,0:20:37.5
93,109,Tim,Lovell,15:30,04:33,0:20:28.5
94,55,Justin,Lee,15:40,04:31,0:20:19.5
95,201,Beatrice,Lonsdale,15:40,04:31,0:20:19.5
96,254,William,Robinson,15:40,04:31,0:20:19.5
97,3707,Kyle,Butcher,15:40,04:31,0:20:19.5
98,3745,Gus,MacGregor,15:40,04:30,0:20:15.0
99,387,Connor,Bedson,15:50,04:29,0:20:10.5
100,3713,Jazlin,Fear,15:50,04:29,0:20:10.5
101,147,Lachlan,Feuerherdt,15:50,04:28,0:20:06.0
102,244,Jaron,Ekanayake,16:00,04:27,0:20:01.5
103,3717,Lachlan,Edwards,16:00,04:27,0:20:01.5
104,3738,Mason,Woodward,16:00,04:27,0:20:01.5
105,3744,Finn,MacGregor,16:00,04:27,0:20:01.5
106,39,Melissa,Douglas,16:10,04:24,0:19:48.0
107,191,Phoebe,Lonsdale,16:20,04:23,0:19:43.5
108,369,Stephen,Wainwright,16:20,04:23,0:19:43.5
109,339,James,Toomey,16:20,04:22,0:19:39.0
110,350,David,Cripps,16:20,04:22,0:19:39.0
111,253,Charlotte,Murphy,16:30,04:20,0:19:30.0
112,386,Danny,Burgess,16:30,04:20,0:19:30.0
113,189,Tim,Creer,16:40,04:17,0:19:16.5
114,3714,Tanner,Fear,16:50,04:15,0:19:07.5
115,80,Bridie,Blake-Burrows,17:10,04:11,0:18:49.5
116,105,Toby,McCaig,17:20,04:10,0:18:45.0
117,169,Floyd,Cartner,17:20,04:08,0:18:36.0
118,1029,James,Trew,17:20,04:08,0:18:36.0
119,63,John,Robinson,17:40,04:04,0:18:18.0
120,275,Max,Rowe,18:00,04:00,0:18:00.0
121,203,Tullie,Rowe,18:00,03:59,0:17:55.5
122,308,Chris,Giffin,18:00,03:59,0:17:55.5
123,1036,Harry,Wright,18:10,03:57,0:17:46.5
124,1061,Tarli,Bird,18:20,03:55,0:17:37.5
125,33,Andrew,Creer,18:30,03:54,0:17:33.0
126,84,Craig,Green,18:30,03:53,0:17:28.5
127,65,Ben,McDermid,18:40,03:51,0:17:19.5
128,171,Oliver,Sanderson,18:40,03:51,0:17:19.5
129,42,Craig,Feuerherdt,18:50,03:49,0:17:10.5
130,1031,Jack,Milligan,19:10,03:45,0:16:52.5
131,219,Wil,McCaig,19:50,03:35,0:16:07.5
