1;AAAA-1048;0000-00-00;00:00:32.566;;94;-39;228428
2;AAAA-1064;0000-00-00;00:01:02.034;;67;-39;b558d3
3;AABM-3751;0000-00-00;00:01:02.236;;70;-43;a063e4
4;AACT-390;0000-00-00;00:01:12.651;;46;-49;3385e4
5;AABM-3782;0000-00-00;00:01:12.799;;88;-41;9c0971
6;AAAA-1062;0000-00-00;00:01:12.921;;66;-43;f656aa
7;562;0000-00-00;00:01:17.170;11573;19;-67;8fe189
8;539;0000-00-00;00:01:17.449;11573;79;-66;b5ff42
9;562;0000-00-00;00:01:22.806;11573;128;-44;60950c
10;539;0000-00-00;00:01:22.939;11573;104;-47;7ee1b7
11;AACT-400;0000-00-00;00:01:23.911;;120;-44;44848a
12;AAAA-1035;0000-00-00;00:01:52.020;;105;-41;35ac37
13;AAAA-1042;0000-00-00;00:02:02.313;;84;-49;7a776d
14;AABM-3750;0000-00-00;00:02:02.314;;92;-41;b535b2
15;AABM-3752;0000-00-00;00:02:12.021;;72;-41;12ac01
16;AABM-3749;0000-00-00;00:02:12.340;;82;-44;62d7dd
17;577;0000-00-00;00:02:18.300;11573;3;-68;e27bb1
18;AABM-3736;0000-00-00;00:02:22.482;;44;-49;492ce8
19;AACT-381;0000-00-00;00:02:22.482;;36;-47;608f3b
20;AAAA-1038;0000-00-00;00:02:32.041;;122;-44;f1e60d
21;AACT-305;0000-00-00;00:02:51.717;;54;-45;0a4f68
22;281;0000-00-00;00:02:52.062;11573;67;-44;799909
23;AABM-3753;0000-00-00;00:02:52.242;;60;-43;ba3c55
24;274;0000-00-00;00:03:02.016;11573;94;-42;6a028c
25;AAAA-1055;0000-00-00;00:03:02.139;;44;-45;580124
26;AABM-3737;0000-00-00;00:03:02.421;;64;-48;ce3636
27;244;0000-00-00;00:03:11.558;11573;76;-43;8dae9e
28;276;0000-00-00;00:03:12.284;11573;64;-35;2817a1
29;277;0000-00-00;00:03:12.497;11573;86;-38;b2f7ef
30;266;0000-00-00;00:03:21.478;11573;87;-29;05f431
31;AABM-3738;0000-00-00;00:03:31.515;;99;-46;50640c
32;AAAA-1060;0000-00-00;00:03:41.483;;58;-49;b03044
33;AAAA-1029;0000-00-00;00:03:41.548;;61;-44;acb738
34;AABM-3749;0000-00-00;00:07:10.169;;90;-50;9fe7e2
35;AACT-390;0000-00-00;00:07:12.132;;96;-47;031408
36;AAAA-1055;0000-00-00;00:07:13.232;;106;-47;412ae9
37;AAAA-1048;0000-00-00;00:07:14.559;;128;-43;d8b0c9
38;274;0000-00-00;00:07:15.340;11573;118;-35;45c657
39;AACT-305;0000-00-00;00:07:17.890;;140;-42;08e26e
40;AACT-400;0000-00-00;00:07:19.823;;82;-44;0d4779
41;AAAA-1035;0000-00-00;00:07:21.388;;124;-44;3277f3
42;AACT-381;0000-00-00;00:07:22.561;;127;-39;b4bb4a
43;AABM-3738;0000-00-00;00:07:23.103;;106;-42;bf0a9f
44;266;0000-00-00;00:07:24.320;11573;96;-34;82dc5e
45;277;0000-00-00;00:07:26.520;11573;117;-42;94e5ff
46;AAAA-1029;0000-00-00;00:07:30.170;;97;-43;928b4d
47;AAAA-1060;0000-00-00;00:07:31.124;;62;-50;b16898
48;244;0000-00-00;00:07:37.320;11573;86;-40;573fc8
49;AABM-3753;0000-00-00;00:07:38.262;;86;-45;501262
50;276;0000-00-00;00:07:38.580;11573;58;-41;04e80c
51;AAAA-1042;0000-00-00;00:07:38.835;;102;-42;c510ba
52;AAAA-1062;0000-00-00;00:07:42.921;;128;-41;963cd8
53;281;0000-00-00;00:07:47.800;11573;144;-39;c45236
54;AABM-3751;0000-00-00;00:07:48.707;;111;-47;f6d2ed
55;AABM-3737;0000-00-00;00:07:49.621;;114;-38;292f2e
56;AABM-3736;0000-00-00;00:07:52.280;;50;-45;9ac1b3
57;AAAA-1038;0000-00-00;00:08:00.156;;80;-43;c98b70
58;AABM-3752;0000-00-00;00:08:04.035;;64;-42;5ecc9f
59;AAAA-1064;0000-00-00;00:08:04.555;;88;-40;f4b934
60;AABM-3750;0000-00-00;00:08:30.668;;128;-48;8f8128
61;562;0000-00-00;00:08:45.505;11573;216;-49;fb4ed7
62;562;0000-00-00;00:08:50.626;11573;54;-67;34dcee
63;562;0000-00-00;00:08:55.934;11573;119;-62;d58fbb
64;539;0000-00-00;00:08:57.089;11573;254;-49;6dce96
65;577;0000-00-00;00:09:09.505;11573;200;-45;54cb59
66;AABM-3782;0000-00-00;00:09:26.949;;169;-38;59c1b3
