place,first,last,net Time,diff
1,Luke,Feuerherdt,5:36,- 1:04
2,Luke,Creer,5:26,- 0:33
3,Lachlan,Feuerherdt,5:03,- 0:29
4,Max,Rowe,5:22,- 0:18
5,Manny,Rose,6:36,- 0:19
6,Floyd,Cartner,4:26,- 0:09
7,Tim,Creer,4:57,- 0:01
8,Jake,Lyons,4:13,+ 0:03
9,Nellie,Rose,5:51,+ 0:16
10,Oscar,Terry,6:22,+ 0:27
11,Lucinda,Terry,6:46,+ 0:54
12,Jasmine,Terry,6:49,+ 0:54
13,Lewis,Lonsdale,7:41,+ 1:01