place,first,last,start,pace,est Time
1,Eric,Aardvark,00:00,8:0,28:48
2,Sarah,Cunningham,01:50,7:30,27:00
3,Imogen,Douglass,03:30,7:2,25:19
4,Jayden,Walsh,04:50,6:40,24:00
5,Anna,Hindson,05:20,6:30,23:24
6,Heather,Robson,05:40,6:25,23:06
7,Tracie,Gleisner,06:20,6:15,22:30
8,Bella,Livingston,06:40,6:10,22:12
9,Lucy,Terry,06:40,6:8,22:05
10,Lachlan,Walsh,06:40,6:10,22:12
11,Will,Gleisner,06:40,6:10,22:12
12,Isabella,Douglass,07:10,6:0,21:36
13,Houston,Pearse,07:10,6:0,21:36
14,Sayku,Hamond,07:10,6:0,21:36
15,Sol,Musk,07:10,6:0,21:36
16,Imogen,Thompson,07:20,5:57,21:25
17,Harry,Terry,07:20,5:57,21:25
18,Megan,McDonald,07:30,5:54,21:14
19,Madlen,Hearne,07:30,5:55,21:18
20,Julie,Evely,07:40,5:53,21:11
21,Amber,Lyons,08:10,5:43,20:35
22,Ross,Douglas,08:30,5:39,20:20
23,Morgan,Dunn,08:40,5:35,20:06
24,Emily,Heislers,09:00,5:30,19:48
25,Beatrice,Lonsdale,09:00,5:30,19:48
26,Winnie,Hamond,09:00,5:30,19:48
27,Bronte,Walsh,09:20,5:25,19:30
28,Joanne,Weatherhead,09:20,5:25,19:30
29,Amy,Sim,09:30,5:23,19:23
30,Murray,Cordell,09:40,5:20,19:12
31,Zac,Walsh,09:50,5:16,18:58
32,James,Kealy,09:50,5:16,18:58
33,Bailey,Dunn,10:10,5:10,18:36
34,Sayyu,Hamond,10:10,5:10,18:36
35,Biljana,Ansted,10:30,5:5,18:18
36,Carissa,Brooke,10:40,5:3,18:11
37,Alister,Brasher,10:50,5:0,18:00
38,Tullie,Rowe,10:50,5:0,18:00
39,Chris,Hamond,10:50,5:0,18:00
40,Greg,Christie,11:10,4:55,17:42
41,Floyd,Cartner,11:10,4:55,17:42
42,Scott,Roberts,11:20,4:52,17:31
43,Sebastian,Rowe,11:20,4:52,17:31
44,Matisse,Perez,11:30,4:49,17:20
45,Noah,Walsh,11:30,4:48,17:17
46,Luke,Padgham,11:40,4:45,17:06
47,Liz,Foster,11:40,4:45,17:06
48,Brad,Russell,11:40,4:45,17:06
49,Steffany,Roberts,12:00,4:40,16:48
50,Will,Kenny,12:00,4:40,16:48
51,Shaina,Brooke,12:00,4:40,16:48
52,Blaze,Houlden,12:20,4:35,16:30
53,Jordan,Doherty,12:40,4:30,16:12
54,Roy,Preece,12:50,4:25,15:54
55,Bweku,Hamond,12:50,4:25,15:54
56,Tobias,Ansted,12:50,4:25,15:54
57,Callum,Tucker,13:00,4:23,15:47
58,David,Lonsdale,13:10,4:20,15:36
59,Jack,Cripps,13:40,4:13,15:11
60,Riley,Walsh,13:40,4:12,15:07
61,Leon,Hamond,13:50,4:10,15:00
62,Madeleine,Evely,14:20,4:0,14:24
63,Jordan,Buckell,14:40,3:55,14:06
64,Ned,Buckell,14:40,3:55,14:06
65,John,Rose,14:50,3:52,13:55
66,Mathew,Buckell,14:50,3:52,13:55
67,Jacob,Buckell,15:20,3:45,13:30
68,Pat,Kenny,15:40,3:40,13:12
69,Matthew,Heislers,16:30,3:26,12:22
70,Fraser,Walsh,16:30,3:25,12:18