place,first,last,start,pace,est Time
1,$ Pam,Holland,00:00,7:0,00:12
2,Natalie,Thomas,00:00,7:0,00:12
3,$ Ali,Musk,02:30,6:43,57:46
4,Karlee,Thorpe,02:50,6:40,57:20
5,$ Julie,Hogan,03:20,6:37,56:54
6,Lisa,McDermid,03:40,6:34,56:28
7,Alan,East,04:50,6:26,55:20
8,$ Julie,Everly,05:40,6:20,54:28
9,$ Aida,Escall,06:00,6:18,54:11
10,John,Doering,06:40,6:14,53:36
11,$ Marianne,Richardson,06:40,6:14,53:36
12,Michelle,Bieleny,07:10,6:10,53:02
13,Megan,McDonald,08:10,6:3,52:02
14,Catherine,Pethybridge,08:20,6:2,51:53
15,$ Cara,Smith,08:20,6:2,51:53
16,$ Jodie,Scoble,08:40,6:0,51:36
17,Millie,Lourie,08:50,5:58,51:19
18,Stacey,Lonsdale,09:00,5:57,51:10
19,Tracie,Gleisner,09:10,5:56,51:02
20,$ Briana,Cowan,09:20,5:55,50:53
21,$ Mikaela,Wilson,09:20,5:55,50:53
22,$ Jessey,Wilson,09:20,5:55,50:53
23,$ Joanne,Weatherhead,09:40,5:52,50:27
24,Danni,Adams,09:40,5:52,50:27
25,Janet,Hodnett,09:50,5:51,50:19
26,$ Simone,Healy,10:00,5:50,50:10
27,$ Ellie,Wilson,10:00,5:50,50:10
28,$ Biljana,Ansted,10:10,5:49,50:01
29,$ Julia,Perez,10:10,5:49,50:01
30,Natalie,Watson,10:30,5:47,49:44
31,$ Lisa,Bortolotto,10:30,5:47,49:44
32,Michael,Turner,11:00,5:43,49:10
33,Troy,Davis,11:00,5:43,49:10
34,Carol,Sing,11:20,5:41,48:53
35,$ Lilly,Walsh,11:30,5:40,48:44
36,$ Amy,Munro,12:50,5:30,47:18
37,Callum,Tucker,12:50,5:30,47:18
38,Maree,Platt,13:00,5:29,47:09
39,$ Gabby,Walsh,13:00,5:29,47:09
40,$ Alison,McCullagh,13:30,5:26,46:44
41,Frances,Walsh,13:30,5:26,46:44
42,$ Noah,Walsh,13:40,5:25,46:35
43,Melissa,Wilkie,13:50,5:24,46:26
44,Angela,Slattery,14:00,5:22,46:09
45,Shann,Anderson,14:20,5:20,45:52
46,Nicole,Richardson,14:20,5:20,45:52
47,$ John,Brewin,14:40,5:18,45:35
48,$ Emma,Burke,14:50,5:17,45:26
49,Laura,Terry,14:50,5:17,45:26
50,Kylie,Buchanan,14:50,5:16,45:18
51,Kylie,Cheal,15:00,5:15,45:09
52,$ Holly,Randall,15:00,5:15,45:09
53,Jodie,Giles,15:00,5:15,45:09
54,$ James,Everist,15:00,5:15,45:09
55,$ Harry,Everist,15:00,5:15,45:09
56,$ Stacy,Hunter,15:20,5:13,44:52
57,$ Jackie,Tremayne,15:20,5:13,44:52
58,$ Scott,Roberts,15:40,5:11,44:35
59,Maree,Reid,15:50,5:10,44:26
60,Paul,Buncle,15:50,5:10,44:26
61,Justin,O'Brien,16:00,5:8,44:09
62,$ Sam,Brewin,16:10,5:7,44:00
63,Brad,Russell,16:10,5:7,44:00
64,$ Rory,Weightman,16:30,5:5,43:43
65,$ Penny,Spencer,16:40,5:4,43:34
66,$ Andrew,Evely,16:50,5:2,43:17
67,Jennifer,Lee,16:50,5:2,43:17
68,$ Laura,Reynolds,17:00,5:1,43:09
69,$ Nick,Walsh,17:00,5:1,43:09
70,$ Conor,Cunningham,17:10,5:0,43:00
71,Fraser,Lourie,17:50,4:56,42:26
72,Tina,McBain,18:00,4:55,42:17
73,$ Kim,Townrow,18:00,4:55,42:17
74,$ Melissa,Douglas,18:00,4:54,42:08
75,Shayne,Rushan,18:00,4:54,42:08
76,Leeza,Meharry,18:00,4:54,42:08
77,$ Jaclyn,Munge,18:20,4:52,41:51
78,Alison,Cartner,19:20,4:45,40:51
79,Jenny,Buchanan,19:50,4:42,40:25
80,Genevieve,Green,19:50,4:42,40:25
81,$ Brett,Houlden,20:00,4:41,40:17
82,Justin,Lee,20:00,4:41,40:17
83,Roy,Preece,20:00,4:41,40:17
84,Jason,Finch,20:00,4:41,40:17
85,$ Todd,Foster,20:00,4:40,40:08
86,Ingrid,Douglass,20:20,4:38,39:51
87,David,Heislers,20:30,4:37,39:42
88,Matthew,Creer,20:30,4:37,39:42
89,$ Dan,Holland,20:40,4:36,39:34
90,$ Lisa,Wilkinson,20:40,4:36,39:34
91,Gary,Crouch,21:00,4:34,39:16
92,$ Emma,Moylan,21:00,4:33,39:08
93,$ Owen,Davies,21:30,4:30,38:42
94,Jarrah,O'Shea,21:30,4:30,38:42
95,George,Thomas,21:30,4:30,38:42
96,$ Andrew,Mason,21:30,4:30,38:42
97,$ Maddy,Evely,21:40,4:29,38:33
98,$ Michael,Hogan,21:40,4:29,38:33
99,Greg,McBain,21:50,4:28,38:25
100,Gavin,Fiedler,22:00,4:27,38:16
101,John,McCullagh,22:00,4:26,38:08
102,Mark,Saxon,22:00,4:26,38:08
103,Georgie,Lanyon,22:20,4:24,37:50
104,Alan,Buchanan,22:30,4:23,37:42
105,Leon,Hamond,22:40,4:22,37:33
106,$ Erica,Wilkinson,23:00,4:20,37:16
107,Rick,Jackel,23:00,4:20,37:16
108,Travis,Kelly,23:00,4:20,37:16
109,Ryan,Brook,23:20,4:17,36:50
110,$ Max,Pearse,23:40,4:15,36:33
111,$ Scott,Alterater,23:50,4:14,36:24
112,$ Michael,Gibbon,24:00,4:13,36:16
113,Rebecca,Tweed,24:00,4:13,36:16
114,Aaron,Anderson,24:00,4:12,36:07
115,Jeff,Pethybridge,24:30,4:9,35:41
116,$ Russell,Tremayne,24:40,4:8,35:33
117,Jim,Russell,25:10,4:5,35:07
118,$ Russell,Jenkins,25:20,4:3,34:50
119,Chris,McCormack,25:20,4:3,34:50
120,Craig,Feuerherdt,25:30,4:2,34:41
121,$ Brock,Prime,25:30,4:2,34:41
122,Brian,Watson,25:40,4:1,34:33
123,Ben,McDermid,25:50,4:0,34:24
124,Tracy,Wilson,26:00,3:59,34:15
125,$ Charles,Chambers,26:10,3:58,34:07
126,Andrew,Creer,26:20,3:56,33:50
127,Jason,Fletcher,26:20,3:56,33:50
128,Matthew,Heislers,26:30,3:55,33:41
129,$ Jason,Sim,26:30,3:55,33:41
130,Jordan,Adams,26:30,3:55,33:41
131,Andrew,Hosking,26:50,3:53,33:24
132,$ Luke,Crameri,27:00,3:52,33:15
133,$ David,Tarrant,27:10,3:50,32:58
134,Troy,Cartner,27:20,3:49,32:49
135,$ Simon,Austin,27:40,3:47,32:32
136,$ Patrick,Kenny,28:00,3:45,32:15
137,Lee,McCullagh,28:00,3:45,32:15
138,Michael,Bieleny,28:20,3:42,31:49
139,$ Leon,Keely,28:40,3:40,31:32
140,$ Ross,McPhee,29:10,3:37,31:06
141,$ Luke,Hutchins,29:10,3:36,30:58
142,Fraser,Walsh,30:00,3:31,30:15
143,Richard,Gleisner,30:10,3:30,30:06
144,$ Bryan,Keely,30:10,3:30,30:06
145,Andrew,Buchanan,30:50,3:25,29:23