place,first,last,net Time,diff
1,Jake,Lyons,5:22,- 1:08
2,Pheobe,Lonsdale,6:19,- 0:41
3,Eliza,Christie,6:02,- 0:22
4,Brodie,Hartland,4:24,- 0:06
5,Nellie,Rose,6:07,- 0:08
6,Beatrice,Lonsdale,5:09,+ 0:03
7,Luke,Padgham,4:01,+ 0:01
8,Emerson,Sim,6:28,+ 0:08
9,Vincent,Weatherhead,5:49,+ 0:07
10,Steffany,Roberts,4:41,+ 0:14
11,Noah,Walsh,4:34,+ 0:12
12,Brayden,Roberts,4:35,+ 0:10
13,James,Kealy,4:58,+ 0:18
14,Jayden,Padgham,5:52,+ 0:32
15,Olivia,Kealy,7:42,+ 0:42
16,Owen,Brasher,7:08,+ 0:58
17,Tara,Anderson,10:11,+ 2:41