Place,Member,First,Last,Start,Pace,Est Time
1,2,Alan,East,01:10,06:53,1:05:23.5
2,3715,Chloe,Green,04:00,06:35,1:02:32.5
3,145,Joshua,Condon,05:30,06:25,1:00:57.5
4,66,Megan,McDonald,05:50,06:23,1:00:38.5
5,3776,Kathleen,Pleasants,07:00,06:16,0:59:32.0
6,397,Taylor,Lovell,08:10,06:08,0:58:16.0
7,37,John,Doering,08:30,06:06,0:57:57.0
8,159,Renelle,McManus,08:40,06:05,0:57:47.5
9,35,Conor,Cunningham,10:10,05:56,0:56:22.0
10,57,Adam,Henderson,10:20,05:55,0:56:12.5
11,77,Brad,Russell,10:20,05:55,0:56:12.5
12,43,Josephine,Robinson,11:00,05:51,0:55:34.5
13,149,Janelle,Giffin,11:00,05:50,0:55:25.0
14,197,Sue,Taylor,11:10,05:49,0:55:15.5
15,233,Sue,Condon,11:20,05:48,0:55:06.0
16,334,Alex,Trantor,11:20,05:48,0:55:06.0
17,68,Justin,O'Brien,11:40,05:46,0:54:47.0
18,3732,Emma,Gibbons,12:00,05:44,0:54:28.0
19,6,Shayne,Rushan,12:10,05:43,0:54:18.5
20,392,Mark,Logan,12:20,05:42,0:54:09.0
21,3777,Alistair,Stewart,12:30,05:41,0:53:59.5
22,111,Troy,Davis,12:40,05:40,0:53:50.0
23,186,Jason,Anderton,12:40,05:40,0:53:50.0
24,87,Frances,Walsh,13:10,05:37,0:53:21.5
25,251,Beth,Lavery,14:20,05:30,0:52:15.0
26,40,Aida,Escall,14:20,05:30,0:52:15.0
27,299,Jay,Sanderson,14:20,05:29,0:52:05.5
28,16,Jennifer,Lee,14:30,05:28,0:51:56.0
29,81,Laura,Terry,14:40,05:27,0:51:46.5
30,91,Melissa,Wilkie,14:40,05:27,0:51:46.5
31,400,Darren,Rowe,14:40,05:27,0:51:46.5
32,210,Fiona,Dangerfield,14:50,05:26,0:51:37.0
33,321,Brett,Houlden,15:00,05:25,0:51:27.5
34,398,Angus,McPherson,15:00,05:25,0:51:27.5
35,331,Scott,Roberts,15:10,05:24,0:51:18.0
36,339,James,Toomey,16:00,05:19,0:50:30.5
37,52,Leah,Cripps,16:20,05:17,0:50:11.5
38,74,Maree,Platt,16:40,05:15,0:49:52.5
39,370,James,Deacon,16:50,05:14,0:49:43.0
40,180,Lauren,Hancock,17:10,05:12,0:49:24.0
41,22,Ross,Douglas,17:40,05:08,0:48:46.0
42,3747,Jeremy,Draper,17:40,05:08,0:48:46.0
43,364,David,Howes,17:50,05:07,0:48:36.5
44,54,Kevin,deVries,18:00,05:06,0:48:27.0
45,13,Gavin,Fiedler,18:10,05:05,0:48:17.5
46,34,Matthew,Creer,19:30,04:57,0:47:01.5
47,363,Philippa,Morris,19:40,04:56,0:46:52.0
48,29,Alison,Cartner,19:40,04:56,0:46:52.0
49,359,Anne,McIntosh,20:00,04:54,0:46:33.0
50,5,Jenny,Buchanan,20:00,04:54,0:46:33.0
51,59,Tina,McBain,20:10,04:53,0:46:23.5
52,3726,Clare,Montgomery,20:10,04:53,0:46:23.5
53,369,Stephen,Wainwright,20:20,04:52,0:46:14.0
54,333,Jon,McIntosh,20:30,04:51,0:46:04.5
55,330,Kate,Hadkins,20:40,04:50,0:45:55.0
56,384,Andrew,Wilkie,20:40,04:49,0:45:45.5
57,315,Paul,Lomax,20:40,04:49,0:45:45.5
58,3735,Travis,Edwards,20:50,04:48,0:45:36.0
59,296,Ashlee,Diston,20:50,04:48,0:45:36.0
60,241,Andrea,Smith,21:00,04:47,0:45:26.5
61,307,Philip,Shambrook,21:10,04:46,0:45:17.0
62,9,Trinity,Sanderson,21:10,04:46,0:45:17.0
63,3702,Vicki,Bayliss,21:20,04:45,0:45:07.5
64,55,Justin,Lee,21:20,04:45,0:45:07.5
65,90,Rory,Weightman,21:20,04:45,0:45:07.5
66,18,Georgie,Lanyon,21:20,04:45,0:45:07.5
67,394,Rhianna,Wik-Gamble,21:50,04:42,0:44:39.0
68,3,Alan,Buchanan,22:20,04:39,0:44:10.5
69,60,Greg,McBain,22:20,04:39,0:44:10.5
70,14,Lisa,Wilkinson,22:40,04:37,0:43:51.5
71,117,Ingrid,Douglass,23:00,04:35,0:43:32.5
72,31,Charles,Chambers,23:00,04:35,0:43:32.5
73,3744,Finn,MacGregor,23:40,04:31,0:42:54.5
74,396,Simon,Hunt,23:40,04:30,0:42:45.0
75,39,Melissa,Douglas,23:40,04:30,0:42:45.0
76,203,Tullie,Rowe,23:40,04:30,0:42:45.0
77,399,Darren,Hartland,23:40,04:30,0:42:45.0
78,346,Paul,Vickery,23:50,04:29,0:42:35.5
79,49,David,Heislers,24:00,04:28,0:42:26.0
80,231,Paul,Seaward,24:30,04:25,0:41:57.5
81,15,Rebecca,Wilkinson,24:30,04:25,0:41:57.5
82,109,Tim,Lovell,24:30,04:25,0:41:57.5
83,70,Els,Viester,24:30,04:25,0:41:57.5
84,350,David,Cripps,24:50,04:23,0:41:38.5
85,386,Danny,Burgess,25:10,04:21,0:41:19.5
86,17,Karl,Lanyon,25:10,04:21,0:41:19.5
87,94,David,Lonsdale,25:20,04:20,0:41:10.0
88,352,Amy,Holmes,25:30,04:19,0:41:00.5
89,3730,Greg,Carter,25:40,04:18,0:40:51.0
90,3734,Lukas,Jara,26:00,04:16,0:40:32.0
91,317,John,Flood,26:10,04:15,0:40:22.5
92,167,Jack,Meade,26:10,04:15,0:40:22.5
93,10,Lee,Bray,26:40,04:12,0:39:54.0
94,308,Chris,Giffin,27:00,04:09,0:39:25.5
95,351,Matt,Holmes,27:40,04:05,0:38:47.5
96,61,Chris,McCormack,27:40,04:05,0:38:47.5
97,118,Tim,Lauder,28:00,04:03,0:38:28.5
98,3746,Peter,King,28:30,04:00,0:38:00.0
99,301,Jarrod,Eps,28:30,04:00,0:38:00.0
100,336,Brock,Prime,28:40,03:59,0:37:50.5
101,125,Sarah,Jalim,28:40,03:59,0:37:50.5
102,65,Ben,McDermid,29:10,03:56,0:37:22.0
103,3739,Stephen,Van Rees,29:10,03:56,0:37:22.0
104,84,Craig,Green,29:40,03:53,0:36:53.5
105,88,Brian,Watson,29:50,03:52,0:36:44.0
106,8,Rik,McCaig,30:00,03:50,0:36:25.0
107,33,Andrew,Creer,30:00,03:50,0:36:25.0
108,42,Craig,Feuerherdt,30:00,03:50,0:36:25.0
109,62,Lee,McCullagh,30:20,03:48,0:36:06.0
110,23,Michael,Bieleny,30:40,03:46,0:35:47.0
111,63,John,Robinson,30:50,03:45,0:35:37.5
112,166,David,Meade,32:30,03:35,0:34:02.5
113,3701,Nigel,Preston,33:10,03:31,0:33:24.5
114,48,Matthew,Heislers,33:20,03:30,0:33:15.0
115,86,Fraser,Walsh,35:00,03:19,0:31:30.5
116,27,Andrew,Buchanan,36:20,03:11,0:30:14.5
