place,first,last,net Time,club
1,Phoebe,Lonsdale,09:10.3,BUAC
2,Jessica,Chisholm,09:23.5,EAGLEHAWK
3,Chloe,Naughton,09:30.1,HARRIERS
4,Charlotte,Murphy,09:39.3,BUAC
5,Livinia,Douglass,10:47.7,BUAC
6,Halle,Blake-Burrows,10:47.8,BUAC
7,Jasmine,Rielley,12:41.1,BUAC