place,first,last,net Time,club
1,Yazmin,Hayes,07:39.8,STH BENDIGO
2,Emma,Gilligan,08:14.8,HARRIERS
3,Sophie,Adamson,08:27.3,BUAC
4,Greta,Schaeche,08:46.1,HARRIERS
5,Lucinda,Terry,09:44.7,BUAC
6,Demi,Grenfell,10:42.2,EAGLEHAWK