member,first,last,start,pace,est Time
110,Rebecca,Davis,00:00,7:0,49:00
82,Natalie,Thomas,00:10,6:58,48:46
64,Lisa,McDermid,00:30,6:55,48:25
37,John,Doering,03:00,6:35,46:05
69,Jarrah,O'Shea,04:20,6:23,44:41
21,Michelle,Bieleny,04:30,6:21,44:27
2,Alan,East,04:40,6:20,44:20
50,Janet,Hodnett,05:50,6:10,43:10
100,Justine,Rowe,06:10,6:7,42:49
11,Janet,McCaig,06:30,6:5,42:35
40,Aida,Escall,07:00,6:0,42:00
196,Kathryn,Charnas,07:30,5:56,41:32
111,Troy,Davis,07:40,5:55,41:25
84,Michael,Turner,07:50,5:53,41:11
103,Jaqueline,Kelly,07:50,5:53,41:11
98,Tanya,Fleming,08:00,5:52,41:04
79,Carol,Sing,08:00,5:51,40:57
54,Kevin,de Vries,08:10,5:50,40:50
66,Megan,McDonald,08:10,5:50,40:50
89,Natalie,Watson,08:20,5:49,40:43
56,Stacey,Lonsdale,08:20,5:48,40:36
132,Tracie,Gleisner,08:50,5:45,40:15
24,Lisa,Bortolotto,08:50,5:44,40:08
72,Catherine,Pethybridge,09:20,5:40,39:40
123,Harry,Terry,10:30,5:30,38:30
28,Paul,Buncle,10:40,5:29,38:23
68,Justin,O'Brien,10:40,5:28,38:16
74,Maree,Platt,10:40,5:28,38:16
6,Shayne,Rushan,11:10,5:25,37:55
16,Jenny,Lee,11:10,5:25,37:55
80,Angela,Slattery,11:30,5:22,37:34
32,Kylie,Cheal,11:30,5:21,37:27
87,Frances,Walsh,11:40,5:20,37:20
76,Cara,Smith,11:50,5:18,37:06
45,Jodie,Giles,12:00,5:17,36:59
17,Karl,Lanyon,12:20,5:15,36:45
75,Nicole,Richardson,12:20,5:15,36:45
77,Brad,Russell,12:20,5:15,36:45
81,Laura,Terry,12:20,5:15,36:45
99,Oscar,Terry,12:20,5:15,36:45
106,Suellen,Bambrick,12:20,5:15,36:45
104,Jodie,Scoble,12:20,5:14,36:38
91,Melissa,Wilkie,12:40,5:12,36:24
105,Toby,McCaig,12:40,5:11,36:17
57,Fraser,Lourie,13:10,5:7,35:49
39,Melissa,Douglas,13:40,5:3,35:21
47,Genevieve,Green,13:50,5:2,35:14
108,Eric,Hocking,13:50,5:2,35:14
217,Freya,Berenyl,13:50,5:2,35:14
113,Sam,Walker,14:00,5:0,35:00
35,Conor,Cunningham,14:10,4:58,34:46
59,Tina,McBain,14:10,4:58,34:46
107,Hayden,Brook,14:40,4:55,34:25
67,Leeza,Meharry,15:00,4:52,34:04
43,Jason,Finch,15:00,4:51,33:57
85,Rebecca,Tweed,15:10,4:50,33:50
94,David,Lonsdale,15:40,4:46,33:22
22,Ross,Douglas,15:50,4:45,33:15
90,Rory,Weightman,15:50,4:45,33:15
29,Alison,Cartner,15:50,4:44,33:08
41,Maddy,Evely,16:00,4:43,33:01
4,Gary,Crouch,16:10,4:42,32:54
116,Roy,Preece,16:10,4:42,32:54
78,Mark,Saxon,16:30,4:38,32:26
34,Matthew,Creer,16:50,4:36,32:12
55,Justin,Lee,17:00,4:35,32:05
38,Ingrid,Douglass,17:00,4:34,31:58
13,Gavin,Fiedler,17:10,4:33,31:51
93,Erica,Wilkinson,17:10,4:33,31:51
49,David,Heislers,17:20,4:31,31:37
5,Jenny,Buchanan,17:30,4:30,31:30
60,Greg,McBain,17:30,4:30,31:30
109,Tim,Lovell,17:40,4:28,31:16
18,Georgie,Lanyon,17:50,4:27,31:09
52,Rick,Jackel,17:50,4:27,31:09
20,John,McCullagh,18:10,4:25,30:55
25,Lee,Bray,18:20,4:23,30:41
58,Andrew,Mason,18:20,4:23,30:41
96,Steve,Brereton,18:30,4:21,30:27
3,Alan,Buchanan,18:40,4:20,30:20
53,Travis,Kelly,18:40,4:20,30:20
19,Troy,Cartner,19:20,4:15,29:45
26,Ryan,Brook,19:20,4:15,29:45
71,Max,Pearse,19:20,4:14,29:38
62,Lee,McCullagh,19:40,4:11,29:17
83,Russell,Tremayne,20:00,4:9,29:03
112,Iian,Livingston,20:10,4:7,28:49
122,Stewart,Scoble,20:20,4:6,28:42
61,Chris,McCormack,20:30,4:5,28:35
63,John,Robinson,20:30,4:4,28:28
70,Harrison,Pearse,21:10,3:59,27:53
73,Jeff,Pethybridge,21:10,3:59,27:53
92,Tracy,Wilson,21:10,3:59,27:53
31,Charles,Chambers,21:30,3:56,27:32
42,Craig,Feuerherdt,21:40,3:55,27:25
65,Ben,McDermid,21:40,3:55,27:25
95,Jason,Sim,21:40,3:55,27:25
102,Simon,Austin,21:40,3:55,27:25
30,Keith,Cassilles-Southgate,21:40,3:54,27:18
121,Russell,Jenkins,21:40,3:54,27:18
44,Jason,Fletcher,21:50,3:53,27:11
51,Andrew,Hosking,22:00,3:51,26:57
88,Brian,Watson,22:10,3:50,26:50
33,Andrew,Creer,22:50,3:45,26:15
97,Adam,Fleming,23:20,3:40,25:40
86,Fraser,Walsh,23:30,3:39,25:33
23,Michael,Bieleny,23:50,3:36,25:12
48,Matthew,Heislers,24:00,3:35,25:05
46,Richard,Gleisner,25:10,3:25,23:55
27,Andrew,Buchanan,27:50,3:1,21:07