place,first,last,net Time,diff
1,Ava,Terry,06:08,- 0:48
2,Lucy,McCaig,05:01,- 0:49
3,Lacey,Wilkie,05:43,- 0:24
4,Jesse,Delves,04:05,- 0:13
5,Abbey,Cartner,04:36,- 0:14
6,Will,deVries,06:09,- 0:12
7,Floyd,Cartner,04:02,- 0:08
8,William,Robinson,05:14,- 0:06
9,Oscar,Terry,05:07,- 0:04
10,Avery,McDermid,05:38,- 0:01
11,Josh,Smith,04:18,- 0:01
12,Billy,Meade,04:31,- 0:02
13,Olivia,Douglas,06:26,+ 0:02
14,Toby,McCaig,04:17,+ 0:04