place,first,last,net Time,diff
1,Conor,Cunningham,18:48,- 3:12
2,Oliver,Sanderson,20:13,- 1:43
3,Tyler,Wilkie,23:59,- 1:21
4,Megan,McDonald,22:11,- 0:53
5,David,Lonsdale,18:25,- 0:43
6,Tania,Fleming,22:11,- 0:29
7,Will,Crane,19:18,- 0:30
8,Suellen,Bambrick,26:17,- 0:03
9,Hayden,Brook,18:59,+ 0:07
10,Tullie,Rowe,18:15,+ 0:11
11,Adam,Fleming,13:45,+ 0:17
12,Max,Rowe,20:05,+ 0:25
13,Tracie,Gleisner,20:23,+ 0:31
14,Phoebe,a'Beckett,21:39,+ 0:51
15,Nicholas,Ashman,18:14,+ 0:54
16,Jack,Meade,16:39,+ 0:55
17,Leyslie,Fabian,27:43,+ 1:03
18,Will,McCaig,18:25,+ 1:05
19,Carrisa,Brook,19:09,+ 1:17
20,David,Ashman,27:43,+ 1:43
21,Beatrice,Lonsdale,22:14,+ 3:06
22,Drew,Parry,26:34,+ 4:14
23,Rebecca,Ashman,27:36,+ 4:32