Place,Member,First,Last,Start,Pace,Est Time
1,1005,Ann-Marie,Wangdi,00:10,07:59,0:56:50.5
2,1028,Mel,Debham,00:10,07:59,0:56:50.5
3,3748,Amelia,Mitchell,00:10,07:59,0:56:50.5
4,3750,Genevieve,Draper,00:10,07:59,0:56:50.5
5,3781,Hamish,Draper,00:10,07:59,0:56:50.5
6,2,Alan,East,06:30,07:05,0:50:26.0
7,100,Justine,Rowe,09:30,06:40,0:47:28.0
8,201,Beatrice,Lonsdale,09:40,06:38,0:47:13.8
9,3715,Chloe,Green,10:10,06:35,0:46:52.4
10,3776,Kathleen,Pleasants,10:10,06:35,0:46:52.4
11,270,Tyler,Wilkie,11:40,06:21,0:45:12.7
12,190,Michaela,Meharry,11:50,06:20,0:45:05.6
13,159,Renelle,McManus,12:30,06:15,0:44:30.0
14,191,Phoebe,Lonsdale,13:00,06:11,0:44:01.5
15,397,Taylor,Lovell,13:20,06:08,0:43:40.2
16,66,Megan,McDonald,13:40,06:05,0:43:18.8
17,87,Frances,Walsh,13:50,06:03,0:43:04.6
18,210,Fiona,Dangerfield,14:10,06:01,0:42:50.3
19,1025,Liz,Foster,14:40,05:57,0:42:21.8
20,35,Conor,Cunningham,14:40,05:56,0:42:14.7
21,149,Janelle,Giffin,15:00,05:54,0:42:00.5
22,43,Josephine,Robinson,15:20,05:51,0:41:39.1
23,157,Bec,Lacy,15:20,05:51,0:41:39.1
24,334,Alex,Trantor,15:40,05:48,0:41:17.8
25,3732,Emma,Gibbons,15:50,05:47,0:41:10.6
26,68,Justin,O'Brien,15:50,05:46,0:41:03.5
27,197,Sue,Taylor,16:10,05:44,0:40:49.3
28,392,Mark,Logan,16:20,05:42,0:40:35.0
29,54,Kevin,de Vries,16:40,05:40,0:40:20.8
30,111,Troy,Davis,16:40,05:40,0:40:20.8
31,251,Beth,Lavery,17:10,05:35,0:39:45.2
32,3777,Alistair,Stewart,17:10,05:35,0:39:45.2
33,398,Angus,McPherson,17:50,05:30,0:39:09.6
34,359,Anne,McIntosh,18:00,05:28,0:38:55.4
35,52,Leah,Cripps,18:10,05:27,0:38:48.2
36,91,Melissa,Wilkie,18:10,05:27,0:38:48.2
37,67,Leeza,Meharry,18:20,05:26,0:38:41.1
38,74,Maree,Platt,18:20,05:25,0:38:34.0
39,364,David,Howes,18:20,05:25,0:38:34.0
40,299,Jay,Sanderson,18:30,05:24,0:38:26.9
41,6,Shayne,Rushan,18:40,05:23,0:38:19.8
42,13,Gavin,Fiedler,19:10,05:19,0:37:51.3
43,339,James,Toomey,19:10,05:19,0:37:51.3
44,1024,Todd,Foster,19:10,05:19,0:37:51.3
45,77,Brad,Russell,19:30,05:15,0:37:22.8
46,3740,Vicki,Lane,19:30,05:15,0:37:22.8
47,3747,Jeremy,Draper,19:40,05:14,0:37:15.7
48,59,Tina,McBain,19:50,05:13,0:37:08.6
49,180,Lauren,Hancock,20:00,05:12,0:37:01.4
50,253,Charlotte,Murphy,20:20,05:08,0:36:33.0
51,400,Darren,Rowe,20:40,05:06,0:36:18.7
52,29,Alison,Cartner,20:50,05:05,0:36:11.6
53,22,Ross,Douglas,20:50,05:04,0:36:04.5
54,9,Trinity,Sanderson,21:00,05:03,0:35:57.4
55,333,Jon,McIntosh,21:10,05:01,0:35:43.1
56,315,Paul,Lomax,21:30,04:59,0:35:28.9
57,3702,Vicki,Bayliss,21:30,04:59,0:35:28.9
58,241,Andrea,Smith,21:40,04:58,0:35:21.8
59,307,Philip,Shambrook,22:00,04:55,0:35:00.4
60,369,Stephen,Wainwright,22:00,04:54,0:34:53.3
61,296,Ashlee,Diston,22:10,04:53,0:34:46.2
62,3714,Tanner,Fear,22:10,04:53,0:34:46.2
63,18,Georgie,Lanyon,22:30,04:51,0:34:31.9
64,34,Mathew,Creer,22:30,04:51,0:34:31.9
65,1020,Mumtaz,Hussain,22:30,04:51,0:34:31.9
66,3726,Clare,Montgomery,22:50,04:48,0:34:10.6
67,5,Jenny,Buchanan,22:50,04:47,0:34:03.4
68,14,Lisa,Wilkinson,23:00,04:46,0:33:56.3
69,278,James,Russell,23:00,04:46,0:33:56.3
70,3735,Travis,Edwards,23:10,04:45,0:33:49.2
71,60,Greg,McBain,23:20,04:43,0:33:35.0
72,31,Charles,Chambers,23:40,04:40,0:33:13.6
73,3,Alan,Buchanan,24:10,04:37,0:32:52.2
74,109,Tim,Lovell,24:30,04:33,0:32:23.8
75,384,Andrew,Wilkie,24:30,04:33,0:32:23.8
76,55,Justin,Lee,24:50,04:31,0:32:09.5
77,3744,Finn,MacGregor,24:50,04:31,0:32:09.5
78,396,Simon,Hunt,25:00,04:30,0:32:02.4
79,1003,Damien,Roberts,25:10,04:28,0:31:48.2
80,1034,Garry,Marwood,25:40,04:24,0:31:19.7
81,350,David,Cripps,25:40,04:23,0:31:12.6
82,17,Karl,Lanyon,26:00,04:21,0:30:58.3
83,1031,Jack,Milligan,26:00,04:21,0:30:58.3
84,386,Danny,Burgess,26:10,04:20,0:30:51.2
85,3734,Lukas,Jara,26:20,04:18,0:30:37.0
86,49,David,Heislers,26:30,04:17,0:30:29.8
87,94,David,Lonsdale,26:30,04:17,0:30:29.8
88,308,Chris,Giffin,26:40,04:15,0:30:15.6
89,3730,Greg,Carter,26:40,04:15,0:30:15.6
90,1009,Nicholas,Cherry,27:00,04:13,0:30:01.4
91,1027,Andrew,Van Agtmaal,27:10,04:11,0:29:47.1
92,15,Rebecca,Wilkinson,27:40,04:07,0:29:18.6
93,399,Darren,Hartland,27:40,04:07,0:29:18.6
94,65,Ben,McDermid,27:50,04:05,0:29:04.4
95,63,John,Robinson,28:00,04:04,0:28:57.3
96,118,Tim,Lauder,28:10,04:03,0:28:50.2
97,301,Jarrod,Eps,28:30,04:00,0:28:28.8
98,3746,Peter,King,28:30,04:00,0:28:28.8
99,84,Craig,Green,28:40,03:59,0:28:21.7
100,125,Sarah,Jalim,28:40,03:59,0:28:21.7
101,62,Lee,McCullagh,28:40,03:58,0:28:14.6
102,8,Rik,McCaig,29:00,03:56,0:28:00.3
103,88,Brian,Watson,29:10,03:54,0:27:46.1
104,33,Andrew,Creer,29:30,03:52,0:27:31.8
105,1023,Matthew,Schepisi,29:30,03:52,0:27:31.8
106,42,Craig,Feuerherdt,29:50,03:49,0:27:10.5
107,219,Wil,McCaig,29:50,03:48,0:27:03.4
108,23,Michael,Bieleny,30:10,03:46,0:26:49.1
109,1022,Ben,Stolz,30:10,03:46,0:26:49.1
110,3739,Stephen,van Rees,31:20,03:36,0:25:37.9
111,3701,Nigel,Preston,32:00,03:31,0:25:02.3
112,86,Fraser,Walsh,33:20,03:19,0:23:36.9
113,27,Andrew,Buchanan,34:20,03:10,0:22:32.8
