place,first,last,club,net Time
1,Meredith,Cook,HAR,29:05
2,Rebecca,Tweed,UNI,31:55
3,Melissa,Douglas,UNI,35:55
4,Nicole,Richardson,UNI,40:11
5,Donna,McRory,INV,40:49
6,Maree,Platt,UNI,41:23
7,Melissa,Wilkie,UNI,41:24
8,Maree,Reid,UNI,42:15
9,Melinda,Gilligan,HAR,44:57