PLACE,FIRST,LAST,TIME,PACE,CLUB
1,James,Trew,0:31:39.6,04:31.4,UNI
2,Max,Rowe,0:31:41.6,04:31.7,UNI
3,Tim,Creer,0:31:42.6,04:31.8,UNI
4,Anthony,Byrne,0:32:09.1,04:35.6,UNI
5,William,Trew,0:33:13.0,04:44.7,UNI
6,Tanner,Fear,0:36:35.4,05:13.6,UNI
7,Hamish,Draper,1:07:10.0,09:35.7,UNI
