PLACE,FIRST,LAST,TIME,PACE,CLUB
1,Phoebe,Lonsdale,0:33:43.3,04:49.0,UNI
2,Janet,Hodnett,0:36:17.1,05:11.0,UNI
3,Sonya,Walker,0:36:31.3,05:13.0,UNI
4,Ev,van Den Broeke,0:38:15.6,05:27.9,OTHER
5,Lexi,Thomas,0:38:20.3,05:28.6,OTHER
6,Sheridan,Hall,0:38:25.6,05:29.4,OTHER
7,Jazlin,Fear,0:39:51.4,05:41.6,UNI
8,Sarah,Trew,0:39:58.4,05:42.6,UNI
9,Tammy,Fear,0:43:28.6,06:12.7,UNI
10,Aida,Escall,0:52:11.9,07:27.4,UNI
11,Isabella,Draper,0:54:45.4,07:49.3,UNI
12,Genevieve,Draper,1:07:28.8,09:38.4,UNI
13,Catherine,Fisher,1:15:47.9,10:49.7,OTHER
14,Elizabeth,Hartland,1:15:49.1,10:49.9,OTHER
