place,member,first,last,start,Pace,est Time
1,34,Matthew,Creer,0:10,7.55,7:55
2,244,Jaron,Ekanayake,0:10,7.5,7:50
3,128,George,Pitson,0:20,7.43,7:43
4,28,Mitchell,Brey,0:30,7.31,7:31
5,204,Kane,Charnas,0:40,7.2,7:20
6,205,Amelia,Charnas,1:00,6.59,6:59
7,211,Jesse,Brook,1:10,6.5,6:50
8,220,Ella,Meharry,1:30,6.31,6:31
9,234,Finn,Cunningham,1:30,6.3,6:30
10,264,Katelyn,Kelly,1:40,6.18,6:18
11,207,Lewis,Kallour,1:50,6.15,6:15
12,216,Ava,Terry,1:50,6.1,6:10
13,271,Will,Smith,1:50,6.15,6:15
14,25,Maddi,Bray,2:10,5.54,5:54
15,50,Harry,Cripps,2:10,5.55,5:55
16,209,Olivia,Douglas,2:10,5.48,5:48
17,292,Jye,Ekanayake,2:10,5.55,5:55
18,58,Archie,Ross,2:20,5.42,5:42
19,239,Paula,a'Beckett,2:20,5.39,5:39
20,245,Lacey,Wilkie,2:20,5.37,5:37
21,255,Dylan,Sim,2:20,5.43,5:43
22,36,Henry,Turnbull,2:30,5.34,5:34
23,223,Jack,Meharry,2:30,5.31,5:31
24,232,Jack,Gleisner,2:30,5.29,5:29
25,235,Aoife,Cunningham,2:30,5.3,5:30
26,280,Paige,a'Beckett,2:30,5.31,5:31
27,281,Will,deVries,2:30,5.3,5:30
28,99,Oscar,Terry,2:40,5.25,5:25
29,261,Charlotte,Crane,2:40,5.16,5:16
30,265,Joshua,Kelly,2:40,5.19,5:19
31,276,Joshua,Feuerherdt,2:40,5.22,5:22
32,249,Will,Gleisner,2:50,5.11,5:11
33,279,Lucy,McCaig,2:50,5.08,5:08
34,195,Luke,Creer,3:00,4.59,4:59
35,229,Harrison,Pitson,3:00,5.01,5:01
36,171,Oliver,Sanderson,3:10,4.46,4:46
37,191,Phoebe,Lonsdale,3:10,4.5,4:50
38,254,William,Robinson,3:10,4.54,4:54
39,269,Cooper,Charnas,3:10,4.5,4:50
40,277,Luke,Feuerherdt,3:10,4.46,4:46
41,300,Lucinda,Terry,3:10,4.55,4:55
42,147,Lachlan,Feuerherdt,3:20,4.37,4:37
43,189,Tim,Creer,3:20,4.44,4:44
44,215,Emerson,Sim,3:20,4.43,4:43
45,238,Alex,Parry,3:20,4.36,4:36
46,283,Lily,Sanderson,3:20,4.39,4:39
47,291,Sarah,Wilkes,3:20,4.45,4:45
48,139,Leila,Padgham,3:30,4.35,4:35
49,267,Kayla,McManus,3:30,4.34,4:34
50,272,Abbey,Cartner,3:30,4.32,4:32
51,273,Harrison,Kelly,3:30,4.33,4:33
52,221,Billy,Meade,3:40,4.21,4:21
53,266,Lewis,Lonsdale,3:40,4.22,4:22
54,289,Josh,Smith,3:40,4.18,4:18
55,105,Toby,McCaig,3:50,4.1,4:10
56,112,Jett,Grundy,3:50,4.12,4:12
57,19,Troy,Cartner,4:00,4,4:00
58,169,Floyd,Cartner,4:00,4.05,4:05
59,176,Kaidyn,Tucker,4:00,4.05,4:05
60,256,Jesse,Delves,4:00,4.02,4:02