PLACE,NAME,TIME,PACE,CLUB
1,Alison Cartner,1:44:37.8,04:58.9,UNI
2,Trinity Sanderson,1:50:51.1,05:16.7,UNI
3,Wendy Stibbe,1:54:10.3,05:26.2,EAGLEHAWK
4,Maree Platt,1:57:10.1,05:34.8,UNI
5,Andrea Smith,2:02:29.7,05:50.0,UNI
