place,first,last,net Time,diff
1,Olivia,Douglas,5:50,-1:07
2,Toby,McCaig,3:53,-0:59
3,Poppy,Wainwright,5:40,-0:30
4,Maddi,Bray,5:33,-0:23
5,Phoebe,Lonsdale,4:28,-0:22
6,Sean,Hughan,7:53,-0:06
7,Isabella,Makris,5:34,-0:04
8,Lily,Sanderson,4:46,-0:00
9,Quinlan,Cody,6:58,-0:01
10,Oscar,Terry,4:49,0:02
11,Halle,Blake-Burrows,5:00,0:03
12,Billy,Meade,4:00,0:01
13,Thomas,Henderson,5:32,0:05
14,Jett,Grundy,4:12,0:00
15,Lucinda,Terry,4:32,0:03
16,Luke,Feuerherdt,4:33,0:06
17,Lachlan,Feuerherdt,4:17,0:07
18,Lucy,McCaig,5:08,0:08
19,Oliver,Sanderson,4:10,0:12
20,Sachin,Cody,7:21,0:10
21,William,Robinson,4:31,0:09
22,Abbey,Cartner,4:42,0:12
23,Mitchell,Bray,6:07,0:14
24,Declan,Lavery,5:09,0:18
25,Nikolas,Makris,4:31,0:17
26,Lewis,Lonsdale,4:42,0:19
27,Geoffrey,Robinson,7:03,0:21
28,Layla,Boulger,6:14,0:21
29,Spencer,Lavery,6:12,0:37
30,Tadhg,Hughan,6:20,1:00
31,Ava,Terry,7:44,2:07
New,Carrisa,Brook,4:14,