Place,First,Last,NET Time,Pace,Diff
1,Bonnie,Scott,0:06:48.5,06:48,-00:44.5
2,Ruby,Douglas,0:05:28.5,05:28,-00:30.5
3,April,Wainwright,0:04:29.9,04:30,-00:28.1
4,Braxton,Safstrom,0:05:10.4,05:10,-00:15.6
5,Jonty,McDermid,0:04:14.5,04:14,-00:11.5
6,Avery,McDermid,0:04:02.3,04:02,-00:10.7
7,Mason,Woodward,0:03:39.6,03:40,-00:10.4
8,Lewis,Lonsdale,0:03:54.3,03:54,-00:08.7
9,Harry,Cripps,0:04:54.1,04:54,-00:07.9
10,Harry,Scott,0:04:37.8,04:38,-00:05.2
11,William,Trew,0:03:39.9,03:40,-00:03.1
12,Savannah,Marwood,0:05:21.8,05:22,-00:01.2
13,Tully,Cripps,0:05:21.3,05:21,-00:00.7
14,James,Trew,0:03:41.0,03:41,+00:04.0
15,Will,de Vries,0:04:31.0,04:31,+00:06.0
16,Eiliyah,Daneen,0:05:14.0,05:14,+00:06.0
17,Ebony,Woodward,0:04:30.5,04:31,+00:07.5
18,Genevieve,Robinson,0:06:31.4,06:31,+00:08.4
19,Xavier,Marwood,0:04:59.4,04:59,+00:09.4
20,Luke,Feuerherdt,0:04:25.8,04:26,+00:13.8
21,Joshua,Feuerherdt,0:04:29.1,04:29,+00:20.1
22,Skylar,Woodward,0:05:33.5,05:34,+00:31.5
23,Geoffrey,Robinson,0:06:07.9,06:08,+00:54.9
NEW,Edward,Lunney,0:06:27.6,06:28
