place,first,last,start,pace,est Time
1,Eric,Aardvark,0:00,8:0,8:00
2,Mathew,Creer,0:30,7:30,7:30
3,Neve,Coleman,1:00,7:1,7:01
4,Luke,Feuerherdt,1:00,6:56,6:56
5,Finn,Cunningham,1:10,6:55,6:55
6,Sarah,Cunningham,1:10,6:55,6:55
7,Lucy,Hall,1:10,6:50,6:50
8,Manny,Rose,1:10,6:50,6:50
9,Olivia,Kealy,1:20,6:40,6:40
10,Owen,Brasher,1:30,6:30,6:30
11,Aedan,Hamilton,1:30,6:30,6:30
12,Ciaran,Nobel,1:30,6:30,6:30
13,Jordan,Spencer,1:40,6:20,6:20
14,Wilham,Gleisner,1:40,6:25,6:25
15,Albert,Cordell,1:40,6:20,6:20
16,Eliza,Christie,1:50,6:10,6:10
17,Raph,Musk,1:50,6:10,6:10
18,Livinia,Douglass,2:00,6:5,6:05
19,Oscar,Terry,2:00,6:4,6:04
20,Aoife,Cunningham,2:00,6:0,6:00
21,Melana,Cordell,2:00,5:58,5:58
22,Kaidyn,Tucker,2:00,6:4,6:04
23,Tara,Anderson,2:10,5:52,5:52
24,Hannah,Crane,2:10,5:50,5:50
25,Rachael,Hamilton,2:10,5:49,5:49
26,Pheobe,Lonsdale,2:10,5:52,5:52
27,Emerson,Sim,2:10,5:48,5:48
28,Lucinda,Terry,2:10,5:55,5:55
29,Lachlan,Walsh,2:10,5:51,5:51
30,Nick,Oke,2:20,5:40,5:40
31,Ruby,Fletcher,2:30,5:30,5:30
32,Max,Rowe,2:30,5:29,5:29
33,Lachlan,Feuerherdt,2:30,5:30,5:30
34,Tim,Creer,2:30,5:30,5:30
35,Ella,Fisher,2:30,5:35,5:35
36,Charlie,Lourie,2:30,5:31,5:31
37,Luke,Creer,2:30,5:30,5:30
38,Nellie,Rose,2:40,5:23,5:23
39,Mathilda,Stewart,2:40,5:20,5:20
40,McKinley,Musk,2:40,5:17,5:17
41,Madlen,Hearne,2:50,5:15,5:15
42,Zac,Walsh,2:50,5:10,5:10
43,Henry,Spencer,2:50,5:6,5:06
44,Sol,Musk,2:50,5:15,5:15
45,Carissa,Brook,3:00,5:4,5:04
46,Amber,Lyons,3:00,5:0,5:00
47,Lillian,Oke,3:00,5:5,5:05
48,Vincent,Weatherhead,3:00,5:5,5:05
49,Nina,Lenard,3:00,4:58,4:58
50,Henry,Cordell,3:00,5:5,5:05
51,Will,Crane,3:10,4:48,4:48
52,Jayden,Padgham,3:10,4:55,4:55
53,Jude,Perez,3:10,4:50,4:50
54,Riley,Walsh,3:10,4:50,4:50
55,Seykll,Hamond,3:10,4:50,4:50
56,Tanner,Nally,3:10,4:47,4:47
57,James,Kealy,3:20,4:45,4:45
58,Bronte,Walsh,3:20,4:45,4:45
59,Emily,Heislers,3:20,4:39,4:39
60,Declan,McMahon,3:20,4:36,4:36
61,Floyd,Cartner,3:30,4:30,4:30
62,Olivia,Houlden,3:30,4:30,4:30
63,Beatrice,Lonsdale,3:30,4:32,4:32
64,Brodie,Hartland,3:40,4:21,4:21
65,Leila,Padgham,3:40,4:25,4:25
66,Matisse,Perez,3:40,4:25,4:25
67,Noah,Walsh,3:40,4:22,4:22
68,Tullie,Rowe,3:40,4:17,4:17
69,Jake,Lyons,3:50,4:15,4:15
70,Steffany,Roberts,3:50,4:10,4:10
71,Brayden,Roberts,4:00,4:1,4:01
72,Luke,Padgham,4:10,3:50,3:50
73,Matthew,Heislers,4:20,3:40,3:40