Place,Member,First,Last,Start,Pace,Est Time
1,3750,Genevieve,Draper,01:00,07:30,0:15:00.0
2,3781,Hamish,Draper,01:10,07:25,0:14:50.0
3,3708,Janine,Butcher,01:20,07:22,0:14:44.0
4,3748,Amelia,Mitchell,01:20,07:20,0:14:40.0
5,2,Alan,East,02:10,06:53,0:13:46.0
6,3749,Isabelle,Draper,02:40,06:38,0:13:16.0
7,3709,Scott,Butcher,02:50,06:33,0:13:06.0
8,3729,Fiona,Preston,03:00,06:31,0:13:02.0
9,3741,Kim,Carter,03:00,06:31,0:13:02.0
10,210,Fiona,Dangerfield,03:00,06:29,0:12:58.0
11,347,Louise,Toomey,03:10,06:26,0:12:52.0
12,3776,Kathleen,Pleasants,03:10,06:26,0:12:52.0
13,100,Justine,Rowe,03:10,06:25,0:12:50.0
14,150,Rebecca,Ashman,03:30,06:15,0:12:30.0
15,356,Lynley,McDonald,03:30,06:15,0:12:30.0
16,341,Greg,Toomey,03:40,06:12,0:12:24.0
17,66,Megan,McDonald,03:40,06:08,0:12:16.0
18,225,Lesley,Fabian,03:40,06:08,0:12:16.0
19,50,Harry,Cripps,03:50,06:07,0:12:14.0
20,159,Renelle,McManus,03:50,06:05,0:12:10.0
21,3779,Mathilda,Stewart,03:50,06:05,0:12:10.0
22,237,Lou,Bray,04:10,05:55,0:11:50.0
23,305,Jonty,McDermid,04:10,05:53,0:11:46.0
24,98,Tanya,Fleming,04:10,05:53,0:11:46.0
25,397,Taylor,Lovell,04:30,05:47,0:11:34.0
26,3738,Mason,Woodward,04:30,05:45,0:11:30.0
27,40,Aida,Escall,04:30,05:45,0:11:30.0
28,156,Will,Murphy,04:30,05:44,0:11:28.0
29,3716,Gus,Edwards,04:30,05:43,0:11:26.0
30,3777,Alistair,Stewart,04:40,05:41,0:11:22.0
31,3720,Bec,Woodward,04:50,05:37,0:11:14.0
32,214,Amy,Sim,04:50,05:34,0:11:08.0
33,195,Luke,Creer,04:50,05:33,0:11:06.0
34,3722,Natasha,Dean,05:00,05:31,0:11:02.0
35,398,Angus,McPherson,05:00,05:30,0:11:00.0
36,157,Bec,Lacy,05:00,05:30,0:11:00.0
37,360,Phoebe,Martin,05:00,05:30,0:11:00.0
38,3706,Ebony,Butcher,05:00,05:30,0:11:00.0
39,3717,Lachlan,Edwards,05:00,05:28,0:10:56.0
40,274,Avery,McDermid,05:00,05:28,0:10:56.0
41,3703,Trent,Bayliss,05:10,05:26,0:10:52.0
42,52,Leah,Cripps,05:10,05:24,0:10:48.0
43,251,Beth,Lavery,05:10,05:23,0:10:46.0
44,3715,Chloe,Green,05:20,05:22,0:10:44.0
45,281,Will,deVries,05:20,05:20,0:10:40.0
46,359,Anne,McIntosh,05:20,05:18,0:10:36.0
47,236,Harry,Seaward,05:20,05:18,0:10:36.0
48,54,Kevin,deVries,05:30,05:16,0:10:32.0
49,3721,Gabrielle,Dean,05:40,05:12,0:10:24.0
50,78,Mark,Saxon,05:40,05:11,0:10:22.0
51,13,Gavin,Fiedler,05:40,05:09,0:10:18.0
52,22,Ross,Douglas,05:40,05:08,0:10:16.0
53,95,Jason,Sim,05:40,05:08,0:10:16.0
54,215,Emerson,Sim,05:50,05:07,0:10:14.0
55,270,Tyler,Wilkie,05:50,05:05,0:10:10.0
56,198,Matthew,Saxon,05:50,05:03,0:10:06.0
57,244,Jaron,Ekanayake,06:00,05:01,0:10:02.0
58,3785,Jake,Wight,06:00,04:59,0:09:58.0
59,254,William,Robinson,06:10,04:57,0:09:54.0
60,34,Mathew,Creer,06:10,04:57,0:09:54.0
61,3793,Anna,Christen,06:10,04:54,0:09:48.0
62,266,Lewis,Lonsdale,06:20,04:51,0:09:42.0
63,201,Beatrice,Lonsdale,06:20,04:50,0:09:40.0
64,267,Kayla,McManus,06:20,04:49,0:09:38.0
65,241,Andrea,Smith,06:20,04:49,0:09:38.0
66,3713,Jazlin,Fear,06:20,04:48,0:09:36.0
67,3735,Travis,Edwards,06:20,04:48,0:09:36.0
68,9,Trinity,Sanderson,06:30,04:46,0:09:32.0
69,296,Ashlee,Diston,06:30,04:46,0:09:32.0
70,55,Justin,Lee,06:30,04:45,0:09:30.0
71,272,Abbey,Cartner,06:40,04:41,0:09:22.0
72,191,Phoebe,Lonsdale,06:40,04:40,0:09:20.0
73,147,Lachlan,Feuerherdt,06:40,04:39,0:09:18.0
74,3714,Tanner,Fear,06:50,04:35,0:09:10.0
75,109,Tim,Lovell,06:50,04:33,0:09:06.0
76,189,Tim,Creer,06:50,04:33,0:09:06.0
77,3707,Kyle,Butcher,07:00,04:31,0:09:02.0
78,386,Danny,Burgess,07:00,04:30,0:09:00.0
79,3745,Gus,MacGregor,07:00,04:30,0:09:00.0
80,387,Connor,Bedson,07:00,04:29,0:08:58.0
81,3744,Finn,MacGregor,07:10,04:27,0:08:54.0
82,350,David,Cripps,07:10,04:26,0:08:52.0
83,253,Charlotte,Murphy,07:10,04:25,0:08:50.0
84,39,Melissa,Douglas,07:10,04:24,0:08:48.0
85,369,Stephen,Wainwright,07:10,04:23,0:08:46.0
86,339,James,Toomey,07:20,04:22,0:08:44.0
87,171,Oliver,Sanderson,07:30,04:13,0:08:26.0
88,169,Floyd,Cartner,07:40,04:12,0:08:24.0
89,80,Bridie,Blake-Burrows,07:40,04:11,0:08:22.0
90,105,Toby,McCaig,07:40,04:10,0:08:20.0
91,63,John,Robinson,07:50,04:06,0:08:12.0
92,275,Max,Rowe,07:50,04:04,0:08:08.0
93,203,Tullie,Rowe,08:10,03:56,0:07:52.0
94,42,Craig,Feuerherdt,08:10,03:54,0:07:48.0
95,84,Craig,Green,08:10,03:53,0:07:46.0
96,65,Ben,McDermid,08:10,03:53,0:07:46.0
97,219,Wil,McCaig,08:50,03:35,0:07:10.0
