place,first,last,start,pace,est Time
1,Eric,Aardvark,0:00,8:0,8:00
2,Tara,Anderson,0:00,6:10,6:10
3,Felix,Ansted,0:00,5:45,5:45
4,Luella,Ansted,0:00,5:15,5:15
5,Otto,Ansted,0:00,5:35,5:35
6,Owen,Brasher,0:00,6:30,6:30
7,Carissa,Brook,0:00,5:4,5:04
8,Jacob,Buckell,0:00,3:40,3:40
9,Ned,Buckell,0:00,3:55,3:55
10,Floyd,Cartner,0:00,4:31,4:31
11,Eliza,Christie,0:00,6:10,6:10
12,Neve,Coleman,0:00,7:1,7:01
13,Melana,Cordell,0:00,5:54,5:54
14,Henry,Cordell,0:00,5:12,5:12
15,Albert,Cordell,0:00,7:30,7:30
16,Will,Crane,0:00,4:48,4:48
17,Hannah,Crane,0:00,5:20,5:20
18,Mathew,Creer,0:00,7:30,7:30
19,Tim,Creer,0:00,5:30,5:30
20,Luke,Creer,0:00,6:30,6:30
21,Finn,Cunningham,0:00,7:5,7:05
22,Aoife,Cunningham,0:00,6:10,6:10
23,Sarah,Cunningham,0:00,6:55,6:55
24,Livinia,Douglass,0:00,6:19,6:19
25,Henry,Edwards,0:00,6:40,6:40
26,Luke,Feuerherdt,0:00,6:56,6:56
27,Lachlan,Feuerherdt,0:00,5:25,5:25
28,Ella,Fisher,0:00,5:35,5:35
29,Ruby,Fletcher,0:00,5:30,5:30
30,Wilham,Gleisner,0:00,5:45,5:45
31,Lucy,Hall,0:00,6:50,6:50
32,Aedan,Hamilton,0:00,6:30,6:30
33,Rachael,Hamilton,0:00,5:49,5:49
34,Seyku,Hamond,0:00,6:15,6:15
35,Bweku Tu,Hamond,0:00,6:15,6:15
36,Lulu,Hamond,0:00,5:30,5:30
37,Brodie,Hartland,0:00,4:21,4:21
38,Madlen,Hearne,0:00,5:15,5:15
39,Matthew,Heislers,0:00,3:40,3:40
40,Emily,Heislers,0:00,4:39,4:39
41,Olivia,Houlden,0:00,4:30,4:30
42,Olivia,Kealy,0:00,6:25,6:25
43,James,Kealy,0:00,4:45,4:45
44,Nina,Lenard,0:00,4:57,4:57
45,Pheobe,Lonsdale,0:00,5:45,5:45
46,Beatrice,Lonsdale,0:00,4:55,4:55
47,Lewis,Lonsdale,0:00,6:30,6:30
48,Charlie,Lourie,0:00,5:31,5:31
49,Amber,Lyons,0:00,5:0,5:00
50,Jake,Lyons,0:00,4:18,4:18
51,Declan,McMahon,0:00,4:36,4:36
52,Raph,Musk,0:00,6:10,6:10
53,Sol,Musk,0:00,5:15,5:15
54,McKinley,Musk,0:00,5:17,5:17
55,Tanner,Nally,0:00,4:47,4:47
56,Ciaran,Nobel,0:00,6:30,6:30
57,Nick,Oke,0:00,5:40,5:40
58,Lillian,Oke,0:00,5:5,5:05
59,Leila,Padgham,0:00,4:25,4:25
60,Luke,Padgham,0:00,3:50,3:50
61,Jayden,Padgham,0:00,4:55,4:55
62,Jude,Perez,0:00,4:50,4:50
63,Matisse,Perez,0:00,4:25,4:25
64,Steffany,Roberts,0:00,4:10,4:10
65,Brayden,Roberts,0:00,4:1,4:01
66,Nellie,Rose,0:00,5:23,5:23
67,Manny,Rose,0:00,7:30,7:30
68,Max,Rowe,0:00,5:30,5:30
69,Tullie,Rowe,0:00,4:17,4:17
70,Emerson,Sim,0:00,5:48,5:48
71,Jordan,Spencer,0:00,6:20,6:20
72,Henry,Spencer,0:00,5:6,5:06
73,Mathilda,Stewart,0:00,5:20,5:20
74,Oscar,Terry,0:00,6:10,6:10
75,Lucinda,Terry,0:00,6:15,6:15
76,Kaidyn,Tucker,0:00,5:5,5:05
77,Bronte,Walsh,0:00,4:45,4:45
78,Noah,Walsh,0:00,4:22,4:22
79,Zac,Walsh,0:00,5:10,5:10
80,Riley,Walsh,0:00,4:50,4:50
81,Lachlan,Walsh,0:00,5:51,5:51
82,Vincent,Weatherhead,0:00,5:3,5:03
83,Morgan,Whatley,0:00,6:16,6:16