Place,First,Last,NET Time,Pace,Diff
1,Olivia,Douglas,0:05:27.1,05:27.1,-01:29.9
2,Sachin,Cody,0:05:40.3,05:40.3,-01:30.7
3,Geoffrey,Robinson,0:05:37.2,05:37.2,-01:04.8
4,Annabel,Hancock,0:05:43.3,05:43.3,-01:01.7
5,Will,Smith,0:05:28.7,05:28.7,-00:46.3
6,Avery,McDermid,0:04:37.6,04:37.6,-00:39.4
7,Poppy,Wainwright,0:05:40.4,05:40.4,-00:29.6
8,Joshua,Feuerherdt,0:04:42.6,04:42.6,-00:27.4
9,Annabelle,McPhee,0:05:07.1,05:07.1,-00:07.9
10,Abbey,Cartner,0:04:20.1,04:20.1,-00:09.9
11,Lachlan,Feuerherdt,0:04:01.8,04:01.8,-00:08.2
12,Billy,Meade,0:03:53.2,03:53.2,-00:05.8
13,William,Robinson,0:04:16.1,04:16.1,-00:05.9
14,Lily,Sanderson,0:04:46.7,04:46.7,+00:00.7
15,Lewis,Lonsdale,0:04:19.1,04:19.1,-00:03.9
16,Spencer,Lavery,0:05:39.7,05:39.7,+00:04.7
17,Luke,Feuerherdt,0:04:30.6,04:30.6,+00:03.6
18,Dylan,Sim,0:05:43.9,05:43.9,+00:00.9
19,Nikolas,Makris,0:04:17.7,04:17.7,+00:03.7
20,Jett,Grundy,0:04:17.7,04:17.7,+00:05.7
21,Thomas,Henderson,0:05:40.1,05:40.1,+00:13.1
22,Elliot,Lavery,0:05:50.7,05:50.7,+00:18.7
23,Ava,Terry,0:06:05.4,06:05.4,+00:28.4
24,Finn,Cunningham,0:06:23.4,06:23.4,+00:39.4
25,Tadhg,Hughan,0:06:13.8,06:13.8,+00:53.8
NEW,Steff,Roberts,0:04:09.4,04:09.4
NEW,Lenny,Hancock,0:06:13.1,06:13.1
NEW,Jonty,McDermid,0:06:15.0,06:15.0
NEW,Jordan,Baker,0:06:15.0,06:15.0
NEW,Callum,Noble,0:04:01.2,04:01.2
NEW,Daniel,Noble,0:06:01.4,06:01.4
NEW,Sam,Hancock,0:05:35.7,05:35.7
NEW,Harry,Terry,0:06:06.2,06:06.2
NEW,Tazma,Ferrie,0:06:23.3,06:23.3
