Place,Member,First,Last,Start,Pace,Est Time
1,257,Fin,Bray,00:00,07:59,0:15:58.0
2,222,Virginia,Grills-Marsily,00:50,07:35,0:15:10.0
3,212,Michelle,Parry,01:10,07:25,0:14:50.0
4,142,Zach,Condon,01:50,07:07,0:14:14.0
5,206,Elisa,Christie,02:10,06:55,0:13:50.0
6,148,Matisse,Grills-Marsily,02:30,06:45,0:13:30.0
7,155,Jasmine,Rielley,02:30,06:45,0:13:30.0
8,179,Paula,Rielley,02:30,06:45,0:13:30.0
9,146,David,Ashman,02:40,06:42,0:13:24.0
10,226,Drew,Parry,02:40,06:39,0:13:18.0
11,79,Liz,Stewart,02:50,06:35,0:13:10.0
12,106,Suellen,Bambrick,02:50,06:35,0:13:10.0
13,30,Amanda,Turnbull,03:00,06:28,0:12:56.0
14,159,Renelle,McManus,03:10,06:23,0:12:46.0
15,21,Michelle,Bieleny,03:20,06:20,0:12:40.0
16,208,Houston,Pearse,03:30,06:13,0:12:26.0
17,136,Livinia,Douglass,03:40,06:11,0:12:22.0
18,239,Paula,a'Beckett,03:40,06:09,0:12:18.0
19,225,Lesley,Fabian,03:50,06:06,0:12:12.0
20,229,Harrison,Pitson,04:00,06:02,0:12:04.0
21,282,Anna,deVries,04:00,06:01,0:12:02.0
22,101,Paula,Saxon,04:00,06:00,0:12:00.0
23,173,Melanie,Cuzzillo,04:00,06:00,0:12:00.0
24,292,Jye,Ekanayake,04:00,05:59,0:11:58.0
25,151,Jo,Williams,04:00,05:58,0:11:56.0
26,24,Karina,Bray,04:20,05:52,0:11:44.0
27,52,Leah,Cripps,04:20,05:50,0:11:40.0
28,195,Luke,Creer,04:20,05:50,0:11:40.0
29,274,Avery,McDermid,04:20,05:48,0:11:36.0
30,66,Megan,McDonald,04:30,05:45,0:11:30.0
31,98,Tanya,Fleming,04:30,05:45,0:11:30.0
32,242,Halle,Blake-Burrows,04:30,05:45,0:11:30.0
33,147,Lachlan,Feuerherdt,04:30,05:43,0:11:26.0
34,43,Josephine,Robinson,04:40,05:40,0:11:20.0
35,187,Nicole,Kelly,04:40,05:40,0:11:20.0
36,243,Max,Bray,04:40,05:40,0:11:20.0
37,89,Natalie,Watson,04:40,05:39,0:11:18.0
38,150,Rebecca,Ashman,04:40,05:38,0:11:16.0
39,214,Amy,Sim,04:50,05:37,0:11:14.0
40,210,Fiona,Dangerfield,04:50,05:36,0:11:12.0
41,310,Melanie,Makris,04:50,05:36,0:11:12.0
42,99,Oscar,Terry,04:50,05:35,0:11:10.0
43,157,Bec,Murphy,04:50,05:35,0:11:10.0
44,263,Narelle,McPhee,04:50,05:34,0:11:08.0
45,170,Abbey,Saxon,05:00,05:31,0:11:02.0
46,133,Gemma,McPhee,05:00,05:30,0:11:00.0
47,230,McKinley,Grills-Marsily,05:00,05:30,0:11:00.0
48,233,Sue,Condon,05:00,05:30,0:11:00.0
49,237,Lou,Bray,05:00,05:30,0:11:00.0
50,270,Tyler,Wilkie,05:00,05:30,0:11:00.0
51,190,Micheala,Meharry,05:00,05:29,0:10:58.0
52,200,Jack,Cripps,05:00,05:29,0:10:58.0
53,249,Will,Gleisner,05:00,05:28,0:10:56.0
54,11,Jane,McCaig,05:10,05:27,0:10:54.0
55,277,Luke,Feuerherdt,05:10,05:26,0:10:52.0
56,189,Tim,Creer,05:10,05:25,0:10:50.0
57,215,Emerson,Sim,05:10,05:25,0:10:50.0
58,269,Cooper,Charnas,05:10,05:25,0:10:50.0
59,297,Declan,Lavery,05:10,05:25,0:10:50.0
60,188,Darcy,Tucker,05:10,05:23,0:10:46.0
61,1,Ashlee,Bull,05:20,05:22,0:10:44.0
62,253,Charlotte,Murphy,05:20,05:22,0:10:44.0
63,182,Hanna,Crane,05:20,05:21,0:10:42.0
64,174,Sam,Hancock,05:20,05:20,0:10:40.0
65,164,Imogen,Thompson,05:20,05:19,0:10:38.0
66,275,Max,Rowe,05:20,05:19,0:10:38.0
67,134,Millicent,Woods,05:20,05:18,0:10:36.0
68,288,Kate,McIntosh,05:20,05:18,0:10:36.0
69,132,Tracie,Gleisner,05:30,05:15,0:10:30.0
70,152,Alannah,Rielley,05:30,05:15,0:10:30.0
71,193,Emily,Heislers,05:30,05:15,0:10:30.0
72,228,Sam,Pitson,05:30,05:14,0:10:28.0
73,176,Kaidyn,Tucker,05:40,05:12,0:10:24.0
74,295,Jeremy,Carlson,05:40,05:12,0:10:24.0
75,32,Oliver,Turnbull,05:40,05:10,0:10:20.0
76,149,Janelle,Giffin,05:40,05:09,0:10:18.0
77,156,Will,Murphy,05:50,05:07,0:10:14.0
78,300,Lucinda,Terry,05:50,05:05,0:10:10.0
79,110,Holly,McPhee,05:50,05:04,0:10:08.0
80,240,Jenelle,Seaward,06:00,05:00,0:10:00.0
81,325,Tom,Flood,06:00,04:59,0:09:58.0
82,158,Annalise,Murphy,06:00,04:58,0:09:56.0
83,171,Oliver,Sanderson,06:00,04:58,0:09:56.0
84,112,Jett,Grundy,06:10,04:57,0:09:54.0
85,241,Andrea,Smith,06:10,04:57,0:09:54.0
86,349,Nathaniel,McMaster,06:10,04:54,0:09:48.0
87,213,Phoebe,a'Beckett,06:20,04:51,0:09:42.0
88,77,Brad,Russell,06:20,04:50,0:09:40.0
89,191,Phoebe,Lonsdale,06:20,04:50,0:09:40.0
90,169,Floyd,Cartner,06:20,04:49,0:09:38.0
91,94,David,Lonsdale,06:30,04:46,0:09:32.0
92,82,Sophie,Adamson,06:30,04:45,0:09:30.0
93,107,Hayden,Brook,06:30,04:44,0:09:28.0
94,29,Alison,Cartner,06:40,04:42,0:09:24.0
95,184,Will,Crane,06:40,04:40,0:09:20.0
96,227,Joseph,Glanville,06:40,04:40,0:09:20.0
97,35,Conor,Cunningham,06:40,04:38,0:09:16.0
98,131,Carrisa,Brook,06:40,04:38,0:09:16.0
99,259,Jasmine,Santley,06:50,04:37,0:09:14.0
100,314,Aaron,Hamilton,06:50,04:36,0:09:12.0
101,39,Melissa,Douglas,07:00,04:32,0:09:04.0
102,201,Beatrice,Lonsdale,07:00,04:32,0:09:04.0
103,198,Matthew,Saxon,07:00,04:31,0:09:02.0
104,12,Josie,Aitken,07:20,04:21,0:08:42.0
105,177,Ben,Wilby,07:20,04:20,0:08:40.0
106,192,Nicholas,Ashman,07:20,04:20,0:08:40.0
107,308,Chris,Giffin,07:20,04:18,0:08:36.0
108,105,Toby,McCaig,07:30,04:15,0:08:30.0
109,161,Amelia,Evans,07:40,04:11,0:08:22.0
110,63,John,Robinson,07:40,04:10,0:08:20.0
111,203,Tullie,Rowe,07:40,04:10,0:08:20.0
112,218,Noah,Walsh,07:40,04:09,0:08:18.0
113,202,Callum,Tucker,07:50,04:07,0:08:14.0
114,236,Harry,Seaward,07:50,04:07,0:08:14.0
115,224,Cooper,Hale,07:50,04:06,0:08:12.0
116,114,Spencer,Evans,07:50,04:03,0:08:06.0
117,137,Anton,Paholek,08:10,03:57,0:07:54.0
118,219,Wil,McCaig,08:10,03:57,0:07:54.0
119,19,Troy,Cartner,08:10,03:56,0:07:52.0
120,80,Bridie,Blake-Burrows,08:10,03:53,0:07:46.0
121,42,Craig,Feuerherdt,08:20,03:50,0:07:40.0
122,143,Maxine,Paholek,08:20,03:50,0:07:40.0
123,167,Jack,Meade,08:40,03:41,0:07:22.0
124,33,Andrew,Creer,08:50,03:35,0:07:10.0
125,46,Richard,Gleisner,09:10,03:23,0:06:46.0
126,115,Alexander,Evans,09:30,03:16,0:06:32.0
127,97,Adam,Fleming,09:30,03:15,0:06:30.0
128,48,Matthew,Heislers,09:50,03:07,0:06:14.0
129,27,Andrew,Buchanan,09:50,03:04,0:06:08.0
