place,first,last,start,pace,est Time
1,Eric,Aardvark,00:00,8:0,32:00
2,Sarah,Cunningham,02:00,7:30,30:00
3,Imogen,Douglass,03:50,7:2,28:08
4,Jayden,Walsh,05:20,6:40,26:40
5,Anna,Hindson,06:00,6:30,26:00
6,Heather,Robson,06:20,6:25,25:40
7,Bella,Livingston,07:20,6:10,24:40
8,Lachlan,Walsh,07:20,6:10,24:40
9,Lucy,Terry,07:30,6:8,24:32
10,Isabella,Douglass,08:00,6:0,24:00
11,Houston,Pearse,08:00,6:0,24:00
12,Sayku,Hamond,08:00,6:0,24:00
13,Sol,Musk,08:00,6:0,24:00
14,Imogen,Thompson,08:10,5:57,23:48
15,Harry,Terry,08:10,5:57,23:48
16,Madlen,Hearne,08:20,5:55,23:40
17,Will,Gleisner,08:20,5:55,23:40
18,Julie,Evely,08:30,5:53,23:32
19,Megan,McDonald,09:20,5:40,22:40
20,Ross,Douglas,09:20,5:39,22:36
21,Beatrice,Lonsdale,09:40,5:35,22:20
22,Winnie,Hamond,10:00,5:30,22:00
23,Henry,Cordell,10:00,5:30,22:00
24,Will,Crane,10:00,5:30,22:00
25,Amber,Lyons,10:20,5:25,21:40
26,Bronte,Walsh,10:20,5:25,21:40
27,Joanne,Weatherhead,10:20,5:25,21:40
28,Amy,Sim,10:30,5:23,21:32
29,James,Kealy,10:30,5:22,21:28
30,Murray,Cordell,10:40,5:20,21:20
31,Zac,Walsh,11:00,5:16,21:04
32,Morgan,Dunn,11:20,5:10,20:40
33,Sayyu,Hamond,11:20,5:10,20:40
34,Biljana,Ansted,11:40,5:5,20:20
35,Alister,Brasher,12:00,5:0,20:00
36,Tracie,Gleisner,12:00,5:0,20:00
37,Bailey,Dunn,12:00,5:0,20:00
38,Sebastian,Rowe,12:00,5:0,20:00
39,Greg,Christie,12:00,5:1,20:04
40,Chris,Hamond,12:00,5:0,20:00
41,Ash,Bull,12:00,5:0,20:00
42,Carissa,Brooke,12:20,4:55,19:40
43,Floyd,Cartner,12:20,4:55,19:40
44,Scott,Roberts,12:30,4:52,19:28
45,Matisse,Perez,12:40,4:49,19:16
46,Tobias,Ansted,12:40,4:50,19:20
47,Noah,Walsh,12:50,4:48,19:12
48,Luke,Padgham,13:00,4:45,19:00
49,Tullie,Rowe,13:00,4:45,19:00
50,Liz,Foster,13:00,4:45,19:00
51,Brad,Russell,13:00,4:45,19:00
52,Emily,Heislers,13:20,4:40,18:40
53,Blaze,Houlden,13:20,4:40,18:40
54,Steffany,Roberts,13:20,4:40,18:40
55,Reuben,White,13:20,4:40,18:40
56,Will,Kenny,13:20,4:40,18:40
57,Shaina,Brooke,14:00,4:30,18:00
58,Jordan,Doherty,14:00,4:30,18:00
59,Tobias,Ansted,14:10,4:28,17:52
60,David,Lonsdale,14:20,4:25,17:40
61,Roy,Preece,14:20,4:25,17:40
62,Bweku,Hamond,14:20,4:25,17:40
63,Callum,Tucker,15:00,4:15,17:00
64,Jack,Cripps,15:10,4:13,16:52
65,Riley,Walsh,15:10,4:12,16:48
66,Leon,Hamond,15:20,4:10,16:40
67,Madeleine,Evely,16:00,4:0,16:00
68,Jordan,Buckell,16:20,3:55,15:40
69,Ned,Buckell,16:20,3:55,15:40
70,John,Rose,16:30,3:52,15:28
71,Mathew,Buckell,16:30,3:52,15:28
72,Jacob,Buckell,17:00,3:45,15:00
73,Pat,Kenny,17:20,3:40,14:40
74,Matthew,Heislers,17:40,3:35,14:20
75,Fraser,Walsh,18:20,3:25,13:40