PLACE,FIRST,LAST,TIME,PACE,CLUB
1,Charlotte,Murphy,0:03:58.3,03:58.3,UNI
2,Chelsea,Tickell,0:04:03.6,04:03.6,SOUTH BENDIGO
3,Keely,Fullerton,0:04:08.1,04:08.1,EAGLEHAWK
4,Ebony,Woodward,0:04:28.6,04:28.6,UNI
5,Jasmine,Murphy,0:04:36.4,04:36.4,UNI
6,April,Wainwright,0:04:41.9,04:41.9,UNI
7,Sophie,Nalder,0:04:48.2,04:48.2,EAGLEHAWK
8,Ivy,Bray,0:04:50.2,04:50.2,UNI
9,Anna,de Vries,0:04:54.7,04:54.7,UNI
10,Skylar,Woodward,0:05:02.0,05:02.0,UNI
11,Tully,Cripps,0:05:10.9,05:10.9,UNI
12,Elanore,Scoullar,0:05:16.4,05:16.4,OTHER
13,Eiliyah,Daneen,0:05:23.5,05:23.5,UNI
14,Delaney,Boyd,0:05:27.7,05:27.7,HARRIERS
15,Violet,Griffiths,0:05:28.0,05:28.0,HARRIERS
16,Chloe,Beesley,0:05:31.1,05:31.1,UNI
17,Jemma,Carter,0:05:32.2,05:32.2,UNI
18,Audrey,Scoullar,0:06:11.6,06:11.6,OTHER
19,Abigail,Epworth,0:06:41.2,06:41.2,UNI
20,Natasha,Fullerton,0:06:42.4,06:42.4,EAGLEHAWK
21,Edith,Gibbons,0:06:47.9,06:47.9,UNI
22,Ellie,Beesley,0:07:05.8,07:05.8,UNI
23,Ruby,Douglas,0:07:25.0,07:25.0,UNI
24,Elsie,Bennallack,0:07:29.6,07:29.6,UNI
25,Adeline,Bennallack,0:07:29.6,07:29.6,UNI
26,Indie,Colley,0:07:29.9,07:29.9,UNI
27,Harry,Scoullar,0:07:31.0,07:31.0,OTHER
