place,first,last,net Time,diff
1,Jackie,Tremayne,33:37,- 5:16
2,Shayne,Rushan,38:45,- 5:00
3,Jill,Kane,44:29,- 4:54
4,Alan,East,42:13,- 4:32
5,Nick,Walsh,32:00,- 3:38
6,Navec,Lorkin,33:45,- 3:38
7,Ingrid,Douglass,30:41,- 3:34
8,Jodie,Scoble,36:35,- 3:25
9,Jennifer,Jones,32:20,- 3:18
10,Ben,McDermid,26:45,- 3:15
11,Gavin,Fiedler,30:09,- 3:13
12,Wolf,Heiden,29:12,- 3:11
13,John,Rose,29:40,- 3:05
14,Stewart,Scoble,29:12,- 3:03
15,Wayne,Forbes,35:13,- 2:54
16,Gaby,Walsh,37:45,- 3:00
17,David,Tarrant,27:11,- 2:49
18,Russell,Tremayne,28:43,- 2:47
19,Janet,Hodnett,34:05,- 2:48
20,Michael,Hogan,30:58,- 2:47
21,Scott,Roberts,34:53,- 2:37
22,Justin,Lee,30:37,- 2:30
23,Gary,Crouch,31:11,- 2:04
24,John,Doering,40:59,- 1:53
25,Brad,Russell,35:27,- 1:25