PLACE,FIRST,LAST,RACES,POINTS
1,Chris,Giffin,8,95
2,Ben,McDermid,8,95
3,Rebecca,Wilkinson,6,90
4,Andrew,Creer,6,87
5,Craig,Feuerherdt,4,73
6,Nicholas,Cherry,5,69
7,Nigel,Preston,3,59
8,David,Lonsdale,5,59
9,Matthew,Schepisi,3,57
10,Wil,McCaig,3,55
11,Danny,Burgess,7,53
12,Garry,Marwood,3,51
13,David,Cripps,6,51
14,David,Heislers,5,48
15,John,Robinson,5,46
16,Damien,Roberts,7,45
17,Greg,Carter,4,39
18,Justin,Lee,8,38
19,Lee,McCullagh,2,34
20,Jack,Milligan,3,33
21,Tim,Lauder,2,33
22,Rik,McCaig,2,32
23,Craig,Green,4,25
24,Lisa,Wilkinson,5,21
25,Andrew,Buchanan,1,20
26,Stephen,van Rees,1,19
27,Ben,Stolz,1,18
28,Alan,Buchanan,4,17
29,Mumtaz,Hussain,5,17
30,Andrew,Van Agtmaal,1,17
31,Brian,Watson,1,16
32,Sarah,Jalim,1,15
33,James,Russell,3,15
34,Andrew,Wilkie,2,13
35,Clare,Montgomery,4,12
36,Travis,Edwards,3,9
37,Ross,Douglas,6,8
38,Jenny,Buchanan,3,7
39,Todd,Foster,3,5
40,Greg,McBain,1,5
41,Shayne,Rushan,7,4
42,Tanner,Fear,1,4
43,Mathew,Creer,1,4
44,Alison,Cartner,3,3
45,Charles,Chambers,1,2
46,Leah,Cripps,5,2
47,Darren,Rowe,6,1
48,Frances,Walsh,1,1
49,Kevin,de Vries,2,0
50,Jeremy,Draper,2,0
51,Kathleen,Pleasants,4,0
52,Philip,Shambrook,3,0
53,Phoebe,Lonsdale,1,0
54,Jennifer,Lee,1,0
55,Fiona,Dangerfield,3,0
56,Alistair,Stewart,2,0
57,Genevieve,Draper,1,0
58,Liz,Foster,3,0
59,Melissa,Wilkie,4,0
60,Trinity,Sanderson,2,0
61,Tyler,Wilkie,1,0
62,Lachlan,Cherry,1,0
63,Brad,Russell,2,0
64,Bec,Lacy,2,0
65,Josephine,Robinson,3,0
66,Mel,Debham,1,0
67,Justine,Rowe,4,0
68,Beth,Lavery,4,0
69,Charlotte,Murphy,1,0
70,Amelia,Mitchell,1,0
71,Gavin,Fiedler,3,0
72,David,Howes,3,0
73,Megan,McDonald,1,0
74,Hamish,Draper,1,0
75,Maree,Platt,5,0
76,Kim,Carter,1,0
77,Ann-Marie,Wangdi,1,0
78,Beatrice,Lonsdale,1,0
79,Sue,Taylor,5,0
80,Michaela,Meharry,1,0
81,Emma,Gibbons,2,0
82,Janelle,Giffin,1,0
83,Troy,Davis,4,0
84,Alan,East,4,0
85,Jay,Sanderson,1,0
86,Vicki,Lane,3,0
87,Leeza,Meharry,1,0
