PLACE,FIRST,LAST,RACES,POINTS
1,Mason,Woodward,8,140
2,Avery,McDermid,7,117
3,Ebony,Woodward,8,100
4,Lewis,Lonsdale,5,92
5,Luke,Feuerherdt,5,79
6,Jonty,McDermid,6,76
7,April,Wainwright,8,74
8,William,Robinson,4,70
9,Logan,Beesley,5,70
10,Joshua,Feuerherdt,4,63
11,Skylar,Woodward,8,55
12,Noah,Armstrong,2,38
13,Jaron,Ekanayake,2,37
14,Poppy,Wainwright,4,34
15,Jye,Ekanayake,2,32
16,Tully,Cripps,6,32
17,Miller,Armstrong,2,29
18,Olivia,Douglas,4,28
19,Chloe,Beesley,5,27
20,Ivy,Bray,2,26
21,Jemma,Carter,5,26
22,Harry,Cripps,4,25
23,Eiliyah,Daneen,4,21
24,Sebastian,Stewart,2,20
25,Geoffrey,Robinson,6,20
26,Max,Rowe,1,20
27,Xavier,Marwood,2,18
28,Lucy,McCaig,1,16
29,Anna,de Vries,2,15
30,Lily,Sanderson,1,15
31,Samuel,Preston,3,15
32,Phoebe,Martin,1,14
33,Will,de Vries,2,14
34,Elliott,Lavery,4,13
35,Braxton,Safstrom,3,12
36,Harry,Scott,1,12
37,Savannah,Marwood,2,12
38,Abigail,Epworth,5,11
39,Liam,Carter,5,11
40,Lacey,Wilkie,1,11
41,Eden,Howes,1,10
42,Spencer,Lavery,1,8
43,Ruby,Meharry,1,7
44,Ruby,Douglas,7,6
45,Genevieve,Draper,1,4
46,Owen,Draper,3,2
47,Belle,Howes,1,2
48,Ellie,Beesley,4,2
49,Tobias,Preston,2,1
50,Genevieve,Robinson,5,0
51,Tom,Roberts,3,0
52,Bonnie,Scott,1,0
53,Megan,Howes,1,0
54,Spencer,Epworth,2,0
