PLACE,FIRST,LAST,TIME,PACE,CLUB
1,Jill,Wilkie,1:35:26.7,04:32.7,HARRIERS
2,Rebecca,Wilkinson,1:37:00.8,04:37.2,UNI
3,Leah,Cripps,1:58:58.2,05:39.9,UNI
4,Trinity,Sanderson,1:58:59.5,05:40.0,UNI
5,Maree,Platt,1:59:24.6,05:41.2,UNI
6,Fiona,Dangerfield,2:03:38.6,05:53.3,UNI
7,Jen,Pollard,2:19:13.0,06:37.8,UNI
