Place,First,Last,NET Time,Pace,Diff
1,Aida,Escall,0:17:46.4,05:55.5,-01:55.6
2,Jeremy,Carlson,0:14:11.4,04:43.8,-01:33.6
3,Tim,Creer,0:13:29.0,04:29.7,-01:07.0
4,Carrisa,Brook,0:13:01.5,04:20.5,-00:52.5
5,Juliet,Deacon,0:16:29.7,05:29.9,-00:42.3
6,Toby,McCaig,0:12:10.7,04:03.6,-00:34.3
7,Beatrice,Lonsdale,0:13:51.8,04:37.3,-00:23.2
8,Jack,Meade,0:11:15.2,03:45.1,-00:29.8
9,Wil,McCaig,0:11:05.5,03:41.8,-00:27.5
10,Mark,Saxon,0:12:19.7,04:06.6,-00:19.3
11,Max,Rowe,0:13:30.7,04:30.2,-00:23.3
12,Darren,Rowe,0:14:23.4,04:47.8,-00:21.6
13,Matthew,Saxon,0:13:16.8,04:25.6,-00:16.2
14,Liam,Deacon,0:19:15.2,06:25.1,+00:00.2
15,Phoebe,Lonsdale,0:14:15.9,04:45.3,-00:08.1
16,Luke,Creer,0:18:05.9,06:02.0,+00:08.9
17,Bridie,Blake-Burrows,0:12:06.7,04:02.2,+00:09.7
18,Nathan,Jones,0:15:20.1,05:06.7,+00:11.1
19,Steff,Roberts,0:14:18.3,04:46.1,+00:18.3
20,Josephine,Robinson,0:18:03.1,06:01.0,+00:18.1
21,Liz,Stewart,0:20:11.8,06:43.9,+00:26.8
22,Scott,Roberts,0:16:08.0,05:22.7,+00:38.0
23,Matthew,Hadkins,0:18:12.8,06:04.3,+00:45.8
24,Tyler,Wilkie,0:16:06.4,05:22.1,+00:48.4
25,Lynley,McDonald,0:19:20.0,06:26.7,+01:26.0
26,Greg,Toomey,0:18:33.4,06:11.1,+01:30.4
27,Louise,Toomey,0:19:08.4,06:22.8,+02:02.4
28,Melissa,Douglas,0:16:08.7,05:22.9,+02:32.7
29,Sam,Hancock,0:18:49.2,06:16.4,+02:49.2
30,Leah,Cripps,0:23:36.9,07:52.3,+03:06.9
NEW,Shelley,Tuohey,0:14:59.7,04:59.9
NEW,Stephanie,Carlson,0:19:08.8,06:22.9
NEW,Jaryd,Naeves,0:15:10.7,05:03.6
NEW,Lincon,Hocking,0:17:43.0,05:54.3
NEW,Imogen,Stewart,0:16:40.7,05:33.6
NEW,Sabine,Stewart,0:17:51.4,05:57.1
NEW,Sharon,Carlson,0:22:27.2,07:29.1
NEW,Aidan,Deacon,0:20:16.5,06:45.5
