place,first,last,net Time,diff
1,Callum,Tucker,15:22,- 3:20
2,Tullie,Rowe,16:19,- 1:32
3,Sayku,Hamond,20:22,- 1:10
4,Brad,Russell,16:12,- 0:48
5,Bweku,Hamond,14:50,- 0:45
6,Murray,Cordell,17:59,- 0:36
7,Leon,Hamond,14:13,- 0:14
8,Megan,McDonald,21:28,- 0:04
9,Fraser,Walsh,12:01,+ 0:00
10,Sayyu,Hamond,17:36,+ 0:02
11,Sebastian,Rowe,18:24,+ 0:16
12,Morgan,Dunn,19:17,+ 0:35
13,Lachlan,Walsh,21:31,+ 1:07
14,Bailey,Dunn,18:34,+ 1:17
15,Zac,Walsh,19:15,+ 1:34
16,Winnie,Hamond,19:34,+ 2:00
17,Anna,Hindson,22:48,+ 2:24
18,Heather,Robson,22:50,+ 2:26
19,Chris,Hamond,22:48,+ 6:56