Place,First,Last,NET Time,Pace,Diff
1,Bec,Woodward,0:17:39.4,05:53,-02:29.6
2,Phoebe,Martin,0:15:35.6,05:12,-01:39.4
3,Mathilda,Stewart,0:18:51.0,06:17,-00:48.0
4,Charlotte,Murphy,0:13:26.1,04:29,-00:33.9
5,Max,Rowe,0:13:30.1,04:30,-00:29.9
6,Lesley,Fabian,0:18:28.1,06:09,-00:25.9
7,Philip,Shambrook,0:18:59.0,06:20,-00:25.0
8,John,Robinson,0:11:54.6,03:58,-00:23.4
9,Bec,Lacy,0:16:38.1,05:33,-00:21.9
10,Floyd,Cartner,0:12:35.7,04:12,-00:15.3
11,Connor,Bedson,0:13:05.1,04:22,-00:12.9
12,Oliver,Sanderson,0:12:39.6,04:13,-00:02.4
13,Tullie,Rowe,0:11:59.1,04:00,-00:00.9
14,Trent,Bayliss,0:16:04.9,05:22,+00:07.9
15,Tyler,Wilkie,0:14:57.7,04:59,+00:12.7
16,Bridie,Blake-Burrows,0:12:19.5,04:06,+00:19.5
17,Lachlan,Feuerherdt,0:14:06.2,04:42,+00:30.2
18,Toby,McCaig,0:12:35.5,04:12,+00:35.5
19,Leah,Cripps,0:21:48.2,07:16,+01:18.2
20,Lynley,McDonald,0:19:57.8,06:39,+01:57.8
21,Phoebe,Lonsdale,0:16:07.2,05:22,+02:13.2
22,Beatrice,Lonsdale,0:16:06.6,05:22,+02:21.6
NEW,Gavin,Fiedler,0:15:44.1,05:15
NEW,Lewis,Lonsdale,0:14:33.6,04:51
NEW,Danny,Burgess,0:14:19.2,04:46
NEW,Amelia,Mitchell,0:21:59.0,07:20
NEW,Isabelle,Draper,0:32:19.9,10:47
NEW,Genevieve,Draper,0:29:50.8,09:57
NEW,Hamish,Draper,0:22:52.6,07:38
