Place,First,Last,NET Time,Pace,Diff
1,Ebony,Woodward,0:05:12.6,05:13,-00:25.4
2,Sebastian,Stewart,0:05:31.6,05:32,-00:21.4
3,Mason,Woodward,0:04:13.7,04:14,-00:19.3
4,Ivy,Bray,0:04:56.6,04:57,-00:13.4
5,Joshua,Feuerherdt,0:04:39.1,04:39,+00:02.1
6,William,Robinson,0:04:05.9,04:06,+00:10.9
7,Lewis,McIntosh,0:05:17.2,05:17,+00:13.2
8,Tully,Cripps,0:05:49.6,05:50,+00:14.6
9,Jonty,McDermid,0:05:11.1,05:11,+00:17.1
10,Lewis,Lonsdale,0:04:18.5,04:18,+00:17.5
11,Avery,McDermid,0:04:34.6,04:35,+00:17.6
12,April,Wainwright,0:05:48.5,05:48,+00:19.5
13,Sebastian,Boromeo,0:05:11.5,05:12,+00:22.5
14,Callen,Bayliss,0:06:09.4,06:09,+00:27.4
15,Eden,Howes,0:05:44.5,05:44,+00:29.5
16,Belle,Howes,0:06:25.6,06:26,+00:38.6
17,Phoebe,Martin,0:05:07.1,05:07,+00:40.1
18,Harry,Cripps,0:05:39.7,05:40,+00:40.7
19,Genevieve,Robinson,0:08:11.5,08:11,+00:51.5
20,Will,deVries,0:05:38.1,05:38,+01:03.1
21,Geoffrey,Robinson,0:06:38.2,06:38,+01:23.2
22,Sienna,Bayliss,0:09:27.2,09:27,+01:27.2
23,Skylar,Woodward,0:07:12.7,07:13,+01:54.7
NEW,Alice,McIntosh,0:08:43.7,08:44
NEW,Madeline,Gibbons,0:08:12.4,08:12
NEW,Isabelle,Draper,0:06:06.8,06:07
NEW,Owen,Draper,0:08:01.5,08:02
NEW,Zacch,Martin,0:05:33.1,05:33
NEW,Jake,Wight,0:04:38.0,04:38
