Place,Member,First,Last,Start,Pace,Est Time
1,3715,Chloe,Green,03:20,06:35,0:52:40.0
2,2,Alan,East,04:00,06:30,0:52:00.0
3,145,Joshua,Condon,04:40,06:25,0:51:20.0
4,364,David,Howes,05:40,06:17,0:50:16.0
5,149,Janelle,Giffin,06:00,06:15,0:50:00.0
6,397,Taylor,Lovell,06:20,06:12,0:49:36.0
7,87,Frances,Walsh,06:20,06:12,0:49:36.0
8,43,Josephine,Robinson,07:10,06:06,0:48:48.0
9,37,John,Doering,07:10,06:06,0:48:48.0
10,197,Sue,Taylor,07:30,06:04,0:48:32.0
11,3732,Emma,Gibbons,07:40,06:03,0:48:24.0
12,35,Conor,Cunningham,08:30,05:56,0:47:28.0
13,57,Adam,Henderson,08:40,05:55,0:47:20.0
14,77,Brad,Russell,08:40,05:55,0:47:20.0
15,233,Sue,Condon,09:40,05:48,0:46:24.0
16,68,Justin,O'Brien,09:50,05:46,0:46:08.0
17,6,Shayne,Rushan,10:20,05:43,0:45:44.0
18,392,Mark,Logan,10:20,05:42,0:45:36.0
19,186,Jason,Anderton,10:40,05:40,0:45:20.0
20,74,Maree,Platt,11:20,05:35,0:44:40.0
21,398,Angus,McPherson,11:40,05:32,0:44:16.0
22,40,Aida,Escall,12:00,05:30,0:44:00.0
23,400,Darren,Rowe,12:00,05:30,0:44:00.0
24,299,Jay,Sanderson,12:10,05:29,0:43:52.0
25,16,Jennifer,Lee,12:20,05:28,0:43:44.0
26,81,Laura,Terry,12:20,05:27,0:43:36.0
27,210,Fiona,Dangerfield,12:30,05:26,0:43:28.0
28,321,Brett,Houlden,12:40,05:25,0:43:20.0
29,111,Troy,Davis,12:40,05:25,0:43:20.0
30,315,Paul,Lomax,12:50,05:24,0:43:12.0
31,331,Scott,Roberts,12:50,05:24,0:43:12.0
32,54,Kevin,deVries,13:00,05:22,0:42:56.0
33,91,Melissa,Wilkie,13:20,05:20,0:42:40.0
34,251,Beth,Lavery,13:20,05:20,0:42:40.0
35,52,Leah,Cripps,13:40,05:18,0:42:24.0
36,333,Jon,McIntosh,14:00,05:15,0:42:00.0
37,370,James,Deacon,14:10,05:14,0:41:52.0
38,180,Lauren,Hancock,14:40,05:10,0:41:20.0
39,3702,Vicki,Bayliss,14:50,05:09,0:41:12.0
40,3726,Clare,Montgomery,15:00,05:07,0:40:56.0
41,29,Alison,Cartner,16:00,05:00,0:40:00.0
42,22,Ross,Douglas,16:10,04:59,0:39:52.0
43,34,Matthew,Creer,16:20,04:57,0:39:36.0
44,296,Ashlee,Diston,16:20,04:57,0:39:36.0
45,363,Philippa,Morris,16:30,04:56,0:39:28.0
46,13,Gavin,Fiedler,16:40,04:55,0:39:20.0
47,3735,Travis,Edwards,16:50,04:54,0:39:12.0
48,359,Anne,McIntosh,16:50,04:54,0:39:12.0
49,307,Philip,Shambrook,17:00,04:53,0:39:04.0
50,59,Tina,McBain,17:00,04:53,0:39:04.0
51,369,Stephen,Wainwright,17:00,04:52,0:38:56.0
52,241,Andrea,Smith,17:00,04:52,0:38:56.0
53,5,Jenny,Buchanan,17:20,04:50,0:38:40.0
54,339,James,Toomey,17:20,04:50,0:38:40.0
55,330,Kate,Hadkins,17:20,04:50,0:38:40.0
56,3,Alan,Buchanan,18:00,04:45,0:38:00.0
57,90,Rory,Weightman,18:00,04:45,0:38:00.0
58,394,Rhianna,Wik-Gamble,18:20,04:42,0:37:36.0
59,55,Justin,Lee,18:40,04:40,0:37:20.0
60,9,Trinity,Sanderson,18:40,04:40,0:37:20.0
61,14,Lisa,Wilkinson,19:00,04:37,0:36:56.0
62,117,Ingrid,Douglass,19:20,04:35,0:36:40.0
63,60,Greg,McBain,19:20,04:35,0:36:40.0
64,3744,Finn,MacGregor,19:50,04:31,0:36:08.0
65,396,Simon,Hunt,20:00,04:30,0:36:00.0
66,31,Charles,Chambers,20:00,04:30,0:36:00.0
67,39,Melissa,Douglas,20:00,04:30,0:36:00.0
68,350,David,Cripps,20:00,04:30,0:36:00.0
69,203,Tullie,Rowe,20:00,04:30,0:36:00.0
70,346,Paul,Vickery,20:10,04:29,0:35:52.0
71,18,Georgie,Lanyon,20:20,04:28,0:35:44.0
72,386,Danny,Burgess,20:20,04:28,0:35:44.0
73,17,Karl,Lanyon,20:30,04:26,0:35:28.0
74,109,Tim,Lovell,20:40,04:25,0:35:20.0
75,231,Paul,Seaward,20:40,04:25,0:35:20.0
76,384,Andrew,Wilkie,20:40,04:25,0:35:20.0
77,3730,Greg,Carter,20:40,04:25,0:35:20.0
78,70,Els,Viester,20:40,04:25,0:35:20.0
79,49,David,Heislers,20:40,04:25,0:35:20.0
80,308,Chris,Giffin,20:50,04:24,0:35:12.0
81,94,David,Lonsdale,21:00,04:22,0:34:56.0
82,352,Amy,Holmes,21:30,04:19,0:34:32.0
83,3734,Lukas,Jara,21:40,04:18,0:34:24.0
84,15,Rebecca,Wilkinson,21:50,04:16,0:34:08.0
85,317,John,Flood,22:00,04:15,0:34:00.0
86,167,Jack,Meade,22:00,04:15,0:34:00.0
87,10,Lee,Bray,22:20,04:12,0:33:36.0
88,65,Ben,McDermid,23:00,04:08,0:33:04.0
89,61,Chris,McCormack,23:20,04:05,0:32:40.0
90,351,Matt,Holmes,23:20,04:05,0:32:40.0
91,118,Tim,Lauder,23:40,04:03,0:32:24.0
92,336,Brock,Prime,24:10,03:59,0:31:52.0
93,399,Darren,Hartland,24:10,03:59,0:31:52.0
94,3739,Stephen,Van Rees,24:30,03:56,0:31:28.0
95,84,Craig,Green,24:40,03:55,0:31:20.0
96,125,Sarah,Jalim,24:40,03:55,0:31:20.0
97,23,Michael,Bieleny,24:40,03:55,0:31:20.0
98,88,Brian,Watson,25:00,03:52,0:30:56.0
99,8,Rik,McCaig,25:20,03:50,0:30:40.0
100,33,Andrew,Creer,25:20,03:50,0:30:40.0
101,62,Lee,McCullagh,25:40,03:48,0:30:24.0
102,42,Craig,Feuerherdt,25:40,03:48,0:30:24.0
103,63,John,Robinson,26:00,03:45,0:30:00.0
104,166,David,Meade,27:20,03:35,0:28:40.0
105,3701,Nigel,Preston,27:50,03:31,0:28:08.0
106,48,Matthew,Heislers,28:00,03:30,0:28:00.0
107,86,Fraser,Walsh,29:30,03:19,0:26:32.0
108,27,Andrew,Buchanan,30:30,03:11,0:25:28.0
