Place,Member,First,Last,Start,Pace,Est Time
1,3705,Sienna,Bayliss,00:00,08:00,0:08:00.0
2,3743,Liam,Carter,00:30,07:31,0:07:31.0
3,379,Quinn,Holmes,00:40,07:22,0:07:22.0
4,382,Genevieve,Robinson,00:40,07:20,0:07:20.0
5,3727,Samuel,Preston,00:50,07:09,0:07:09.0
6,3741,Kim,Carter,01:00,07:01,0:07:01.0
7,3708,Janine,Butcher,01:10,06:51,0:06:51.0
8,3742,Jemma,Carter,01:20,06:35,0:06:35.0
9,390,Ruby,Douglas,01:40,06:25,0:06:25.0
10,335,Lenny,Hancock,01:40,06:15,0:06:15.0
11,154,Sean,Hughan,01:40,06:15,0:06:15.0
12,211,Jesse,Brook,02:00,06:03,0:06:03.0
13,348,Tazma,Ferrie,02:00,06:02,0:06:02.0
14,234,Finn,Cunningham,02:00,05:58,0:05:58.0
15,3778,Sebastian,Stewart,02:10,05:53,0:05:53.0
16,326,Sachin,Cody,02:10,05:50,0:05:50.0
17,355,Millie,McIntosh,02:10,05:47,0:05:47.0
18,372,Belle,Howes,02:10,05:47,0:05:47.0
19,178,Annabel,Hancock,02:20,05:43,0:05:43.0
20,3704,Callen,Bayliss,02:20,05:42,0:05:42.0
21,216,Ava,Terry,02:20,05:41,0:05:41.0
22,123,Michael,Terry,02:20,05:39,0:05:39.0
23,3737,Ebony,Woodward,02:20,05:38,0:05:38.0
24,3716,Gus,Edwards,02:20,05:38,0:05:38.0
25,250,Tully,Cripps,02:20,05:35,0:05:35.0
26,28,Mitchell,Bray,02:20,05:35,0:05:35.0
27,345,Jordan,Baker,02:30,05:33,0:05:33.0
28,324,Quinlan,Cody,02:30,05:32,0:05:32.0
29,271,Will,Smith,02:30,05:29,0:05:29.0
30,381,April,Wainwright,02:30,05:29,0:05:29.0
31,246,Poppy,Wainwright,02:40,05:25,0:05:25.0
32,255,Dylan,Sim,02:40,05:24,0:05:24.0
33,209,Olivia,Douglas,02:40,05:21,0:05:21.0
34,284,Imogen,Stewart,02:40,05:20,0:05:20.0
35,260,Thomas,Henderson,02:40,05:18,0:05:18.0
36,3736,Skylar,Woodward,02:40,05:18,0:05:18.0
37,298,Elliot,Lavery,02:40,05:18,0:05:18.0
38,368,Eden,Howes,02:40,05:15,0:05:15.0
39,44,Geoffrey,Robinson,02:40,05:15,0:05:15.0
40,245,Lacey,Wilkie,02:50,05:12,0:05:12.0
41,258,Ivy,Bray,02:50,05:10,0:05:10.0
42,3711,Eryn,McManus,03:00,05:05,0:05:05.0
43,358,Lewis,McIntosh,03:00,05:04,0:05:04.0
44,3719,Charli,Green,03:00,05:00,0:05:00.0
45,3709,Scott,Butcher,03:00,05:00,0:05:00.0
46,50,Harry,Cripps,03:00,04:59,0:04:59.0
47,282,Anna,deVries,03:00,04:56,0:04:56.0
48,305,Jonty,McDermid,03:10,04:54,0:04:54.0
49,293,Spencer,Lavery,03:10,04:51,0:04:51.0
50,391,Sebastian,Boromeo,03:10,04:49,0:04:49.0
51,267,Kayla,McManus,03:10,04:48,0:04:48.0
52,283,Lily,Sanderson,03:10,04:46,0:04:46.0
53,297,Declan,Lavery,03:20,04:44,0:04:44.0
54,276,Joshua,Feuerherdt,03:20,04:37,0:04:37.0
55,3717,Lachlan,Edwards,03:20,04:36,0:04:36.0
56,174,Sam,Hancock,03:20,04:36,0:04:36.0
57,281,Will,deVries,03:20,04:35,0:04:35.0
58,153,Tadhg,Hughan,03:30,04:33,0:04:33.0
59,3738,Mason,Woodward,03:30,04:33,0:04:33.0
60,99,Oscar,Terry,03:30,04:32,0:04:32.0
61,3706,Ebony,Butcher,03:30,04:32,0:04:32.0
62,360,Phoebe,Martin,03:30,04:27,0:04:27.0
63,319,Nikolas,Makris,03:40,04:20,0:04:20.0
64,252,Jasmine,Murphy,03:40,04:18,0:04:18.0
65,274,Avery,McDermid,03:40,04:17,0:04:17.0
66,277,Luke,Feuerherdt,03:40,04:16,0:04:16.0
67,272,Abbey,Cartner,03:50,04:13,0:04:13.0
68,279,Lucy,McCaig,03:50,04:11,0:04:11.0
69,337,Steff,Roberts,03:50,04:09,0:04:09.0
70,189,Tim,Creer,04:00,04:03,0:04:03.0
71,266,Lewis,Lonsdale,04:00,04:01,0:04:01.0
72,191,Phoebe,Lonsdale,04:00,04:00,0:04:00.0
73,147,Lachlan,Feuerherdt,04:00,03:59,0:03:59.0
74,131,Carrisa,Brook,04:00,03:55,0:03:55.0
75,254,William,Robinson,04:00,03:55,0:03:55.0
76,42,Craig,Feuerherdt,04:30,03:30,0:03:30.0
