PLACE,FIRST,LAST,RACES,POINTS
1,Sarah,Jalim,5,80
2,Michael,Bieleny,4,78
3,Ben,McDermid,5,72
4,Chris,Giffin,5,59
5,Tim,Lauder,4,59
6,Craig,Green,3,54
7,Rik,McCaig,3,53
8,David,Lonsdale,5,49
9,Fraser,Walsh,2,40
10,Nigel,Preston,2,39
11,Simon,Hunt,4,37
12,Greg,Carter,3,34
13,Andrew,Creer,2,34
14,Rebecca,Wilkinson,2,24
15,David,Cripps,3,21
16,David,Heislers,3,21
17,Alan,Buchanan,4,21
18,Karl,Lanyon,2,20
19,Darren,Hartland,2,20
20,Tim,Lovell,3,19
21,Craig,Feuerherdt,1,19
22,Danny,Burgess,2,18
23,Stephen,Van Rees,1,18
24,Justin,Lee,4,17
25,Brian,Watson,1,17
26,Peter,King,1,16
27,Lukas,Jara,1,13
28,Charles,Chambers,2,13
29,Travis,Edwards,3,11
30,Stephen,Wainwright,4,10
31,Trinity,Sanderson,3,9
32,Finn,MacGregor,1,9
33,Andrew,Wilkie,1,5
34,Georgie,Lanyon,2,5
35,Vicki,Bayliss,3,5
36,Andrea,Smith,4,4
37,Philip,Shambrook,3,4
38,Matthew,Creer,1,3
39,Jenny,Buchanan,3,3
40,Ashlee,Diston,1,1
41,Alison,Cartner,5,1
42,Maree,Platt,4,0
43,Angus,McPherson,3,0
44,Mark,Logan,1,0
45,Lauren,Hancock,2,0
46,Gavin,Fiedler,1,0
47,Paul,Lomax,5,0
48,Alan,East,1,0
49,Darren,Rowe,4,0
50,Leah,Cripps,2,0
51,Kathleen,Pleasants,1,0
52,Frances,Walsh,4,0
53,Beth,Lavery,3,0
54,Conor,Cunningham,1,0
55,Josephine,Robinson,5,0
56,Shayne,Rushan,4,0
57,Janelle,Giffin,1,0
58,Emma,Gibbons,2,0
59,James,Toomey,2,0
60,Sue,Taylor,4,0
61,Jeremy,Draper,1,0
62,Chloe,Green,1,0
63,Jay,Sanderson,1,0
64,Melissa,Wilkie,2,0
65,Jon,McIntosh,2,0
66,Taylor,Lovell,2,0
67,Renelle,McManus,1,0
68,Kevin,deVries,3,0
69,David,Howes,2,0
70,Justin,O'Brien,2,0
71,Megan,McDonald,1,0
72,Clare,Montgomery,4,0
73,Ross,Douglas,5,0
74,Troy,Davis,2,0
