place,first,last,net Time,diff
1,Rachael,Hamilton,5:28,- 1:32
2,Harry,Wright,4:17,- 1:06
3,Noah,Walsh,4:19,- 0:47
4,Tara,Carroll,4:28,- 0:39
5,Neve,Coleman,5:55,- 0:38
6,Imogen,Douglass,6:16,- 0:34
7,Dylan,Evans,4:23,- 0:32
8,Nellie,Rose,6:30,- 0:30
9,Jack,Wright,8:59,- 0:27
10,Stephanie,Roberts,4:04,- 0:26
11,Brayden,Roberts,4:21,- 0:24
12,Bailey,Evans,3:23,- 0:16
13,Eliza,Christie,6:12,- 0:15
14,Zac,Walsh,5:19,- 0:14
15,Liam,Carroll,5:51,- 0:11
16,Tom,Coleman,5:45,- 0:05
17,James,Kealy,5:38,- 0:04
18,Beatrice,Lonsdale,5:23,- 0:03
19,Tara,Anderson,7:12,+ 0:04
20,Maire,Coleman,6:46,+ 0:06
21,Lachlan,Walsh,5:42,+ 0:17
22,Maeve,Hogan,6:05,+ 0:18
23,Morgan,Dunn,5:36,+ 0:38
24,Imogen,Thompson,6:18,+ 0:56
25,Jeremy,Pearson,4:31,+ 1:01
26,Claran,Nobel,6:48,+ 3:18