PLACE,FIRST,LAST,RACES,POINTS
1,Phoebe,Lonsdale,3,50
2,Mason,Woodward,3,46
3,Floyd,Cartner,2,40
4,Chris,Giffin,2,38
5,Tanner,Fear,3,33
6,Tullie,Rowe,2,32
7,David,Cripps,2,31
8,William,Trew,3,31
9,Ben,McDermid,2,28
10,Max,Rowe,2,26
11,Kane,Safstrom,2,24
12,Andrea,Smith,2,23
13,Rebecca,Kirkby,2,21
14,William,Robinson,3,19
15,Andrew,Creer,1,18
16,Avery,McDermid,3,18
17,Charlotte,Murphy,3,16
18,Lewis,Lonsdale,2,16
19,Lachlan,Feuerherdt,1,15
20,Abbey,Cartner,1,13
21,Mumtaz,Hussain,3,13
22,Harry,Wright,1,13
23,Luke,Feuerherdt,2,12
24,Cooper,Firli,1,9
25,Beatrice,Lonsdale,1,8
26,Lachlan,Edwards,1,7
27,Ebony,Woodward,3,7
28,Freya,Nicoletti,1,6
29,Ethan,Marwood,2,5
30,Jonty,McDermid,3,4
31,Lisa,Wilkinson,1,3
32,James,Trew,1,3
33,Will,de Vries,3,1
34,Charlie,Collins,1,1
35,Ross,Douglas,1,0
36,Josephine,Robinson,2,0
37,Geoffrey,Robinson,3,0
38,Harry,Cripps,3,0
39,Leah,Cripps,2,0
40,Kevin,de Vries,2,0
41,Liz,Stewart,2,0
42,Renelle,McManus,2,0
43,Lesley,Fabian,3,0
44,Lou,Bray,1,0
45,Jaron,Ekanayake,1,0
46,Poppy,Wainwright,3,0
47,Tully,Cripps,3,0
48,Jasmine,Murphy,2,0
49,Fin,Bray,1,0
50,Joshua,Feuerherdt,1,0
51,Anna,de Vries,2,0
52,Imogen,Stewart,2,0
53,Thom,Hosking,2,0
54,Jon,McIntosh,1,0
55,Lynley,McDonald,3,0
56,Lewis,McIntosh,2,0
57,April,Wainwright,1,0
58,Sebastian,Boromeo,1,0
59,Tammy,Fear,1,0
60,Eiliyah,Daneen,2,0
61,Xavier,Marwood,1,0
62,Melinda,Marwood,2,0
63,Harry,Scott,2,0
64,Sonya,Walker,1,0
65,Jodie,McLeod,1,0
66,Scott,McLeod,1,0
67,Louise,Firli,1,0
68,Sarah,Trew,3,0
69,Dean,Trew,3,0
70,Michelle,Scott,2,0
71,Jimi,Read,1,0
72,Kale,Beesley,1,0
73,Zac,Firli,1,0
74,Hannah,Niblett,1,0
75,Kelvin,Niblett,1,0
76,Jazlin,Fear,2,0
77,Bec,Woodward,3,0
78,Travis,Edwards,1,0
79,Kim,Carter,1,0
80,Amelia,Mitchell,1,0
81,Isabella,Draper,1,0
82,Genevieve,Draper,1,0
83,Logan,Beesley,2,0
84,Tanae,Bull,1,0
85,Anthony,Byrne,1,0
86,Hamish,Draper,1,0
