PLACE, FIRST, LAST, TIME, PACE, CLUB
1,April,Wainwright,0:04:34.3,04:34.3,UNI
2,Ruby,Carter,0:05:32.9,05:32.9,UNI
3,Ruby,Douglas,0:06:07.5,06:07.5,UNI
4,Ellie,Beesley,0:06:15.2,06:15.2,UNI
5,Kaylee,Llewellyn,0:06:39.1,06:39.1,EAGLEHAWK
