PLACE, FIRST, LAST, TIME, PACE, CLUB
1,Amy,McCormick,0:29:54.0,03:56.1,UNI
2,Rebecca,Wilkinson,0:32:02.3,04:12.9,UNI
3,Rebecca,Kirkby,0:32:35.6,04:17.3,UNI
4,Gabrielle,Rusbridge,0:35:48.4,04:42.7,EAGLEHAWK
5,Molly,Butler,0:38:16.8,05:02.2,UNI
6,Nadene,Macdonald,0:38:59.0,05:07.8,HARRIERS
7,Casey,Crapper,0:40:41.5,05:21.2,EAGLEHAWK
8,Janis,Bull,0:43:39.8,05:44.7,OTHER
