place,first,last,net Time,diff
1,Greg,Dundas,37:42,- 3:42
2,Michael,Gillies-Smith,30:32,- 2:14
3,Jane,McCaig,40:19,- 2:14
4,Trinity,Sanderson,34:47,- 2:01
5,Chris,Xu,25:23,- 1:04
6,Luke,Hutchins,25:27,- 1:00
7,Justine,Rowe,41:32,- 1:01
8,Gary,Crouch,31:28,- 0:44
9,Luke,Crameri,25:57,- 0:30
10,Shayne,Rushan,35:48,- 0:32
11,Cara,Smith,36:10,- 0:31
12,John,Robinson,27:43,- 0:20
13,Craig,Feuerherdt,26:35,- 0:27
14,Andrew,Buchanan,22:05,- 0:27
15,Roy,Preece,32:06,- 0:20
16,Alison,Cartner,32:45,- 0:08
17,Stewart,Scoble,28:09,- 0:08
18,Gavin,Fiedler,31:29,+ 0:05
19,Ben,McDermid,27:30,+ 0:07
20,Genevieve,Green,35:04,+ 0:20
21,Maree,Platt,38:23,+ 0:26
22,Greg,McBain,31:42,+ 0:39
23,Chris,McCormack,29:37,+ 0:52
24,Andrew,Creer,26:43,+ 0:51
25,Kevin,de Vries,41:44,+ 0:54
26,Melissa,Wilkie,37:15,+ 1:02
27,Laura,Terry,37:30,+ 1:17
28,Andrew,Hosking,28:08,+ 1:34
29,Justin,Lee,33:13,+ 1:35
30,Aida,Escall,43:22,+ 1:58
31,Rebecca,Tweed,35:46,+ 2:25
32,Jenny,Lee,40:10,+ 2:47
33,Harry,Terry,41:57,+ 4:00