place,first,last,net Time,diff
1,William,Gleisner,05:46,- 0:39
2,Hannah,Crane,05:18,- 0:32
3,Felix,Ansted,05:41,- 0:19
4,Luella,Ansted,05:11,- 0:09
5,Lachlan,Feuerherdt,05:23, 0:00
6,Vincent,Weatherhead,05:03,+ 0:03
7,Floyd,Cartner,04:37,+ 0:03
8,Jake,Lyons,04:22,+ 0:07
9,Eliza,Christie,06:25,+ 0:10
10,Oscar,Terry,06:27,+ 0:12
11,Otto,Ansted,05:45,+ 0:15
12,Lucinda,Terry,06:27,+ 0:17
13,Lewis,Lonsdale,06:43,+ 0:28
14,Max,Rowe,06:05,+ 0:30
15,Kaidyn,Tucker,05:10,+ 0:35
16,Aoife,Cunningham,07:23,+ 1:08
17,Tara,Anderson,07:20,+ 1:28
18,Beatrice,Lonsdale,06:29,+ 1:57
19,Finn,Cunningham,11:01,+ 4:06
20,Luke,Creer,10:09,+ 4:39