PLACE,FIRST,LAST,TIME,PACE,CLUB
1,Jason,Sim,1:19:33.8,03:47.3,UNI
2,Ross,Evans,1:26:03.9,04:05.9,HARRIERS
3,Andrew,Creer,1:26:54.2,04:08.3,UNI
4,Ben,McDermid,1:27:37.1,04:10.3,UNI
5,Andrew,van Agtmaal,1:30:50.1,04:19.5,OTHER
6,David,Lonsdale,1:34:24.8,04:29.8,UNI
7,David,Cripps,1:36:23.7,04:35.4,UNI
8,Danny,Burgess,1:37:26.4,04:38.4,UNI
9,Greg,Carter,1:38:24.5,04:41.2,UNI
10,Leon,Hamond,1:41:39.0,04:50.4,UNI
11,Jeremy,White,1:43:19.3,04:55.2,OTHER
12,Justin,Lee,1:47:40.2,05:07.6,UNI
13,Philip,Shambrook,1:52:23.2,05:21.1,UNI
14,Neil,Bowe,1:52:50.7,05:22.4,SOUTH BENDIGO
15,George,Thomas,1:53:26.5,05:24.1,OTHER
16,Jay,Sanderson,1:54:49.5,05:28.1,UNI
17,Ross,Douglas,2:00:25.1,05:44.1,UNI
18,Kevin,deVries,2:01:13.8,05:46.4,UNI
19,Darren,Rowe,2:08:07.9,06:06.1,UNI
