PLACE,FIRST,LAST,TIME,PACE,CLUB
1,Sarah,Jalim,1:24:28.8,04:01.4,UNI
2,Tullie,Rowe,1:41:10.6,04:49.1,UNI
3,Alison,Cartner,1:50:14.4,05:15.0,UNI
4,Maree,Platt,2:03:42.1,05:53.4,UNI
5,Trinity,Sanderson,2:03:42.8,05:53.5,UNI
6,Melissa,Wilkie,2:03:43.5,05:53.5,UNI
