place,first,last,net Time,diff
1,Shann,Anderson,21:36,- 3:07
2,David,Lonsdale,21:37,- 3:06
3,Greg,Christie,19:54,- 1:23
4,Max,Pearse,17:25,- 0:51
5,Harrison,Pearce,15:40,- 0:49
6,Isabella,Douglass,25:49,- 0:17
7,Stephanie,Roberts,19:24,- 0:10
8,Nick,Moloney,15:07,+ 0:01
9,Morgan,Dunn,24:57,+ 0:14
10,Scott,Roberts,18:39,+ 0:07
11,Bridie,Pearce,24:15,+ 0:29
12,John,Rose,16:45,+ 0:24
13,Jack,Cripps,19:33,+ 1:09
14,Bronte,Walsh,24:40,+ 2:33
15,Bryn,McCormack,27:04,+ 9:00