Place,Member,First,Last,Start,Pace,Est Time
1,3748,Amelia,Mitchell,00:10,07:59,1:09:08.1
2,1005,Ann-Marie,Wangdi,00:10,07:59,1:09:08.1
3,1028,Mel,Debham,00:10,07:59,1:09:08.1
4,3750,Genevieve,Draper,00:10,07:59,1:09:08.1
5,3781,Hamish,Draper,00:10,07:59,1:09:08.1
6,16,Jennifer,Lee,06:20,07:16,1:02:55.8
7,2,Alan,East,08:10,07:03,1:01:03.2
8,100,Justine,Rowe,11:30,06:40,0:57:44.0
9,3741,Kim,Carter,11:40,06:39,0:57:35.3
10,201,Beatrice,Lonsdale,11:50,06:38,0:57:26.7
11,3776,Kathleen,Pleasants,12:00,06:37,0:57:18.0
12,3715,Chloe,Green,12:20,06:35,0:57:00.7
13,270,Tyler,Wilkie,14:20,06:21,0:54:59.5
14,190,Michaela,Meharry,14:30,06:20,0:54:50.8
15,159,Renelle,McManus,15:10,06:15,0:54:07.5
16,191,Phoebe,Lonsdale,15:40,06:11,0:53:32.9
17,397,Taylor,Lovell,16:10,06:08,0:53:06.9
18,66,Megan,McDonald,16:40,06:05,0:52:40.9
19,210,Fiona,Dangerfield,17:10,06:01,0:52:06.3
20,35,Conor,Cunningham,17:50,05:56,0:51:23.0
21,149,Janelle,Giffin,18:10,05:54,0:51:05.6
22,43,Josephine,Robinson,18:40,05:51,0:50:39.7
23,157,Bec,Lacy,18:40,05:51,0:50:39.7
24,197,Sue,Taylor,19:00,05:48,0:50:13.7
25,334,Alex,Trantor,19:00,05:48,0:50:13.7
26,3732,Emma,Gibbons,19:10,05:47,0:50:05.0
27,68,Justin,O'Brien,19:20,05:46,0:49:56.4
28,392,Mark,Logan,20:00,05:42,0:49:21.7
29,54,Kevin,de Vries,20:10,05:40,0:49:04.4
30,111,Troy,Davis,20:40,05:37,0:48:38.4
31,251,Beth,Lavery,20:40,05:37,0:48:38.4
32,87,Frances,Walsh,21:00,05:35,0:48:21.1
33,52,Leah,Cripps,21:10,05:33,0:48:03.8
34,91,Melissa,Wilkie,21:40,05:30,0:47:37.8
35,398,Angus,McPherson,21:40,05:30,0:47:37.8
36,364,David,Howes,22:00,05:28,0:47:20.5
37,359,Anne,McIntosh,22:00,05:28,0:47:20.5
38,1025,Liz,Foster,22:00,05:28,0:47:20.5
39,67,Leeza,Meharry,22:10,05:26,0:47:03.2
40,74,Maree,Platt,22:20,05:25,0:46:54.5
41,3777,Alistair,Stewart,22:20,05:25,0:46:54.5
42,299,Jay,Sanderson,22:30,05:24,0:46:45.8
43,183,Janet,Hodnett,22:50,05:22,0:46:28.5
44,3740,Vicki,Lane,23:10,05:20,0:46:11.2
45,1041,Lachlan,Cherry,23:10,05:20,0:46:11.2
46,13,Gavin,Fiedler,23:10,05:19,0:46:02.5
47,339,James,Toomey,23:10,05:19,0:46:02.5
48,6,Shayne,Rushan,23:20,05:18,0:45:53.9
49,1024,Todd,Foster,23:40,05:16,0:45:36.6
50,77,Brad,Russell,23:50,05:15,0:45:27.9
51,29,Alison,Cartner,23:50,05:15,0:45:27.9
52,3747,Jeremy,Draper,24:00,05:14,0:45:19.2
53,59,Tina,McBain,24:10,05:13,0:45:10.6
54,180,Lauren,Hancock,24:10,05:12,0:45:01.9
55,307,Philip,Shambrook,24:30,05:10,0:44:44.6
56,253,Charlotte,Murphy,24:50,05:08,0:44:27.3
57,400,Darren,Rowe,25:10,05:06,0:44:10.0
58,22,Ross,Douglas,25:20,05:04,0:43:52.6
59,9,Trinity,Sanderson,25:30,05:03,0:43:44.0
60,333,Jon,McIntosh,25:50,05:01,0:43:26.7
61,3702,Vicki,Bayliss,26:10,04:59,0:43:09.3
62,315,Paul,Lomax,26:10,04:59,0:43:09.3
63,241,Andrea,Smith,26:20,04:58,0:43:00.7
64,369,Stephen,Wainwright,26:50,04:54,0:42:26.0
65,3714,Tanner,Fear,27:00,04:53,0:42:17.4
66,296,Ashlee,Diston,27:00,04:53,0:42:17.4
67,34,Mathew,Creer,27:20,04:51,0:42:00.1
68,18,Georgie,Lanyon,27:20,04:51,0:42:00.1
69,3735,Travis,Edwards,27:40,04:48,0:41:34.1
70,3726,Clare,Montgomery,27:40,04:48,0:41:34.1
71,5,Jenny,Buchanan,27:50,04:47,0:41:25.4
72,1020,Mumtaz,Hussain,28:00,04:46,0:41:16.8
73,14,Lisa,Wilkinson,28:00,04:46,0:41:16.8
74,278,James,Russell,28:00,04:46,0:41:16.8
75,60,Greg,McBain,28:30,04:43,0:40:50.8
76,31,Charles,Chambers,28:50,04:40,0:40:24.8
77,1036,Harry,Wright,29:10,04:38,0:40:07.5
78,3,Alan,Buchanan,29:20,04:37,0:39:58.8
79,384,Andrew,Wilkie,29:50,04:33,0:39:24.2
80,109,Tim,Lovell,29:50,04:33,0:39:24.2
81,3744,Finn,MacGregor,30:10,04:31,0:39:06.9
82,55,Justin,Lee,30:10,04:31,0:39:06.9
83,396,Simon,Hunt,30:20,04:30,0:38:58.2
84,1003,Damien,Roberts,30:40,04:28,0:38:40.9
85,350,David,Cripps,31:00,04:25,0:38:14.9
86,17,Karl,Lanyon,31:40,04:21,0:37:40.3
87,386,Danny,Burgess,31:50,04:20,0:37:31.6
88,3734,Lukas,Jara,32:00,04:18,0:37:14.3
89,94,David,Lonsdale,32:10,04:17,0:37:05.6
90,49,David,Heislers,32:10,04:17,0:37:05.6
91,1043,Michael,Gibbons,32:10,04:17,0:37:05.6
92,1031,Jack,Milligan,32:20,04:16,0:36:57.0
93,3730,Greg,Carter,32:30,04:15,0:36:48.3
94,308,Chris,Giffin,32:40,04:14,0:36:39.6
95,1009,Nicholas,Cherry,32:50,04:13,0:36:31.0
96,1027,Andrew,Van Agtmaal,33:00,04:11,0:36:13.7
97,15,Rebecca,Wilkinson,33:40,04:07,0:35:39.0
98,399,Darren,Hartland,33:40,04:07,0:35:39.0
99,65,Ben,McDermid,34:00,04:05,0:35:21.7
100,118,Tim,Lauder,34:00,04:05,0:35:21.7
101,63,John,Robinson,34:00,04:04,0:35:13.0
102,3746,Peter,King,34:40,04:00,0:34:38.4
103,301,Jarrod,Eps,34:40,04:00,0:34:38.4
104,125,Sarah,Jalim,34:50,03:59,0:34:29.7
105,84,Craig,Green,34:50,03:59,0:34:29.7
106,1034,Garry,Marwood,35:00,03:57,0:34:12.4
107,8,Rik,McCaig,35:10,03:56,0:34:03.8
108,33,Andrew,Creer,35:10,03:56,0:34:03.8
109,88,Brian,Watson,35:30,03:54,0:33:46.4
110,62,Lee,McCullagh,35:40,03:53,0:33:37.8
111,1023,Matthew,Schepisi,35:50,03:52,0:33:29.1
112,42,Craig,Feuerherdt,36:10,03:49,0:33:03.1
113,219,Wil,McCaig,36:20,03:48,0:32:54.5
114,1022,Ben,Stolz,36:40,03:46,0:32:37.2
115,23,Michael,Bieleny,36:40,03:46,0:32:37.2
116,3739,Stephen,van Rees,38:10,03:36,0:31:10.6
117,3701,Nigel,Preston,38:50,03:31,0:30:27.3
118,86,Fraser,Walsh,40:30,03:19,0:28:43.3
119,27,Andrew,Buchanan,41:50,03:10,0:27:25.4
