PLACE,FIRST,LAST,RACES,POINTS
1,Mason,Woodward,10,140
2,Lewis,Lonsdale,7,125
3,Avery,McDermid,9,120
4,Luke,Feuerherdt,7,111
5,Ebony,Woodward,10,100
6,Logan,Beesley,7,97
7,Joshua,Feuerherdt,6,90
8,Jonty,McDermid,8,87
9,April,Wainwright,10,74
10,William,Robinson,4,70
11,Skylar,Woodward,10,55
12,Jaron,Ekanayake,3,54
13,Ivy,Bray,3,39
14,Noah,Armstrong,2,38
15,Tully,Cripps,8,38
16,Poppy,Wainwright,4,34
17,Harry,Cripps,6,32
18,Jye,Ekanayake,2,32
19,Miller,Armstrong,2,29
20,Olivia,Douglas,4,28
21,Chloe,Beesley,7,27
22,Jemma,Carter,5,26
23,Xavier,Marwood,4,25
24,Eiliyah,Daneen,6,24
25,Harry,Scott,2,22
26,Elliott,Lavery,5,21
27,Phoebe,Martin,2,21
28,Savannah,Marwood,4,20
29,Geoffrey,Robinson,7,20
30,Max,Rowe,1,20
31,Sebastian,Stewart,2,20
32,James,Trew,1,20
33,William,Trew,1,19
34,Braxton,Safstrom,5,17
35,Tanner,Fear,1,17
36,Lucy,McCaig,1,16
37,Samuel,Preston,3,15
38,Anna,de Vries,2,15
39,Lily,Sanderson,1,15
40,Will,de Vries,3,14
41,Lacey,Wilkie,1,11
42,Liam,Carter,5,11
43,Abigail,Epworth,7,11
44,Eden,Howes,1,10
45,Spencer,Lavery,1,8
46,Genevieve,Draper,2,8
47,Ruby,Meharry,1,7
48,Isabella,Draper,1,6
49,Ruby,Douglas,9,6
50,Belle,Howes,1,2
51,Ellie,Beesley,6,2
52,Owen,Draper,4,2
53,Tom,Roberts,5,1
54,Tobias,Preston,2,1
55,Jimeal,Ekanayake,1,0
56,Giana,Ekanayake,1,0
57,Spencer,Epworth,3,0
58,Edie,Gibbons,2,0
59,Hunter,Pearce,1,0
60,Jack,Wright,2,0
61,Megan,Howes,1,0
62,Genevieve,Robinson,6,0
63,Bonnie,Scott,2,0
