place,first,last,net Time,diff
1,Jane,McCaig,57:08,- 1:12
2,Natalie,Watson,57:00,- 1:10
3,Gary,Crouch,45:24,- 0:56
4,Ryan,Brook,42:23,- 0:37
5,Jay,Sanderson,49:17,- 0:33
6,Rick,McCaig,39:30,- 0:20
7,John,Robinson,39:13,- 0:07
8,Trinity,Sanderson,48:08,+ 0:08
9,Luke,Hutchins,36:30,+ 0:10
10,Gavin,Fiedler,45:20,+ 0:20
11,David,Meade,35:32,+ 0:22
12,Alan,Buchanan,44:38,+ 0:28
13,Tim,Lauder,41:40,+ 0:30
14,Richard,Gleisner,34:56,+ 0:36
15,Laura,Terry,52:57,+ 0:47
16,Melissa,Wilkie,51:43,+ 0:53
17,Shayne,Rushan,51:16,+ 1:06
18,Alison,Cartner,47:59,+ 1:09
19,Ross,Douglas,49:23,+ 1:13
20,Brad,Russell,56:15,+ 1:25
21,Rebecca,Wilkinson,47:36,+ 1:26
22,Kevin,deVries,00:20,+ 1:40
23,Aida,Escall,01:34,+ 2:24
24,Andrew,Creer,40:05,+ 2:35
25,Maree,Platt,58:18,+ 3:18
26,Max,Pearse,43:49,+ 3:39
27,Alan,East,06:29,+ 4:49
28,Michael,Gillies Smith,55:01,+ 11:01