Place,First,Last,NET Time,Pace,Diff
1,Zach,Condon,0:16:51.7,05:27,-01:09.8
2,Scott,McLeod,0:15:04.9,04:53,-00:53.0
3,Imogen,Stewart,0:15:06.5,04:53,-00:17.4
4,Lewis,Lonsdale,0:13:59.9,04:32,-00:12.9
5,Mason,Woodward,0:12:36.4,04:05,+00:05.5
6,Kane,Safstrom,0:13:26.5,04:21,+00:09.3
7,Joshua,Condon,0:16:29.8,05:20,+00:13.4
8,Floyd,Cartner,0:11:52.0,03:50,+00:22.9
9,Abbey,Cartner,0:14:08.5,04:35,+00:23.5
10,Rebecca,Kirkby,0:13:50.5,04:29,+00:24.0
11,Phoebe,Lonsdale,0:13:14.9,04:17,+00:25.5
12,Tullie,Rowe,0:12:48.3,04:09,+00:29.8
13,Jennifer,Lee,0:17:04.8,05:32,+00:32.9
14,Jonty,McDermid,0:15:09.3,04:54,+00:37.9
15,Josephine,Robinson,0:17:23.1,05:38,+00:38.9
16,Ben,McDermid,0:13:16.5,04:18,+00:39.5
17,Sonya,Walker,0:15:13.8,04:56,+00:42.4
18,Bec,Lacy,0:18:29.2,05:59,+00:43.2
19,Jodie,McLeod,0:17:05.9,05:32,+00:46.4
20,Max,Rowe,0:13:09.7,04:16,+00:48.1
21,Eiliyah,Daneen,0:18:20.1,05:56,+00:58.8
22,Charlotte,Murphy,0:14:58.3,04:51,+01:04.0
23,Avery,McDermid,0:15:02.5,04:52,+01:05.1
24,Bec,Woodward,0:20:23.1,06:36,+01:32.2
25,Amelia,Mitchell,0:23:03.7,07:28,+01:50.6
26,Aida,Escall,0:21:08.4,06:50,+02:05.1
27,Ebony,Woodward,0:16:53.4,05:28,+02:09.7
28,Isabella,Draper,0:20:04.9,06:30,+02:15.8
29,Genevieve,Draper,0:21:41.0,07:01,+02:53.2
30,Hamish,Draper,0:22:08.0,07:10,+03:14.0
31,Logan,Beesley,0:23:00.9,07:27,+06:04.3
NEW,Ally,Collett,0:17:06.2,05:32
NEW,Kate,Byrne,0:19:36.2,06:21
NEW,Harry,Byrne,0:18:10.5,05:53
