Place,Member,First,Last,Start,Pace,Est Time
1,1098,Hannah,Niblett,00:00,07:59,0:24:40.1
2,3782,Owen,Draper,00:00,07:59,0:24:40.1
3,1093,Kale,Beesley,00:20,07:53,0:24:21.6
4,3748,Amelia,Mitchell,03:30,06:52,0:21:13.1
5,3757,Tanae,Bull,03:50,06:46,0:20:54.5
6,79,Liz,Stewart,03:50,06:45,0:20:51.5
7,1039,Melinda,Marwood,04:00,06:42,0:20:42.2
8,237,Lou,Bray,04:20,06:37,0:20:26.7
9,3776,Kathleen,Pleasants,04:40,06:28,0:19:58.9
10,3759,Lyn,Sebire,05:00,06:23,0:19:43.5
11,1028,Mel,Debnam-Smith,05:20,06:18,0:19:28.0
12,1075,Louise,Firli,05:20,06:15,0:19:18.8
13,356,Lynley,McDonald,05:30,06:14,0:19:15.7
14,322,Thom,Hosking,05:30,06:12,0:19:09.5
15,159,Renelle,McManus,05:40,06:11,0:19:06.4
16,40,Aida,Escall,05:40,06:10,0:19:03.3
17,1049,Georgie,Gibbons,05:40,06:09,0:19:00.2
18,100,Justine,Rowe,05:50,06:07,0:18:54.0
19,3781,Hamish,Draper,05:50,06:07,0:18:54.0
20,246,Poppy,Wainwright,05:50,06:06,0:18:50.9
21,3720,Bec,Woodward,05:50,06:06,0:18:50.9
22,3750,Genevieve,Draper,06:00,06:05,0:18:47.8
23,1019,Christopher,Epworth,06:00,06:02,0:18:38.6
24,3729,Fiona,Preston,06:10,06:01,0:18:35.5
25,66,Megan,McDonald,06:10,06:00,0:18:32.4
26,3741,Kim,Carter,06:10,06:00,0:18:32.4
27,225,Lesley,Fabian,06:30,05:55,0:18:17.0
28,98,Tanya,Fleming,06:30,05:54,0:18:13.9
29,142,Zach,Condon,06:40,05:50,0:18:01.5
30,250,Tully,Cripps,06:40,05:50,0:18:01.5
31,149,Janelle,Giffin,06:50,05:47,0:17:52.2
32,3749,Isabella,Draper,06:50,05:46,0:17:49.1
33,157,Bec,Lacy,07:00,05:45,0:17:46.0
34,282,Anna,de Vries,07:10,05:42,0:17:36.8
35,1002,Tammy,Fear,07:10,05:42,0:17:36.8
36,209,Olivia,Douglas,07:10,05:40,0:17:30.6
37,1026,Eiliyah,Daneen,07:20,05:37,0:17:21.3
38,1063,Will,Trewick,07:20,05:37,0:17:21.3
39,257,Fin,Bray,07:20,05:36,0:17:18.2
40,3783,Zacch,Martin,07:30,05:34,0:17:12.1
41,1033,Sal,Ekanayake,07:40,05:32,0:17:05.9
42,1085,Michelle,Scott,07:40,05:31,0:17:02.8
43,44,Geoffrey,Robinson,07:40,05:30,0:16:59.7
44,50,Harry,Cripps,07:40,05:30,0:16:59.7
45,3753,Logan,Beesley,07:50,05:29,0:16:56.6
46,52,Leah,Cripps,07:50,05:28,0:16:53.5
47,43,Josephine,Robinson,08:00,05:25,0:16:44.2
48,220,Ella,Meharry,08:00,05:25,0:16:44.2
49,381,April,Wainwright,08:00,05:25,0:16:44.2
50,1017,Scott,Broad,08:00,05:25,0:16:44.2
51,391,Sebastian,Boromeo,08:00,05:24,0:16:41.2
52,1015,Miller,Armstrong,08:00,05:24,0:16:41.2
53,1077,Dean,Trew,08:10,05:22,0:16:35.0
54,16,Jennifer,Lee,08:10,05:21,0:16:31.9
55,54,Kevin,de Vries,08:10,05:20,0:16:28.8
56,283,Lily,Sanderson,08:20,05:17,0:16:19.5
57,1066,Jodie,McLeod,08:20,05:17,0:16:19.5
58,145,Joshua,Condon,08:30,05:16,0:16:16.4
59,1076,Sarah,Trew,08:30,05:16,0:16:16.4
60,1047,Harry,Scott,08:30,05:15,0:16:13.3
61,1078,Leigh,Draper,08:30,05:14,0:16:10.3
62,252,Jasmine,Murphy,08:40,05:11,0:16:01.0
63,1016,Noah,Armstrong,08:40,05:11,0:16:01.0
64,1030,Ella,Smith,08:50,05:10,0:15:57.9
65,1067,Scott,McLeod,08:50,05:10,0:15:57.9
66,1058,Tyler,Swann,08:50,05:09,0:15:54.8
67,360,Phoebe,Martin,08:50,05:07,0:15:48.6
68,3715,Chloe,Green,08:50,05:07,0:15:48.6
69,1012,Danny,Breen,09:00,05:06,0:15:45.5
70,3795,Janelle,Willits,09:00,05:05,0:15:42.4
71,1095,Zac,Firli,09:00,05:04,0:15:39.4
72,1038,Xavier,Marwood,09:10,05:02,0:15:33.2
73,22,Ross,Douglas,09:10,05:01,0:15:30.1
74,3754,Elijah,Willits,09:10,05:01,0:15:30.1
75,13,Gavin,Fiedler,09:20,04:59,0:15:23.9
76,284,Imogen,Stewart,09:20,04:59,0:15:23.9
77,270,Tyler,Wilkie,09:20,04:58,0:15:20.8
78,195,Luke,Creer,09:30,04:56,0:15:14.6
79,400,Darren,Rowe,09:30,04:54,0:15:08.5
80,333,Jon,McIntosh,09:40,04:53,0:15:05.4
81,358,Lewis,McIntosh,09:40,04:52,0:15:02.3
82,29,Alison,Cartner,09:50,04:49,0:14:53.0
83,281,Will,de Vries,09:50,04:49,0:14:53.0
84,3735,Travis,Edwards,09:50,04:48,0:14:49.9
85,3765,Michelle,Vanzuyden,09:50,04:48,0:14:49.9
86,39,Melissa,Douglas,10:00,04:47,0:14:46.8
87,3737,Ebony,Woodward,10:00,04:46,0:14:43.7
88,292,Jye,Ekanayake,10:00,04:45,0:14:40.6
89,1071,Freya,Nicoletti,10:00,04:45,0:14:40.6
90,3769,Charley,Collins,10:10,04:44,0:14:37.6
91,276,Joshua,Feuerherdt,10:10,04:42,0:14:31.4
92,305,Jonty,McDermid,10:10,04:42,0:14:31.4
93,1065,Sonya,Walker,10:10,04:42,0:14:31.4
94,1100,Cooper,Firli,10:10,04:42,0:14:31.4
95,3766,Anthony,Byrne,10:10,04:42,0:14:31.4
96,1037,Ethan,Marwood,10:20,04:40,0:14:25.2
97,3713,Jazlin,Fear,10:20,04:40,0:14:25.2
98,14,Lisa,Wilkinson,10:20,04:38,0:14:19.0
99,3755,Noah,Willits,10:30,04:37,0:14:15.9
100,266,Lewis,Lonsdale,10:30,04:36,0:14:12.8
101,1013,Jonte,Breen,10:30,04:36,0:14:12.8
102,241,Andrea,Smith,10:40,04:33,0:14:03.6
103,1020,Mumtaz,Hussain,10:40,04:32,0:14:00.5
104,55,Justin,Lee,10:50,04:31,0:13:57.4
105,274,Avery,McDermid,10:50,04:31,0:13:57.4
106,244,Jaron,Ekanayake,10:50,04:30,0:13:54.3
107,253,Charlotte,Murphy,10:50,04:30,0:13:54.3
108,1086,Jimi,Read,10:50,04:30,0:13:54.3
109,201,Beatrice,Lonsdale,10:50,04:29,0:13:51.2
110,277,Luke,Feuerherdt,10:50,04:29,0:13:51.2
111,272,Abbey,Cartner,11:00,04:27,0:13:45.0
112,3717,Lachlan,Edwards,11:00,04:27,0:13:45.0
113,254,William,Robinson,11:10,04:22,0:13:29.6
114,1083,Rebecca,Kirkby,11:20,04:21,0:13:26.5
115,1051,Kane,Safstrom,11:30,04:18,0:13:17.2
116,105,Toby,McCaig,11:30,04:17,0:13:14.1
117,147,Lachlan,Feuerherdt,11:30,04:17,0:13:14.1
118,1099,Kelvin,Niblett,11:30,04:16,0:13:11.0
119,3714,Tanner,Fear,11:40,04:15,0:13:07.9
120,350,David,Cripps,11:40,04:14,0:13:04.9
121,3730,Greg,Carter,11:40,04:13,0:13:01.8
122,1060,William,Trew,11:50,04:11,0:12:55.6
123,1029,James,Trew,11:50,04:10,0:12:52.5
124,63,John,Robinson,11:50,04:09,0:12:49.4
125,191,Phoebe,Lonsdale,11:50,04:09,0:12:49.4
126,65,Ben,McDermid,12:10,04:05,0:12:37.0
127,3738,Mason,Woodward,12:10,04:03,0:12:30.9
128,275,Max,Rowe,12:20,04:00,0:12:21.6
129,203,Tullie,Rowe,12:20,03:59,0:12:18.5
130,308,Chris,Giffin,12:20,03:59,0:12:18.5
131,33,Andrew,Creer,12:30,03:56,0:12:09.2
132,1036,Harry,Wright,12:40,03:55,0:12:06.1
133,189,Tim,Creer,12:40,03:54,0:12:03.1
134,1023,Matthew,Schepisi,12:50,03:52,0:11:56.9
135,171,Oliver,Sanderson,12:50,03:51,0:11:53.8
136,1031,Jack,Milligan,12:50,03:50,0:11:50.7
137,1061,Tarli,Bird,13:00,03:48,0:11:44.5
138,169,Floyd,Cartner,13:10,03:43,0:11:29.1
