Place,First,Last,NET Time,Pace,Diff
1,Tammy,Fear,0:43:21.3,06:15,-02:02.2
2,Andrea,Smith,0:35:45.9,05:10,-01:25.6
3,Trinity,Sanderson,0:33:47.5,04:53,-01:12.3
4,Matthew,Schubert,0:32:20.8,04:40,-00:34.2
5,Andrew,Hosking,0:28:31.8,04:07,-00:06.8
6,Deanna,Marshall,0:37:55.2,05:28,-00:04.8
7,Scott,McLeod,0:35:55.2,05:11,+00:06.9
8,Chris,Giffin,0:27:51.0,04:01,+00:07.8
9,Mel,Debnam-Smith,0:43:49.6,06:19,+00:10.1
10,Jack,Milligan,0:27:50.0,04:01,+00:27.6
11,David,Burrow,0:34:27.9,04:58,+00:30.5
12,Michael,Farr,0:33:43.0,04:52,+00:34.1
13,Brad,Russell,0:36:58.6,05:20,+00:35.7
14,Justine,Rowe,0:44:35.4,06:26,+00:42.0
15,Greg,Carter,0:30:17.4,04:22,+00:43.3
16,Tanner,Fear,0:31:50.5,04:36,+00:53.3
17,Darren,Rowe,0:34:53.7,05:02,+00:56.3
18,David,Lonsdale,0:30:25.6,04:23,+00:58.5
19,Liz,Foster,0:37:46.1,05:27,+01:16.2
20,Ben,McDermid,0:31:23.2,04:32,+01:21.4
21,Nick,O'Meara,0:46:25.7,06:42,+01:29.9
22,Ross,Douglas,0:37:30.0,05:25,+01:41.7
23,Jay,Sanderson,0:39:07.3,05:39,+01:42.0
24,Alison,Cartner,0:35:53.4,05:11,+01:49.1
25,Janis,Bull,0:39:32.4,05:42,+01:53.2
26,Charles,Chambers,0:33:53.5,04:53,+01:53.9
27,Maree,Platt,0:39:10.8,05:39,+01:59.3
28,Karl,Stoltz,0:34:51.0,05:02,+02:02.9
29,David,Heislers,0:31:28.7,04:33,+02:08.5
30,Sue,Taylor,0:42:43.2,06:10,+02:17.7
31,Rebecca,Wilkinson,0:30:59.5,04:28,+02:27.8
32,Jodie,McLeod,0:39:07.6,05:39,+02:30.8
33,Damien,Roberts,0:34:53.3,05:02,+02:32.9
34,Jeremy,Draper,0:40:48.4,05:53,+02:41.5
35,Justin,Lee,0:36:19.3,05:14,+02:49.6
36,Alan,East,0:50:28.5,07:17,+03:07.2
37,Sue,Anderton,0:43:12.9,06:14,+04:17.5
38,William,Robinson,0:36:14.8,05:14,+05:10.6
39,Renelle,McManus,0:49:54.9,07:12,+07:03.9
40,John,Robinson,0:36:14.0,05:14,+07:28.4
