Place,Member,First,Last,Start,Pace,Est Time
1,1006,Spencer,McMahon,00:00,07:59,0:07:59.0
2,1032,Spencer,Epworth,00:00,07:59,0:07:59.0
3,1081,Brooke,Carter,00:00,07:59,0:07:59.0
4,1097,Evie,Niblett,00:00,07:59,0:07:59.0
5,1098,Hannah,Niblett,00:00,07:59,0:07:59.0
6,3771,Louise,Fyffe,00:00,07:59,0:07:59.0
7,1004,Eden,McMahon,00:10,07:53,0:07:53.0
8,3728,Tobias,Preston,00:20,07:41,0:07:41.0
9,1050,Jack,Wright,00:20,07:36,0:07:36.0
10,1090,Chase,Carter,00:30,07:27,0:07:27.0
11,1084,Naghmana,Tehseen,00:50,07:14,0:07:14.0
12,3798,Charli,Hosking,01:10,06:47,0:06:47.0
13,3768,Ronny,Epps,01:20,06:44,0:06:44.0
14,1048,Edie,Gibbons,01:20,06:40,0:06:40.0
15,1054,Jimeal,Ekanayake,01:20,06:36,0:06:36.0
16,1092,Sihanna,Carter,01:30,06:34,0:06:34.0
17,3770,Luke,Collins,01:30,06:34,0:06:34.0
18,1082,Mikayla,Kirkby,01:30,06:28,0:06:28.0
19,3767,Polly,Byrne,01:30,06:28,0:06:28.0
20,1064,Indie,Colley,01:40,06:25,0:06:25.0
21,365,Megan,Howes,01:40,06:16,0:06:16.0
22,1096,Miriam,Niblett,01:40,06:16,0:06:16.0
23,1046,Bonnie,Scott,01:50,06:14,0:06:14.0
24,3751,Ellie,Beesley,01:50,06:11,0:06:11.0
25,1075,Louise,Firli,01:50,06:09,0:06:09.0
26,1018,Abigail,Epworth,01:50,06:08,0:06:08.0
27,1059,Hunter,Pearce,01:50,06:08,0:06:08.0
28,3762,Leo,Stoltz,01:50,06:07,0:06:07.0
29,372,Belle,Howes,02:00,06:04,0:06:04.0
30,1089,Ruby,Carter,02:00,05:59,0:05:59.0
31,3782,Owen,Draper,02:00,05:59,0:05:59.0
32,1062,Oliver,Clarke,02:00,05:57,0:05:57.0
33,1073,Gabe,Nicoletti,02:10,05:52,0:05:52.0
34,1052,Jaxton,Ekanayake,02:10,05:51,0:05:51.0
35,390,Ruby,Douglas,02:20,05:45,0:05:45.0
36,1007,Ruby,Meharry,02:20,05:44,0:05:44.0
37,382,Genevieve,Robinson,02:20,05:43,0:05:43.0
38,1014,Tom,Roberts,02:20,05:39,0:05:39.0
39,3800,Hannah,Draper,02:20,05:37,0:05:37.0
40,1053,Giana,Ekanayake,02:30,05:31,0:05:31.0
41,1042,Savannah,Marwood,02:30,05:30,0:05:30.0
42,245,Lacey,Wilkie,02:30,05:28,0:05:28.0
43,3727,Samuel,Preston,02:30,05:26,0:05:26.0
44,293,Spencer,Lavery,02:40,05:24,0:05:24.0
45,250,Tully,Cripps,02:40,05:21,0:05:21.0
46,3778,Sebastian,Stewart,02:40,05:20,0:05:20.0
47,354,Alice,McIntosh,02:40,05:18,0:05:18.0
48,3750,Genevieve,Draper,02:40,05:18,0:05:18.0
49,3761,Krystal,Bellbin,02:40,05:18,0:05:18.0
50,368,Eden,Howes,02:40,05:17,0:05:17.0
51,3752,Chloe,Beesley,02:40,05:17,0:05:17.0
52,3742,Jemma,Carter,02:50,05:14,0:05:14.0
53,298,Elliott,Lavery,02:50,05:10,0:05:10.0
54,209,Olivia,Douglas,02:50,05:08,0:05:08.0
55,3743,Liam,Carter,02:50,05:08,0:05:08.0
56,44,Geoffrey,Robinson,03:00,05:05,0:05:05.0
57,1026,Eiliyah,Daneen,03:00,05:04,0:05:04.0
58,3756,Callum,Fyffe,03:00,05:01,0:05:01.0
59,3799,Jacob,Draper,03:00,05:00,0:05:00.0
60,246,Poppy,Wainwright,03:00,04:59,0:04:59.0
61,3749,Isabella,Draper,03:00,04:58,0:04:58.0
62,1035,Braxton,Safstrom,03:00,04:56,0:04:56.0
63,50,Harry,Cripps,03:10,04:54,0:04:54.0
64,400,Darren,Rowe,03:10,04:54,0:04:54.0
65,3736,Skylar,Woodward,03:10,04:50,0:04:50.0
66,279,Lucy,McCaig,03:10,04:46,0:04:46.0
67,282,Anna,de Vries,03:20,04:42,0:04:42.0
68,1095,Zac,Firli,03:20,04:42,0:04:42.0
69,3711,Eryn,McManus,03:20,04:41,0:04:41.0
70,283,Lily,Sanderson,03:20,04:39,0:04:39.0
71,391,Sebastian,Boromeo,03:20,04:37,0:04:37.0
72,1038,Xavier,Marwood,03:20,04:35,0:04:35.0
73,1047,Harry,Scott,03:30,04:34,0:04:34.0
74,381,April,Wainwright,03:30,04:30,0:04:30.0
75,281,Will,de Vries,03:40,04:25,0:04:25.0
76,360,Phoebe,Martin,03:40,04:25,0:04:25.0
77,3753,Logan,Beesley,03:40,04:25,0:04:25.0
78,258,Ivy,Bray,03:40,04:23,0:04:23.0
79,305,Jonty,McDermid,03:40,04:19,0:04:19.0
80,3737,Ebony,Woodward,03:40,04:18,0:04:18.0
81,267,Kayla,McManus,03:40,04:17,0:04:17.0
82,3769,Charley,Collins,03:40,04:17,0:04:17.0
83,1015,Miller,Armstrong,03:50,04:12,0:04:12.0
84,276,Joshua,Feuerherdt,03:50,04:11,0:04:11.0
85,191,Phoebe,Lonsdale,03:50,04:09,0:04:09.0
86,272,Abbey,Cartner,03:50,04:07,0:04:07.0
87,1086,Jimi,Read,03:50,04:07,0:04:07.0
88,254,William,Robinson,04:00,04:05,0:04:05.0
89,274,Avery,McDermid,04:00,04:02,0:04:02.0
90,277,Luke,Feuerherdt,04:00,04:02,0:04:02.0
91,203,Tullie,Rowe,04:00,03:59,0:03:59.0
92,292,Jye,Ekanayake,04:00,03:59,0:03:59.0
93,1016,Noah,Armstrong,04:00,03:59,0:03:59.0
94,266,Lewis,Lonsdale,04:00,03:56,0:03:56.0
95,253,Charlotte,Murphy,04:10,03:54,0:03:54.0
96,244,Jaron,Ekanayake,04:10,03:50,0:03:50.0
97,3714,Tanner,Fear,04:10,03:48,0:03:48.0
98,1060,William,Trew,04:20,03:40,0:03:40.0
99,1029,James,Trew,04:20,03:35,0:03:35.0
100,3738,Mason,Woodward,04:30,03:34,0:03:34.0
101,169,Floyd,Cartner,04:30,03:31,0:03:31.0
102,275,Max,Rowe,04:30,03:29,0:03:29.0
