place,first,last,net Time,diff
1,David,Pitson,41:38,- 1:42
2,Eric,Hocking,38:21,- 1:39
3,Aaron,Anderson,34:11,- 1:41
4,Tanya,Fleming,43:52,- 1:28
5,Tom,Russell,37:21,- 1:35
6,Trinity,Sanderson,38:12,- 0:44
7,Hayden,Brook,38:36,- 0:44
8,Melissa,Wilkie,39:58,- 0:42
9,Rick,McCaig,31:47,- 0:29
10,Max,Pearse,32:08,- 0:24
11,Matthew,Creer,36:26,- 0:22
12,Michael,Bieleny,28:43,- 0:21
13,Kathryne,Charnas,45:45,- 0:15
14,Gary,Crouch,36:30,- 0:10
15,Andrew,Hosking,30:21,- 0:11
16,David,Heislers,35:01,- 0:11
17,Jane,McCaig,45:53,- 0:07
18,Aida,Escall,47:17,- 0:03
19,Alison,Cartner,36:58,- 0:06
20,Gavin,Fiedler,35:49,- 0:03
21,Tim,Lauder,32:26,+ 0:10
22,Richard,Gleisner,27:31,- 0:05
23,Frances,Walsh,41:11,+ 0:07
24,Lisa,Wilkinson,35:54,+ 0:10
25,Ryan,Brook,34:16,+ 0:24
26,Jaqueline,Kelly,43:46,+ 0:26
27,Michael,Gillies Smith,34:49,+ 0:25
28,Chris,McCormack,34:23,+ 0:31
29,Alan,East,49:41,+ 0:45
30,Laura,Terry,41:42,+ 0:46
31,Sarah,Jalim,33:18,+ 0:46
32,Ross,Douglas,38:56,+ 1:12
33,Ben,McDermid,32:59,+ 1:15
34,Alan,Buchanan,36:44,+ 2:36
35,Shann,Anderson,45:58,+ 4:14