place,first,last,net Time,diff
1,Jaclyn,Munge,33:49,- 2:25
2,Tracie,Gleisner,40:07,- 1:17
3,Kylie,Buchanan,37:17,- 0:40
4,Biljana,Ansted,40:10,- 0:39
5,Lisa,Wilkinson,31:45,- 0:27
6,Lisa,McDermid,38:56,- 0:24
7,Ben,McDermid,26:19,- 0:15
8,Craig,Feuerherdt,27:03,- 0:20
9,Simone,Healy,40:15,- 0:14
10,Joanne,Weatherhead,40:09,- 0:06
11,Russell,Tremayne,28:40,- 0:05
12,Shayne,Rushan,33:01,- 0:06
13,Ryan,Brook,29:42,- 0:05
14,Brad,Russell,34:13,- 0:03
15,Jarrah,O'Shea,35:34,- 0:05
16,Brian,Watson,27:27,- 0:02
17,Justin,O'Brien,33:00,+ 0:13
18,Georgie,Lanyon,29:52,+ 0:12
19,Conor,Cunningham,33:14,+ 0:20
20,Angela,Slattery,36:45,+ 0:18
21,Gavin,Fiedler,29:59,+ 0:19
22,Tracy,Wilson,28:35,+ 0:31
23,Maree,Platt,37:38,+ 0:30
24,Andrew,Creer,28:05,+ 0:36
25,Aaron,Anderson,29:58,+ 0:38
26,Alison,Cartner,33:11,+ 0:45
27,Alan,East,42:54,+ 0:41
28,Ingrid,Douglass,31:51,+ 0:48
29,Brett,Houlden,32:05,+ 1:09
30,Alan,Buchanan,30:57,+ 1:17
31,Jennifer,Lee,35:07,+ 1:25
32,Michael,Hogan,31:44,+ 1:56
33,Gary,Crouch,33:27,+ 2:17