place,first,last,net Time,diff
1,Philip,Shambrook,34:53,-2:43
2,Shann,Anderson,38:03,-1:37
3,John,Flood,29:27,-1:15
4,Shayne,Rushan,35:17,-0:57
5,Matthew,Heislers,23:55,-0:48
6,Jane,McCaig,39:11,-0:43
7,Craig,Feuerherdt,26:22,-0:46
8,Andrew,Hosking,26:35,-0:40
9,Laura,Terry,35:42,-0:31
10,Kevin,deVries,36:03,-0:31
11,Gavin,Fiedler,30:54,-0:36
12,Melissa,Wilkie,35:35,-0:32
13,Sue,Taylor,39:05,-0:35
14,Trinity,Sanderson,31:37,-0:28
15,Ross,Douglas,31:40,-0:25
16,Rory,Weightman,31:25,-0:27
17,Lisa,Wilkinson,30:45,-0:25
18,David,Sebastian,29:35,-0:19
19,Jay,Sanderson,33:59,-0:18
20,Maree,Platt,36:32,-0:16
21,Lee,McCullagh,24:37,-0:06
22,Steve,Brereton,29:43,-0:04
23,Chris,McCormack,28:06,-0:04
24,Justin,Lee,30:39,-0:03
25,Brian,Watson,26:50,0:02
26,Mark,Saxon,31:12,0:02
27,David,Meade,24:05,0:03
28,Alison,Cartner,32:19,0:14
29,David,Heislers,29:52,0:12
30,Rebecca,Wilkinson,29:44,0:18
31,Els,Viester,30:36,0:14
32,Sarah,Jalim,29:07,0:22
33,Rik,McCaig,25:58,0:20
34,Conor,Cunningham,34:35,0:26
35,Leah,Cripps,37:45,0:30
36,Charles,Chambers,32:18,0:40
37,Ingrid,Douglass,31:48,0:45
38,Kathryne,Charnas,42:31,1:07
39,Joshua,Condon,43:58,1:11
40,Tim,Lovell,31:34,1:13
41,Justine,Rowe,43:03,1:46
42,Alan,Buchanan,31:45,1:51
43,Jennifer,Lee,40:20,1:48
44,Adam,Henderson,38:49,2:14
45,Gary,Crouch,35:13,2:20
46,Alison,McCullagh,37:26,3:03
47,Sue,Condon,44:39,3:08
New,Grace,Bannon,39:43,
New,Mike,Neilson,29:36,
New,John,McCullagh,35:52,
New,Aaron,Anderson,32:27,