place,member,first,last,start,Pace,est Time
1,34,Matthew,Creer,0:00,7:59,7:59
2,154,Sean,Hughan,0:00,7:59,7:59
3,244,Jaron,Ekanayake,0:10,7:50,7:50
4,322,Thom,Hosking,0:30,7:30,7:30
5,204,Kane,Charnas,0:40,7:20,7:20
6,205,Amelia,Charnas,0:50,7:10,7:10
7,128,George,Pitson,1:00,6:56,6:56
8,44,Geoffrey,Robinson,1:20,6:42,6:42
9,178,Annabel,Hancock,1:20,6:45,6:45
10,220,Ella,Meharry,1:30,6:31,6:31
11,264,Katelyn,Kelly,1:40,6:18,6:18
12,207,Lewis,Kallour,1:50,6:15,6:15
13,216,Ava,Terry,1:50,6:13,6:13
14,246,Poppy,Wainwright,1:50,6:06,6:06
15,258,Ivy,Bray,1:50,6:12,6:12
16,271,Will,Smith,1:50,6:15,6:15
17,293,Spencer,Lavery,1:50,6:15,6:15
18,25,Maddi,Bray,2:00,5:56,5:56
19,28,Mitchell,Bray,2:00,6:03,6:03
20,209,Olivia,Douglas,2:00,5:57,5:57
21,250,Tully,Cripps,2:00,6:00,6:00
22,262,Annabelle,McPhee,2:00,6:05,6:05
23,234,Finn,Cunningham,2:10,5:49,5:49
24,292,Jye,Ekanayake,2:10,5:55,5:55
25,313,Layla,Boulger,2:10,5:53,5:53
26,50,Harry,Cripps,2:20,5:43,5:43
27,58,Archie,Ross,2:20,5:40,5:40
28,211,Jesse,Brook,2:20,5:43,5:43
29,239,Paula,a'Beckett,2:20,5:39,5:39
30,255,Dylan,Sim,2:20,5:43,5:43
31,260,Thomas,Henderson,2:20,5:43,5:43
32,281,Will,deVries,2:20,5:45,5:45
33,36,Henry,Turnbull,2:30,5:34,5:34
34,153,Tadhg,Hughan,2:30,5:32,5:32
35,175,Matilda,Wilby,2:30,5:32,5:32
36,223,Jack,Meharry,2:30,5:31,5:31
37,235,Aoife,Cunningham,2:30,5:35,5:35
38,282,Anna,deVries,2:30,5:30,5:30
39,284,Imogen,Stewart,2:30,5:28,5:28
40,298,Elliot,Lavery,2:30,5:32,5:32
41,172,Eloise,Wilby,2:40,5:17,5:17
42,232,Jack,Gleisner,2:40,5:17,5:17
43,245,Lacey,Wilkie,2:40,5:18,5:18
44,252,Jasmine,Murphy,2:40,5:18,5:18
45,261,Charlotte,Crane,2:40,5:20,5:20
46,265,Joshua,Kelly,2:40,5:19,5:19
47,274,Avery,McDermid,2:40,5:17,5:17
48,280,Paige,a'Beckett,2:40,5:25,5:25
49,195,Luke,Creer,3:00,4:59,4:59
50,229,Harrison,Pitson,3:00,4:56,4:56
51,242,Halle,Blake-Burrows,3:00,4:57,4:57
52,249,Will,Gleisner,3:00,4:58,4:58
53,276,Joshua,Feuerherdt,3:00,5:03,5:03
54,290,Sabine,Stewart,3:00,5:04,5:04
55,300,Lucinda,Terry,3:00,4:59,4:59
56,99,Oscar,Terry,3:10,4:50,4:50
57,191,Phoebe,Lonsdale,3:10,4:50,4:50
58,279,Lucy,McCaig,3:10,4:48,4:48
59,283,Lily,Sanderson,3:10,4:50,4:50
60,295,Jeremy,Carlson,3:10,4:53,4:53
61,297,Declan,Lavery,3:10,4:51,4:51
62,189,Tim,Creer,3:20,4:43,4:43
63,215,Emerson,Sim,3:20,4:43,4:43
64,228,Sam,Pitson,3:20,4:45,4:45
65,238,Alex,Parry,3:20,4:36,4:36
66,269,Cooper,Charnas,3:20,4:40,4:40
67,291,Sarah,Wilkes,3:20,4:45,4:45
68,311,Jack,Kelly,3:20,4:44,4:44
69,83,Sam,Stewart,3:30,4:30,4:30
70,139,Leila,Padgham,3:30,4:35,4:35
71,267,Kayla,McManus,3:30,4:34,4:34
72,272,Abbey,Cartner,3:30,4:30,4:30
73,273,Harrison,Kelly,3:30,4:33,4:33
74,277,Luke,Feuerherdt,3:30,4:32,4:32
75,254,William,Robinson,3:40,4:22,4:22
76,266,Lewis,Lonsdale,3:40,4:21,4:21
77,289,Josh,Smith,3:40,4:18,4:18
78,105,Toby,McCaig,3:50,4:10,4:10
79,112,Jett,Grundy,3:50,4:12,4:12
80,147,Lachlan,Feuerherdt,3:50,4:10,4:10
81,19,Troy,Cartner,4:00,4:00,4:00
82,169,Floyd,Cartner,4:00,4:05,4:05
83,171,Oliver,Sanderson,4:00,4:04,4:04
84,176,Kaidyn,Tucker,4:00,4:05,4:05
85,221,Billy,Meade,4:00,4:05,4:05
86,256,Jesse,Delves,4:00,4:02,4:02