place,member,first,last,start,Pace,est Time
1,257,Fin,Bray,0:00,7:59,31:56:00
2,222,Virginia,Grills-Marsily,1:40,7:35,30:20:00
3,212,Michelle,Parry,2:20,7:25,29:40:00
4,142,Zach,Condon,3:30,7:07,28:28:00
5,206,Elisa,Christie,4:20,6:55,27:40:00
6,148,Matisse,Grills-Marsily,5:00,6:45,27:00:00
7,155,Jasmine,Rielley,5:00,6:45,27:00:00
8,179,Paula,Rielley,5:00,6:45,27:00:00
9,146,David,Ashman,5:10,6:42,26:48:00
10,226,Drew,Parry,5:20,6:39,26:36:00
11,79,Liz,Stewart,5:40,6:35,26:20:00
12,106,Suellen,Bambrick,5:40,6:35,26:20:00
13,30,Amanda,Turnbull,6:10,6:28,25:52:00
14,43,Josephine,Robinson,6:30,6:23,25:32:00
15,159,Renelle,McManus,6:30,6:23,25:32:00
16,21,Michelle,Bieleny,6:40,6:20,25:20:00
17,208,Houston,Pearse,7:10,6:13,24:52:00
18,239,Paula,a'Beckett,7:10,6:12,24:48:00
19,24,Karina,Bray,7:20,6:10,24:40:00
20,136,Livinia,Douglass,7:20,6:11,24:44:00
21,225,Lesley,Fabian,7:40,6:06,24:24:00
22,229,Harrison,Pitson,7:50,6:02,24:08:00
23,101,Paula,Saxon,8:00,6:00,24:00:00
24,173,Melanie,Cuzzillo,8:00,6:00,24:00:00
25,282,Anna,deVries,8:00,6:01,24:04:00
26,292,Jye,Ekanayake,8:00,5:59,23:56
27,151,Jo,Williams,8:20,5:54,23:36
28,263,Narelle,McPhee,8:30,5:53,23:32
29,195,Luke,Creer,8:40,5:50,23:20
30,66,Megan,McDonald,9:00,5:45,23:00
31,134,Millicent,Woods,9:00,5:46,23:04
32,149,Janelle,Giffin,9:00,5:46,23:04
33,147,Lachlan,Feuerherdt,9:10,5:43,22:52
34,150,Rebecca,Ashman,9:10,5:42,22:48
35,89,Natalie,Watson,9:20,5:39,22:36
36,187,Nicole,Kelly,9:20,5:40,22:40
37,243,Max,Bray,9:20,5:40,22:40
38,214,Amy,Sim,9:30,5:37,22:28
39,52,Leah,Cripps,9:40,5:36,22:24
40,98,Tanya,Fleming,9:40,5:34,22:16
41,99,Oscar,Terry,9:40,5:35,22:20
42,157,Bec,Murphy,9:40,5:35,22:20
43,210,Fiona,Dangerfield,9:40,5:35,22:20
44,110,Holly,McPhee,10:00,5:30,22:00
45,133,Gemma,McPhee,10:00,5:30,22:00
46,170,Abbey,Saxon,10:00,5:31,22:04
47,190,Micheala,Meharry,10:00,5:29,21:56
48,200,Jack,Cripps,10:00,5:29,21:56
49,230,McKinley,Grills-Marsily,10:00,5:30,22:00
50,237,Lou,Bray,10:00,5:30,22:00
51,270,Tyler,Wilkie,10:00,5:30,22:00
52,249,Will,Gleisner,10:10,5:28,21:52
53,152,Alannah,Rielley,10:20,5:26,21:44
54,189,Tim,Creer,10:20,5:25,21:40
55,215,Emerson,Sim,10:20,5:25,21:40
56,269,Cooper,Charnas,10:20,5:25,21:40
57,277,Luke,Feuerherdt,10:20,5:26,21:44
58,297,Declan,Lavery,10:20,5:25,21:40
59,1,Ashlee,Bull,10:30,5:22,21:28
60,11,Jane,McCaig,10:30,5:23,21:32
61,188,Darcy,Tucker,10:30,5:23,21:32
62,240,Jenelle,Seaward,10:30,5:22,21:28
63,241,Andrea,Smith,10:30,5:22,21:28
64,253,Charlotte,Murphy,10:30,5:22,21:28
65,164,Imogen,Thompson,10:40,5:19,21:16
66,174,Sam,Hancock,10:40,5:20,21:20
67,182,Hanna,Crane,10:40,5:21,21:24
68,274,Avery,McDermid,10:40,5:21,21:24
69,288,Kate,McIntosh,10:50,5:18,21:12
70,132,Tracie,Gleisner,11:00,5:15,21:00
71,228,Sam,Pitson,11:00,5:14,20:56
72,242,Halle,Blake-Burrows,11:00,5:16,21:04
73,300,Lucinda,Terry,11:00,5:15,21:00
74,176,Kaidyn,Tucker,11:10,5:12,20:48
75,32,Oliver,Turnbull,11:20,5:10,20:40
76,193,Emily,Heislers,11:20,5:11,20:44
77,295,Jeremy,Carlson,11:20,5:10,20:40
78,156,Will,Murphy,11:30,5:07,20:28
79,112,Jett,Grundy,12:10,4:57,19:48
80,158,Annalise,Murphy,12:10,4:58,19:52
81,171,Oliver,Sanderson,12:10,4:58,19:52
82,275,Max,Rowe,12:30,4:52,19:28
83,77,Brad,Russell,12:40,4:50,19:20
84,169,Floyd,Cartner,12:40,4:49,19:16
85,213,Phoebe,a'Beckett,12:40,4:51,19:24
86,325,Tom,Flood,12:40,4:50,19:20
87,259,Jasmine,Santley,12:50,4:48,19:12
88,82,Sophie,Adamson,13:00,4:45,19:00
89,94,David,Lonsdale,13:00,4:46,19:04
90,107,Hayden,Brook,13:00,4:44,18:56
91,191,Phoebe,Lonsdale,13:00,4:45,19:00
92,29,Alison,Cartner,13:10,4:42,18:48
93,184,Will,Crane,13:20,4:40,18:40
94,201,Beatrice,Lonsdale,13:20,4:40,18:40
95,227,Joseph,Glanville,13:20,4:40,18:40
96,35,Conor,Cunningham,13:30,4:38,18:32
97,131,Carrisa,Brook,13:30,4:38,18:32
98,198,Matthew,Saxon,13:30,4:38,18:32
99,39,Melissa,Douglas,13:50,4:32,18:08
100,105,Toby,McCaig,14:10,4:27,17:48
101,12,Josie,Aitken,14:40,4:21,17:24
102,177,Ben,Wilby,14:40,4:20,17:20
103,192,Nicholas,Ashman,14:40,4:20,17:20
104,63,John,Robinson,15:20,4:10,16:40
105,218,Noah,Walsh,15:20,4:09,16:36
106,202,Callum,Tucker,15:30,4:07,16:28
107,203,Tullie,Rowe,15:30,4:08,16:32
108,236,Harry,Seaward,15:30,4:08,16:32
109,114,Spencer,Evans,15:40,4:05,16:20
110,224,Cooper,Hale,15:40,4:06,16:24
111,219,Wil,McCaig,16:00,3:59,15:56
112,80,Bridie,Blake-Burrows,16:10,3:57,15:48
113,137,Anton,Paholek,16:10,3:57,15:48
114,19,Troy,Cartner,16:20,3:56,15:44
115,42,Craig,Feuerherdt,16:40,3:50,15:20
116,143,Maxine,Paholek,16:40,3:50,15:20
117,167,Jack,Meade,17:00,3:45,15:00
118,115,Alexander,Evans,17:30,3:38,14:32
119,33,Andrew,Creer,17:40,3:35,14:20
120,46,Richard,Gleisner,18:30,3:23,13:32
121,97,Adam,Fleming,18:50,3:18,13:12
122,27,Andrew,Buchanan,19:40,3:04,12:16