Place,Member,First,Last,Start,Pace,Est Time
1,3748,Amelia,Mitchell,00:10,07:59,1:01:13.9
2,3750,Genevieve,Draper,00:10,07:59,1:01:13.9
3,3781,Hamish,Draper,00:10,07:59,1:01:13.9
4,1028,Mel,Debham,00:10,07:59,1:01:13.9
5,1005,Ann-Marie,Wangdi,00:10,07:59,1:01:13.9
6,16,Jennifer,Lee,05:40,07:16,0:55:44.1
7,2,Alan,East,07:20,07:03,0:54:04.4
8,100,Justine,Rowe,10:10,06:40,0:51:08.0
9,3741,Kim,Carter,10:20,06:39,0:51:00.3
10,201,Beatrice,Lonsdale,10:30,06:38,0:50:52.7
11,3776,Kathleen,Pleasants,10:40,06:37,0:50:45.0
12,3715,Chloe,Green,10:50,06:35,0:50:29.7
13,270,Tyler,Wilkie,12:40,06:21,0:48:42.3
14,190,Michaela,Meharry,12:50,06:20,0:48:34.6
15,159,Renelle,McManus,13:30,06:15,0:47:56.2
16,191,Phoebe,Lonsdale,14:00,06:11,0:47:25.6
17,397,Taylor,Lovell,14:20,06:08,0:47:02.6
18,66,Megan,McDonald,14:40,06:05,0:46:39.6
19,210,Fiona,Dangerfield,15:10,06:01,0:46:08.9
20,35,Conor,Cunningham,15:50,05:56,0:45:30.5
21,149,Janelle,Giffin,16:10,05:54,0:45:15.2
22,157,Bec,Lacy,16:30,05:51,0:44:52.2
23,43,Josephine,Robinson,16:30,05:51,0:44:52.2
24,334,Alex,Trantor,16:50,05:48,0:44:29.2
25,3732,Emma,Gibbons,17:00,05:47,0:44:21.5
26,68,Justin,O'Brien,17:10,05:46,0:44:13.8
27,197,Sue,Taylor,17:20,05:44,0:43:58.5
28,392,Mark,Logan,17:40,05:42,0:43:43.1
29,54,Kevin,de Vries,17:50,05:40,0:43:27.8
30,111,Troy,Davis,18:20,05:37,0:43:04.8
31,87,Frances,Walsh,18:30,05:35,0:42:49.4
32,251,Beth,Lavery,18:30,05:35,0:42:49.4
33,52,Leah,Cripps,18:50,05:33,0:42:34.1
34,398,Angus,McPherson,19:10,05:30,0:42:11.1
35,359,Anne,McIntosh,19:30,05:28,0:41:55.8
36,1025,Liz,Foster,19:30,05:28,0:41:55.8
37,364,David,Howes,19:30,05:28,0:41:55.8
38,91,Melissa,Wilkie,19:30,05:27,0:41:48.1
39,67,Leeza,Meharry,19:40,05:26,0:41:40.4
40,3777,Alistair,Stewart,19:50,05:25,0:41:32.8
41,74,Maree,Platt,19:50,05:25,0:41:32.8
42,299,Jay,Sanderson,20:00,05:24,0:41:25.1
43,3740,Vicki,Lane,20:30,05:20,0:40:54.4
44,1041,Lachlan,Cherry,20:30,05:20,0:40:54.4
45,13,Gavin,Fiedler,20:30,05:19,0:40:46.7
46,339,James,Toomey,20:30,05:19,0:40:46.7
47,6,Shayne,Rushan,20:40,05:18,0:40:39.1
48,1024,Todd,Foster,21:00,05:16,0:40:23.7
49,77,Brad,Russell,21:10,05:15,0:40:16.1
50,3747,Jeremy,Draper,21:10,05:14,0:40:08.4
51,59,Tina,McBain,21:20,05:13,0:40:00.7
52,180,Lauren,Hancock,21:30,05:12,0:39:53.0
53,29,Alison,Cartner,21:40,05:10,0:39:37.7
54,307,Philip,Shambrook,21:40,05:10,0:39:37.7
55,253,Charlotte,Murphy,22:00,05:08,0:39:22.4
56,400,Darren,Rowe,22:10,05:06,0:39:07.0
57,22,Ross,Douglas,22:30,05:04,0:38:51.7
58,9,Trinity,Sanderson,22:40,05:03,0:38:44.0
59,333,Jon,McIntosh,22:50,05:01,0:38:28.7
60,315,Paul,Lomax,23:10,04:59,0:38:13.3
61,3702,Vicki,Bayliss,23:10,04:59,0:38:13.3
62,241,Andrea,Smith,23:20,04:58,0:38:05.7
63,369,Stephen,Wainwright,23:50,04:54,0:37:35.0
64,3714,Tanner,Fear,23:50,04:53,0:37:27.3
65,296,Ashlee,Diston,23:50,04:53,0:37:27.3
66,18,Georgie,Lanyon,24:10,04:51,0:37:12.0
67,34,Mathew,Creer,24:10,04:51,0:37:12.0
68,3726,Clare,Montgomery,24:30,04:48,0:36:49.0
69,5,Jenny,Buchanan,24:40,04:47,0:36:41.3
70,14,Lisa,Wilkinson,24:50,04:46,0:36:33.6
71,278,James,Russell,24:50,04:46,0:36:33.6
72,1020,Mumtaz,Hussain,24:50,04:46,0:36:33.6
73,3735,Travis,Edwards,25:00,04:45,0:36:25.9
74,60,Greg,McBain,25:10,04:43,0:36:10.6
75,31,Charles,Chambers,25:30,04:40,0:35:47.6
76,3,Alan,Buchanan,26:00,04:37,0:35:24.6
77,384,Andrew,Wilkie,26:30,04:33,0:34:53.9
78,109,Tim,Lovell,26:30,04:33,0:34:53.9
79,55,Justin,Lee,26:40,04:31,0:34:38.6
80,3744,Finn,MacGregor,26:40,04:31,0:34:38.6
81,396,Simon,Hunt,26:50,04:30,0:34:30.9
82,1003,Damien,Roberts,27:10,04:28,0:34:15.6
83,350,David,Cripps,27:40,04:23,0:33:37.2
84,17,Karl,Lanyon,28:00,04:21,0:33:21.9
85,386,Danny,Burgess,28:10,04:20,0:33:14.2
86,3734,Lukas,Jara,28:20,04:18,0:32:58.9
87,49,David,Heislers,28:30,04:17,0:32:51.2
88,94,David,Lonsdale,28:30,04:17,0:32:51.2
89,1031,Jack,Milligan,28:40,04:16,0:32:43.5
90,3730,Greg,Carter,28:50,04:15,0:32:35.8
91,308,Chris,Giffin,28:50,04:14,0:32:28.2
92,1009,Nicholas,Cherry,29:00,04:13,0:32:20.5
93,1027,Andrew,Van Agtmaal,29:20,04:11,0:32:05.2
94,15,Rebecca,Wilkinson,29:50,04:07,0:31:34.5
95,399,Darren,Hartland,29:50,04:07,0:31:34.5
96,65,Ben,McDermid,30:00,04:05,0:31:19.2
97,63,John,Robinson,30:10,04:04,0:31:11.5
98,118,Tim,Lauder,30:20,04:03,0:31:03.8
99,301,Jarrod,Eps,30:40,04:00,0:30:40.8
100,3746,Peter,King,30:40,04:00,0:30:40.8
101,84,Craig,Green,30:50,03:59,0:30:33.1
102,125,Sarah,Jalim,30:50,03:59,0:30:33.1
103,62,Lee,McCullagh,31:00,03:58,0:30:25.5
104,1034,Garry,Marwood,31:00,03:57,0:30:17.8
105,33,Andrew,Creer,31:10,03:56,0:30:10.1
106,8,Rik,McCaig,31:10,03:56,0:30:10.1
107,88,Brian,Watson,31:30,03:54,0:29:54.8
108,1023,Matthew,Schepisi,31:40,03:52,0:29:39.4
109,42,Craig,Feuerherdt,32:10,03:49,0:29:16.4
110,219,Wil,McCaig,32:10,03:48,0:29:08.8
111,1022,Ben,Stolz,32:30,03:46,0:28:53.4
112,23,Michael,Bieleny,32:30,03:46,0:28:53.4
113,3739,Stephen,van Rees,33:40,03:36,0:27:36.7
114,3701,Nigel,Preston,34:20,03:31,0:26:58.4
115,86,Fraser,Walsh,36:00,03:19,0:25:26.3
116,27,Andrew,Buchanan,37:00,03:10,0:24:17.3
