PLACE,FIRST,LAST,RACES,POINTS
1,April,Wainwright,9,205
2,Ebony,Woodward,9,195
3,Mason,Woodward,9,182
4,Jonty,McDermid,7,157
5,Avery,McDermid,8,156
6,Logan,Beesley,6,137
7,Tully,Cripps,7,136
8,Chloe,Beesley,6,133
9,Liam,Carter,5,126
10,Skylar,Woodward,9,122
11,Ruby,Douglas,8,118
12,Luke,Feuerherdt,6,113
13,Joshua,Feuerherdt,5,111
14,Tom,Roberts,4,98
15,Ellie,Beesley,5,96
16,Lewis,Lonsdale,6,93
17,Jemma,Carter,5,92
18,Geoffrey,Robinson,7,90
19,Abigail,Epworth,6,87
20,Genevieve,Robinson,6,81
21,Jaron,Ekanayake,3,80
22,Braxton,Safstrom,4,79
23,Harry,Cripps,5,76
24,Elliott,Lavery,5,74
25,Samuel,Preston,3,73
26,Poppy,Wainwright,4,71
27,Olivia,Douglas,4,67
28,Eiliyah,Daneen,5,67
29,Owen,Draper,3,65
30,William,Robinson,4,60
31,Sebastian,Stewart,2,57
32,Ivy,Bray,3,55
33,Tobias,Preston,2,52
34,Savannah,Marwood,3,48
35,Miller,Armstrong,2,40
36,Harry,Scott,2,40
37,Xavier,Marwood,3,35
38,Noah,Armstrong,2,35
39,Will,de Vries,3,34
40,Lily,Sanderson,1,30
41,Anna,de Vries,2,26
42,Phoebe,Martin,1,25
43,Jye,Ekanayake,2,19
44,Lucy,McCaig,1,16
45,Lacey,Wilkie,1,14
46,Eden,Howes,1,14
47,Belle,Howes,1,13
48,Spencer,Epworth,3,10
49,Bonnie,Scott,2,7
50,Edie,Gibbons,1,0
51,Max,Rowe,1,0
52,Jimeal,Ekanayake,1,0
53,Genevieve,Draper,1,0
54,Ruby,Meharry,1,0
55,Jack,Wright,1,0
56,Megan,Howes,1,0
57,Giana,Ekanayake,1,0
58,Spencer,Lavery,1,0
