PLACE,FIRST,LAST,RACES,POINTS
1,Ben,McDermid,9,130
2,Tullie,Rowe,7,119
3,Tanner,Fear,7,113
4,Max,Rowe,6,101
5,Tim,Creer,7,94
6,James,Trew,5,87
7,Mason,Woodward,9,86
8,Chris,Giffin,4,77
9,Andrea,Smith,8,72
10,Charlotte,Murphy,5,71
11,Jazlin,Fear,8,62
12,William,Robinson,6,61
13,Phoebe,Lonsdale,6,59
14,Lachlan,Feuerherdt,6,46
15,David,Cripps,5,43
16,Lachlan,Edwards,4,43
17,Jack,Milligan,2,40
18,Abbey,Cartner,6,39
19,Andrew,Creer,2,38
20,Beatrice,Lonsdale,5,36
21,Floyd,Cartner,2,36
22,Jaron,Ekanayake,3,34
23,Jonte,Breen,4,32
24,Avery,McDermid,8,24
25,Tyler,Wilkie,2,20
26,Chloe,Green,4,20
27,Oliver,Sanderson,1,20
28,Harry,Wright,1,19
29,Luke,Creer,3,19
30,Toby,McCaig,1,16
31,John,Robinson,1,16
32,Ethen,Marwood,4,14
33,Lewis,Lonsdale,3,12
34,Danny,Breen,1,12
35,Jonty,McDermid,7,12
36,Darren,Rowe,4,12
37,Melissa,Douglas,1,10
38,Jye,Ekanayake,2,8
39,Jasmine,Murphy,6,7
40,Scott,Broad,2,7
41,Jennifer,Lee,6,7
42,Ella,Smith,2,7
43,Noah,Armstrong,2,5
44,Ella,Meharry,1,4
45,Ross,Douglas,1,4
46,Kane,Safstrom,1,4
47,Tammy,Fear,8,2
48,Kevin,de Vries,1,2
49,Travis,Edwards,1,2
50,Megan,McDonald,3,1
51,Miller,Armstrong,2,1
52,Fiona,Preston,1,1
53,Hamish,Draper,3,0
54,Sal,Ekanayake,1,0
55,Kim,Carter,2,0
56,Alison,Cartner,1,0
57,Christopher,Epworth,3,0
58,Lesley,Fabian,2,0
59,Tanya,Fleming,3,0
60,Leah,Cripps,1,0
61,Genevieve,Draper,2,0
62,Josephine,Robinson,2,0
63,Owen,Draper,1,0
64,Amelia,Mitchell,3,0
65,Harry,Cripps,3,0
66,Bec,Lacy,4,0
67,Aida,Escall,1,0
68,Luke,Feuerherdt,1,0
69,Zacch,Martin,1,0
70,Lynley,McDonald,5,0
71,Bec,Woodward,7,0
72,Phoebe,Martin,1,0
73,Melinda,Marwood,4,0
74,Xavier,Marwood,1,0
75,Justine,Rowe,1,0
76,Geoffrey,Robinson,1,0
