place,first,last,start,pace,est Time
1,Imogen,Douglass,00:30,6:50,20:30
2,Ruby,Fletcher,01:00,6:39,19:57
3,Collette,Fletcher,01:20,6:32,19:36
4,Kath,O'Shea,01:30,6:30,19:30
5,Ella,Fisher,01:30,6:30,19:30
6,Millie,Lourie,02:00,6:20,19:00
7,Eliza,O'Sullivan,02:00,6:20,19:00
8,Nellie,Rose,02:10,6:18,18:54
9,Lachlan,Walsh,02:20,6:15,18:45
10,Harry,Terry,02:30,6:10,18:30
11,Charlie,Lourie,02:30,6:10,18:30
12,Sophie,Shoebridge,02:30,6:10,18:30
13,William,Gleisner,02:30,6:10,18:30
14,Aoife,Cunningham,02:30,6:10,18:30
15,Lucy,Terry,02:40,6:7,18:21
16,Lavinia,Douglass,02:50,6:3,18:09
17,Tracie,Gleisner,03:00,5:59,17:57
18,Imogen,Thompson,03:00,6:0,18:00
19,Tom,Colman,03:00,6:0,18:00
20,Gretel,Douglas,03:20,5:53,17:39
21,Tara,Anderson,03:20,5:53,17:39
22,Lisa,Bortolotto,03:30,5:50,17:30
23,Luke,Creer,03:30,5:50,17:30
24,Amber,Lyons,03:50,5:45,17:15
25,Zac,Walsh,04:00,5:41,17:03
26,Layla,Day,04:00,5:40,17:00
27,Belinda,O'Sullivan,04:00,5:40,17:00
28,Lewis,Fisher,04:10,5:37,16:51
29,Morgan,Dunn,04:20,5:35,16:45
30,Kaidyn,Tucker,04:20,5:35,16:45
31,Dani,Padgham,04:20,5:32,16:36
32,Leila,Padgham,04:20,5:33,16:39
33,Nicole,Kelly,04:20,5:35,16:45
34,Tim,Creer,04:30,5:30,16:30
35,Emily,Heislers,04:40,5:27,16:21
36,James,Kealy,04:40,5:27,16:21
37,Amy,Sim,04:40,5:26,16:18
38,Sayyu,Hamond,04:50,5:22,16:06
39,Beatrice,Lonsdale,04:50,5:25,16:15
40,Megan,McDonald,04:50,5:24,16:12
41,Henry,Cordell,04:50,5:25,16:15
42,Darcy,Tucker,05:00,5:19,15:57
43,Jayden,Padgham,05:10,5:18,15:54
44,Michelle,Perry,05:20,5:15,15:45
45,Will,Crane,05:40,5:8,15:24
46,Jack,Bombardian,05:40,5:6,15:18
47,Greg,Christie,05:50,5:5,15:15
48,Murray,Cordell,05:50,5:2,15:06
49,Ash,Bull,06:00,5:0,15:00
50,Micheala,Meharry,06:00,4:59,14:57
51,Carissa,Brook,06:20,4:52,14:36
52,Jack,Cripps,06:30,4:50,14:30
53,Fraser,Lourie,06:30,4:50,14:30
54,Bailey,Dunn,06:50,4:44,14:12
55,Blaze,Houlden,06:50,4:42,14:06
56,Ross,Douglas,06:50,4:45,14:15
57,David,Lonsdale,07:00,4:39,13:57
58,Sebastian,Rowe,07:00,4:40,14:00
59,Bweku,Hamond,07:20,4:34,13:42
60,Tullie,Rowe,07:20,4:33,13:39
61,Matthew,Creer,07:20,4:35,13:45
62,Inke,Padgham,07:20,4:35,13:45
63,Henry,Bombardian,07:30,4:30,13:30
64,Noah,Walsh,07:30,4:29,13:27
65,John,Rose,07:30,4:30,13:30
66,Shaina,Brook,07:50,4:24,13:12
67,Callum,Tucker,07:50,4:25,13:15
68,Maxwell,Pearse,08:00,4:20,13:00
69,Riley,Walsh,08:20,4:14,12:42
70,Jim,Russell,09:20,3:55,11:45
71,Matthew,Heislers,09:50,3:43,11:09
72,Andrew,Creer,09:50,3:44,11:12
73,Fraser,Walsh,10:30,3:29,10:27