Place,First,Last,NET Time,Pace,Diff
1,Tom,Roberts,0:07:26.5,06:18,-00:52.6
2,Chloe,Beesley,0:06:14.0,05:17,-00:49.6
3,Tully,Cripps,0:06:24.6,05:26,-00:16.6
4,Elliott,Lavery,0:06:05.5,05:10,-00:15.6
5,Logan,Beesley,0:05:17.4,04:29,-00:14.2
6,Ebony,Woodward,0:05:25.7,04:36,-00:07.1
7,Luke,Feuerherdt,0:05:01.0,04:15,-00:04.6
8,Jonty,McDermid,0:05:33.4,04:43,-00:01.7
9,Abigail,Epworth,0:07:16.8,06:10,+00:02.6
10,Mason,Woodward,0:04:37.7,03:55,+00:02.8
11,Joshua,Feuerherdt,0:05:18.0,04:30,+00:04.1
12,Ellie,Beesley,0:08:11.6,06:57,+00:05.4
13,Avery,McDermid,0:05:08.7,04:22,+00:05.4
14,Anna,de Vries,0:06:02.9,05:08,+00:07.7
15,Ruby,Douglas,0:07:39.8,06:30,+00:09.0
16,Skylar,Woodward,0:06:03.8,05:08,+00:09.8
17,Lewis,Lonsdale,0:04:48.4,04:04,+00:09.9
18,April,Wainwright,0:06:38.2,05:37,+00:26.5
19,Harry,Cripps,0:06:19.5,05:22,+00:30.2
20,William,Robinson,0:05:09.9,04:23,+00:33.8
21,Genevieve,Robinson,0:08:58.4,07:36,+01:26.5
22,Will,de Vries,0:07:13.8,06:08,+01:43.4
23,Geoffrey,Robinson,0:08:30.8,07:13,+02:30.9
NEW,Jye,Ekanayake,0:05:09.4,04:22
NEW,Gabe,Nicoletti,0:09:55.3,08:25
NEW,Callum,Fyffe,0:05:46.0,04:53
NEW,Braxton,Safstrom,0:06:59.0,05:55
NEW,Katlin,Pollard,0:06:18.4,05:21
NEW,Eiliyah,Daneen,0:06:32.8,05:33
NEW,Spencer,Epworth,0:13:59.0,11:51
