PLACE,FIRST,LAST,RACES,POINTS
1,Ben,McDermid,5,71
2,Chris,Giffin,5,63
3,Rebecca,Wilkinson,4,60
4,Nigel,Preston,3,59
5,David,Lonsdale,5,59
6,Andrew,Creer,3,48
7,Nicholas,Cherry,3,47
8,David,Heislers,4,42
9,John,Robinson,4,39
10,Matthew,Schepisi,2,38
11,Wil,McCaig,2,37
12,Lee,McCullagh,2,34
13,Damien,Roberts,5,34
14,Danny,Burgess,4,33
15,Justin,Lee,5,25
16,David,Cripps,3,25
17,Greg,Carter,2,24
18,Craig,Green,3,21
19,Andrew,Buchanan,1,20
20,Tim,Lauder,1,19
21,Stephen,van Rees,1,19
22,Ben,Stolz,1,18
23,Alan,Buchanan,4,17
24,Andrew,Van Agtmaal,1,17
25,Craig,Feuerherdt,1,17
26,Rik,McCaig,1,15
27,Andrew,Wilkie,2,13
28,Lisa,Wilkinson,3,12
29,Travis,Edwards,3,9
30,Jack,Milligan,1,8
31,James,Russell,2,8
32,Clare,Montgomery,2,7
33,Jenny,Buchanan,3,7
34,Mathew,Creer,1,4
35,Tanner,Fear,1,4
36,Mumtaz,Hussain,2,3
37,Charles,Chambers,1,2
38,Ross,Douglas,4,1
39,Darren,Rowe,5,1
40,Alison,Cartner,1,0
41,Genevieve,Draper,1,0
42,Philip,Shambrook,3,0
43,Jay,Sanderson,1,0
44,Todd,Foster,1,0
45,Ann-Marie,Wangdi,1,0
46,Beth,Lavery,3,0
47,Melissa,Wilkie,4,0
48,Brad,Russell,2,0
49,Trinity,Sanderson,2,0
50,Shayne,Rushan,5,0
51,Emma,Gibbons,2,0
52,Leah,Cripps,3,0
53,Kevin,de Vries,2,0
54,Michaela,Meharry,1,0
55,Phoebe,Lonsdale,1,0
56,Vicki,Lane,2,0
57,Maree,Platt,2,0
58,Leeza,Meharry,1,0
59,Amelia,Mitchell,1,0
60,Alan,East,1,0
61,Alistair,Stewart,1,0
62,Megan,McDonald,1,0
63,Fiona,Dangerfield,1,0
64,Gavin,Fiedler,3,0
65,Justine,Rowe,4,0
66,Charlotte,Murphy,1,0
67,Liz,Foster,1,0
68,Beatrice,Lonsdale,1,0
69,Troy,Davis,2,0
70,Josephine,Robinson,3,0
71,Hamish,Draper,1,0
72,Kathleen,Pleasants,3,0
73,Bec,Lacy,2,0
74,David,Howes,3,0
75,Sue,Taylor,4,0
76,Tyler,Wilkie,1,0
