Place,First,Last,NET Time,Pace,Diff
1,Belle,Howe,0:06:08.0,06:08.0,-01:51.0
2,Eden,Howes,0:06:05.0,06:05.0,-01:18.0
3,Jonty,McDermid,0:05:37.0,05:37.0,-00:30.0
4,Tim,Creer,0:04:03.0,04:03.0,-00:13.0
5,Sean,Hughan,0:06:05.0,06:05.0,-00:18.0
6,William,Robinson,0:04:15.0,04:15.0,-00:01.0
7,Abbey,Cartner,0:04:08.0,04:08.0,+00:02.0
8,Lewis,Lonsdale,0:04:09.0,04:09.0,-00:01.0
9,Avery,McDermid,0:04:36.0,04:36.0,+00:03.0
10,Tadhg,Hughan,0:04:37.0,04:37.0,+00:04.0
11,Poppy,Wainwright,0:06:26.0,06:26.0,+00:27.0
12,Sachin,Cody,0:06:27.0,06:27.0,+00:37.0
