Place,Member,First,Last,Start,Pace,Est Time
1,34,Matthew,Creer,00:00,07:59,0:07:59.0
2,372,Belle,Howe,00:00,07:59,0:07:59.0
3,382,Genevieve,Robinson,00:00,07:59,0:07:59.0
4,244,Jaron,Ekanayake,00:10,07:50,0:07:50.0
5,383,Sharon,Carlson,00:30,07:34,0:07:34.0
6,375,Dylan,Deacon,00:30,07:30,0:07:30.0
7,368,Eden,Howes,00:40,07:23,0:07:23.0
8,379,Quinn,Holmes,00:40,07:22,0:07:22.0
9,205,Amelia,Charnas,00:50,07:10,0:07:10.0
10,322,Thom,Hosking,00:50,07:10,0:07:10.0
11,371,Sharon,Newton,01:00,07:01,0:07:01.0
12,128,George,Pitson,01:00,06:56,0:06:56.0
13,381,April,Wainwright,01:30,06:27,0:06:27.0
14,304,Stephanie,Carlson,01:40,06:24,0:06:24.0
15,154,Sean,Hughan,01:40,06:23,0:06:23.0
16,135,Alexia,Woods,01:40,06:18,0:06:18.0
17,207,Lewis,Kallour,01:40,06:15,0:06:15.0
18,335,Lenny,Hancock,01:40,06:15,0:06:15.0
19,258,Ivy,Bray,01:50,06:12,0:06:12.0
20,323,Jana,Steen,01:50,06:11,0:06:11.0
21,305,Jonty,McDermid,01:50,06:07,0:06:07.0
22,44,Geoffrey,Robinson,02:00,06:05,0:06:05.0
23,348,Tazma,Ferrie,02:00,06:02,0:06:02.0
24,328,Daniel,Noble,02:00,06:01,0:06:01.0
25,246,Poppy,Wainwright,02:00,05:59,0:05:59.0
26,378,Aidan,Deacon,02:00,05:57,0:05:57.0
27,25,Maddi,Bray,02:00,05:56,0:05:56.0
28,28,Mitchell,Bray,02:00,05:55,0:05:55.0
29,313,Layla,Boulger,02:10,05:53,0:05:53.0
30,326,Sachin,Cody,02:10,05:50,0:05:50.0
31,355,Millie,McIntosh,02:10,05:47,0:05:47.0
32,211,Jesse,Brook,02:10,05:46,0:05:46.0
33,281,Will,deVries,02:20,05:45,0:05:45.0
34,234,Finn,Cunningham,02:20,05:44,0:05:44.0
35,178,Annabel,Hancock,02:20,05:43,0:05:43.0
36,255,Dylan,Sim,02:20,05:43,0:05:43.0
37,216,Ava,Terry,02:20,05:41,0:05:41.0
38,58,Archie,Ross,02:20,05:40,0:05:40.0
39,250,Tully,Cripps,02:20,05:40,0:05:40.0
40,123,Harry,Terry,02:20,05:39,0:05:39.0
41,316,Isabella,Makris,02:20,05:38,0:05:38.0
42,174,Sam,Hancock,02:20,05:36,0:05:36.0
43,235,Aoife,Cunningham,02:20,05:35,0:05:35.0
44,293,Spencer,Lavery,02:20,05:35,0:05:35.0
45,36,Henry,Turnbull,02:30,05:34,0:05:34.0
46,345,Jordan,Baker,02:30,05:33,0:05:33.0
47,175,Matilda,Wilby,02:30,05:32,0:05:32.0
48,298,Elliot,Lavery,02:30,05:32,0:05:32.0
49,324,Quinlan,Cody,02:30,05:32,0:05:32.0
50,282,Anna,deVries,02:30,05:30,0:05:30.0
51,271,Will,Smith,02:30,05:29,0:05:29.0
52,280,Paige,a'Beckett,02:40,05:25,0:05:25.0
53,50,Harry,Cripps,02:40,05:23,0:05:23.0
54,261,Charlotte,Crane,02:40,05:20,0:05:20.0
55,284,Imogen,Stewart,02:40,05:20,0:05:20.0
56,252,Jasmine,Murphy,02:40,05:18,0:05:18.0
57,260,Thomas,Henderson,02:40,05:18,0:05:18.0
58,172,Eloise,Wilby,02:40,05:17,0:05:17.0
59,209,Olivia,Douglas,02:40,05:17,0:05:17.0
60,232,Jack,Gleisner,02:40,05:17,0:05:17.0
61,245,Lacey,Wilkie,02:40,05:16,0:05:16.0
62,290,Sabine,Stewart,02:50,05:14,0:05:14.0
63,360,Phoebe,Martin,02:50,05:13,0:05:13.0
64,353,Cooper,Holmes,02:50,05:11,0:05:11.0
65,262,Annabelle,McPhee,02:50,05:07,0:05:07.0
66,358,Lewis,McIntosh,03:00,05:04,0:05:04.0
67,279,Lucy,McCaig,03:00,05:00,0:05:00.0
68,195,Luke,Creer,03:00,04:59,0:04:59.0
69,249,Will,Gleisner,03:00,04:58,0:04:58.0
70,242,Halle,Blake-Burrows,03:00,04:57,0:04:57.0
71,229,Harrison,Pitson,03:00,04:56,0:04:56.0
72,105,Toby,McCaig,03:10,04:52,0:04:52.0
73,297,Declan,Lavery,03:10,04:51,0:04:51.0
74,191,Phoebe,Lonsdale,03:10,04:50,0:04:50.0
75,362,Brody,Hale,03:10,04:47,0:04:47.0
76,283,Lily,Sanderson,03:10,04:46,0:04:46.0
77,228,Sam,Pitson,03:20,04:45,0:04:45.0
78,311,Jack,Kelly,03:20,04:44,0:04:44.0
79,276,Joshua,Feuerherdt,03:20,04:42,0:04:42.0
80,269,Cooper,Charnas,03:20,04:40,0:04:40.0
81,158,Annalise,Murphy,03:20,04:38,0:04:38.0
82,238,Alex,Parry,03:20,04:36,0:04:36.0
83,153,Tadhg,Hughan,03:30,04:33,0:04:33.0
84,274,Avery,McDermid,03:30,04:33,0:04:33.0
85,99,Oscar,Terry,03:30,04:32,0:04:32.0
86,300,Lucinda,Terry,03:30,04:29,0:04:29.0
87,277,Luke,Feuerherdt,03:40,04:25,0:04:25.0
88,83,Sam,Stewart,03:40,04:23,0:04:23.0
89,319,Nikolas,Makris,03:40,04:18,0:04:18.0
90,189,Tim,Creer,03:40,04:16,0:04:16.0
91,254,William,Robinson,03:40,04:16,0:04:16.0
92,295,Jeremy,Carlson,03:40,04:16,0:04:16.0
93,327,Martin,Steen,03:40,04:16,0:04:16.0
94,112,Jett,Grundy,03:50,04:12,0:04:12.0
95,198,Matthew,Saxon,03:50,04:11,0:04:11.0
96,266,Lewis,Lonsdale,03:50,04:10,0:04:10.0
97,337,Steff,Roberts,03:50,04:09,0:04:09.0
98,272,Abbey,Cartner,03:50,04:06,0:04:06.0
99,147,Lachlan,Feuerherdt,04:00,04:01,0:04:01.0
100,320,Callum,Noble,04:00,04:01,0:04:01.0
101,131,Carrisa,Brook,04:00,04:00,0:04:00.0
102,171,Oliver,Sanderson,04:00,03:58,0:03:58.0
103,221,Billy,Meade,04:10,03:53,0:03:53.0
